what,kind,bundleId,bundleVersion,description,time
executed,command,org.eclipse.ui,3.104.0.v20121024-145224,"org.eclipse.ui.edit.selectAll",1503631318233
executed,command,org.eclipse.ui,3.104.0.v20121024-145224,"org.eclipse.ui.edit.copy",1503631318553
activated,view,org.eclipse.ui.navigator.resources,3.4.400.v20120705-114010,"org.eclipse.ui.navigator.ProjectExplorer",1503631319975
activated,editor,org.eclipse.jdt.ui,3.8.2.v20130107-165834,"org.eclipse.jdt.ui.CompilationUnitEditor",1503631320209
executed,command,org.eclipse.ui,3.104.0.v20121024-145224,"org.eclipse.ui.edit.copy",1503631329210
deactivated,workbench,org.eclipse.ui.workbench,3.104.0.v20130204-164612,"",1503631334575
activated,workbench,org.eclipse.ui.workbench,3.104.0.v20130204-164612,"",1503631337679
activated,view,org.eclipse.team.ui,3.6.201.v20130125-135424,"org.eclipse.team.ui.GenericHistoryView",1503631339379
activated,editor,org.eclipse.jdt.ui,3.8.2.v20130107-165834,"org.eclipse.jdt.ui.CompilationUnitEditor",1503631342734
executed,command,org.eclipse.ui,3.104.0.v20121024-145224,"org.eclipse.ui.edit.selectAll",1503631343581
executed,command,org.eclipse.ui,3.104.0.v20121024-145224,"org.eclipse.ui.edit.copy",1503631343815
activated,view,org.eclipse.ui.navigator.resources,3.4.400.v20120705-114010,"org.eclipse.ui.navigator.ProjectExplorer",1503631346004
activated,editor,org.eclipse.jdt.ui,3.8.2.v20130107-165834,"org.eclipse.jdt.ui.CompilationUnitEditor",1503631346598
executed,command,org.eclipse.ui,3.104.0.v20121024-145224,"org.eclipse.ui.edit.selectAll",1503631347360
executed,command,org.eclipse.ui,3.104.0.v20121024-145224,"org.eclipse.ui.edit.paste",1503631347642
executed,command,org.eclipse.ui,3.104.0.v20121024-145224,"org.eclipse.ui.file.save",1503631348360
deactivated,workbench,org.eclipse.ui.workbench,3.104.0.v20130204-164612,"",1503631349642
activated,workbench,org.eclipse.ui.workbench,3.104.0.v20130204-164612,"",1503631352272
executed,command,org.eclipse.ui,3.104.0.v20121024-145224,"org.eclipse.ui.edit.paste",1503631354578
deactivated,workbench,org.eclipse.ui.workbench,3.104.0.v20130204-164612,"",1503631357954
activated,workbench,org.eclipse.ui.workbench,3.104.0.v20130204-164612,"",1503631360985
executed,command,org.eclipse.jdt.ui,3.8.2.v20130107-165834,"org.eclipse.jdt.ui.edit.text.java.organize.imports",1503631361069
executed,command,org.eclipse.ui,3.104.0.v20121024-145224,"org.eclipse.ui.file.save",1503631363492
executed,command,org.eclipse.ui,3.104.0.v20121024-145224,"org.eclipse.ui.edit.copy",1503631389987
executed,command,org.eclipse.ui,3.104.0.v20121024-145224,"org.eclipse.ui.edit.paste",1503631392036
executed,command,org.eclipse.ui,3.104.0.v20121024-145224,"org.eclipse.ui.edit.copy",1503631397698
executed,command,org.eclipse.ui,3.104.0.v20121024-145224,"org.eclipse.ui.edit.paste",1503631400722
executed,command,org.eclipse.ui,3.104.0.v20121024-145224,"org.eclipse.ui.edit.delete",1503631411545
executed,command,org.eclipse.ui,3.104.0.v20121024-145224,"org.eclipse.ui.edit.delete",1503631424238
executed,command,org.eclipse.ui,3.104.0.v20121024-145224,"org.eclipse.ui.file.save",1503631425269
deactivated,workbench,org.eclipse.ui.workbench,3.104.0.v20130204-164612,"",1503631440500
activated,workbench,org.eclipse.ui.workbench,3.104.0.v20130204-164612,"",1503631440578
deactivated,workbench,org.eclipse.ui.workbench,3.104.0.v20130204-164612,"",1503631441472
activated,workbench,org.eclipse.ui.workbench,3.104.0.v20130204-164612,"",1503631449784
executed,command,org.eclipse.ui,3.104.0.v20121024-145224,"org.eclipse.ui.file.save",1503631456258
deactivated,workbench,org.eclipse.ui.workbench,3.104.0.v20130204-164612,"",1503631475605
activated,workbench,org.eclipse.ui.workbench,3.104.0.v20130204-164612,"",1503631539523
deactivated,workbench,org.eclipse.ui.workbench,3.104.0.v20130204-164612,"",1503631544479
activated,workbench,org.eclipse.ui.workbench,3.104.0.v20130204-164612,"",1503631547155
deactivated,workbench,org.eclipse.ui.workbench,3.104.0.v20130204-164612,"",1503631564881
activated,workbench,org.eclipse.ui.workbench,3.104.0.v20130204-164612,"",1503631566350
executed,command,org.eclipse.ui,3.104.0.v20121024-145224,"org.eclipse.ui.edit.undo",1503631577172
executed,command,org.eclipse.ui,3.104.0.v20121024-145224,"org.eclipse.ui.edit.undo",1503631577391
executed,command,org.eclipse.ui,3.104.0.v20121024-145224,"org.eclipse.ui.edit.undo",1503631578032
executed,command,org.eclipse.ui,3.104.0.v20121024-145224,"org.eclipse.ui.edit.undo",1503631578438
executed,command,org.eclipse.ui,3.104.0.v20121024-145224,"org.eclipse.ui.edit.copy",1503631580361
executed,command,org.eclipse.ui,3.104.0.v20121024-145224,"org.eclipse.ui.edit.paste",1503631590008
executed,command,org.eclipse.ui,3.104.0.v20121024-145224,"org.eclipse.ui.edit.copy",1503631594115
executed,command,org.eclipse.ui,3.104.0.v20121024-145224,"org.eclipse.ui.edit.paste",1503631594596
executed,command,org.eclipse.ui,3.104.0.v20121024-145224,"org.eclipse.ui.edit.copy",1503631596909
executed,command,org.eclipse.ui,3.104.0.v20121024-145224,"org.eclipse.ui.edit.paste",1503631597597
executed,command,org.eclipse.ui,3.104.0.v20121024-145224,"org.eclipse.ui.file.save",1503631597753
deactivated,workbench,org.eclipse.ui.workbench,3.104.0.v20130204-164612,"",1503631599376
activated,workbench,org.eclipse.ui.workbench,3.104.0.v20130204-164612,"",1503631670302
executed,command,org.eclipse.ui,3.104.0.v20121024-145224,"org.eclipse.ui.edit.delete",1503631675839
executed,command,org.eclipse.ui,3.104.0.v20121024-145224,"org.eclipse.ui.edit.delete",1503631676074
executed,command,org.eclipse.ui,3.104.0.v20121024-145224,"org.eclipse.ui.file.save",1503631682328
deactivated,workbench,org.eclipse.ui.workbench,3.104.0.v20130204-164612,"",1503631684079
activated,workbench,org.eclipse.ui.workbench,3.104.0.v20130204-164612,"",1503631701137
executed,command,org.eclipse.ui,3.104.0.v20121024-145224,"org.eclipse.ui.file.save",1503631703684
deactivated,workbench,org.eclipse.ui.workbench,3.104.0.v20130204-164612,"",1503631723407
activated,workbench,org.eclipse.ui.workbench,3.104.0.v20130204-164612,"",1503631814379
executed,command,org.eclipse.ui.workbench.texteditor,3.8.0.v20120523-1310,"org.eclipse.ui.edit.text.delete.line",1503631815488
executed,command,org.eclipse.ui.workbench.texteditor,3.8.0.v20120523-1310,"org.eclipse.ui.edit.text.delete.line",1503631815691
executed,command,org.eclipse.ui,3.104.0.v20121024-145224,"org.eclipse.ui.file.save",1503631816128
activated,view,org.eclipse.ui.navigator.resources,3.4.400.v20120705-114010,"org.eclipse.ui.navigator.ProjectExplorer",1503631817832
deactivated,workbench,org.eclipse.ui.workbench,3.104.0.v20130204-164612,"",1503631822520
activated,workbench,org.eclipse.ui.workbench,3.104.0.v20130204-164612,"",1503631829893
executed,command,org.tigris.subversion.subclipse.ui,1.8.21,"org.tigris.subversion.subclipse.ui.commit",1503631829924
deactivated,workbench,org.eclipse.ui.workbench,3.104.0.v20130204-164612,"",1503631830206
activated,workbench,org.eclipse.ui.workbench,3.104.0.v20130204-164612,"",1503631830596
activated,view,org.eclipse.team.ui,3.6.201.v20130125-135424,"org.eclipse.team.ui.GenericHistoryView",1503631832300
activated,view,org.eclipse.ui.navigator.resources,3.4.400.v20120705-114010,"org.eclipse.ui.navigator.ProjectExplorer",1503631834269
activated,view,org.eclipse.team.ui,3.6.201.v20130125-135424,"org.eclipse.team.ui.GenericHistoryView",1503631841369
executed,command,org.tigris.subversion.subclipse.ui,1.8.21,"org.tigris.subversion.subclipse.ui.showresourceinhistoryaction",1503631841432
deactivated,workbench,org.eclipse.ui.workbench,3.104.0.v20130204-164612,"",1503631845414
opened,editor,org.eclipse.compare,3.5.301.v20130125-135424,"org.eclipse.compare.CompareEditor",1503631846555
activated,editor,org.eclipse.compare,3.5.301.v20130125-135424,"org.eclipse.compare.CompareEditor",1503631846602
activated,workbench,org.eclipse.ui.workbench,3.104.0.v20130204-164612,"",1503631846602
deactivated,workbench,org.eclipse.ui.workbench,3.104.0.v20130204-164612,"",1503631847039
activated,workbench,org.eclipse.ui.workbench,3.104.0.v20130204-164612,"",1503631847477
deactivated,workbench,org.eclipse.ui.workbench,3.104.0.v20130204-164612,"",1503631947063
activated,workbench,org.eclipse.ui.workbench,3.104.0.v20130204-164612,"",1503631988056
deactivated,workbench,org.eclipse.ui.workbench,3.104.0.v20130204-164612,"",1503632008989
activated,workbench,org.eclipse.ui.workbench,3.104.0.v20130204-164612,"",1503632018778
deactivated,workbench,org.eclipse.ui.workbench,3.104.0.v20130204-164612,"",1503632089040
activated,workbench,org.eclipse.ui.workbench,3.104.0.v20130204-164612,"",1503632105785
deactivated,workbench,org.eclipse.ui.workbench,3.104.0.v20130204-164612,"",1503632112041
activated,workbench,org.eclipse.ui.workbench,3.104.0.v20130204-164612,"",1503632131208
deactivated,workbench,org.eclipse.ui.workbench,3.104.0.v20130204-164612,"",1503632134901
activated,workbench,org.eclipse.ui.workbench,3.104.0.v20130204-164612,"",1503632309082
deactivated,workbench,org.eclipse.ui.workbench,3.104.0.v20130204-164612,"",1503632366557
activated,workbench,org.eclipse.ui.workbench,3.104.0.v20130204-164612,"",1503632368344
activated,view,org.eclipse.ui.navigator.resources,3.4.400.v20120705-114010,"org.eclipse.ui.navigator.ProjectExplorer",1503632369627
activated,editor,org.eclipse.jdt.ui,3.8.2.v20130107-165834,"org.eclipse.jdt.ui.CompilationUnitEditor",1503632369846
executed,command,org.eclipse.ui.workbench.texteditor,3.8.0.v20120523-1310,"org.eclipse.ui.edit.text.delete.line",1503632372341
executed,command,org.eclipse.ui.workbench.texteditor,3.8.0.v20120523-1310,"org.eclipse.ui.edit.text.delete.line",1503632373342
executed,command,org.eclipse.ui,3.104.0.v20121024-145224,"org.eclipse.ui.file.save",1503632373581
activated,view,org.eclipse.ui.navigator.resources,3.4.400.v20120705-114010,"org.eclipse.ui.navigator.ProjectExplorer",1503632376569
deactivated,workbench,org.eclipse.ui.workbench,3.104.0.v20130204-164612,"",1503632386394
activated,workbench,org.eclipse.ui.workbench,3.104.0.v20130204-164612,"",1503632397744
executed,command,org.tigris.subversion.subclipse.ui,1.8.21,"org.tigris.subversion.subclipse.ui.commit",1503632397759
deactivated,workbench,org.eclipse.ui.workbench,3.104.0.v20130204-164612,"",1503632398058
activated,workbench,org.eclipse.ui.workbench,3.104.0.v20130204-164612,"",1503632398500
deactivated,workbench,org.eclipse.ui.workbench,3.104.0.v20130204-164612,"",1503632404160
activated,workbench,org.eclipse.ui.workbench,3.104.0.v20130204-164612,"",1503632410887
activated,view,org.eclipse.team.ui,3.6.201.v20130125-135424,"org.eclipse.team.ui.GenericHistoryView",1503632410887
deactivated,workbench,org.eclipse.ui.workbench,3.104.0.v20130204-164612,"",1503632414108
activated,workbench,org.eclipse.ui.workbench,3.104.0.v20130204-164612,"",1503632482262
activated,editor,org.eclipse.jdt.ui,3.8.2.v20130107-165834,"org.eclipse.jdt.ui.CompilationUnitEditor",1503632482277
deactivated,workbench,org.eclipse.ui.workbench,3.104.0.v20130204-164612,"",1503632490513
activated,workbench,org.eclipse.ui.workbench,3.104.0.v20130204-164612,"",1503633489718
deactivated,workbench,org.eclipse.ui.workbench,3.104.0.v20130204-164612,"",1503633659528
activated,workbench,org.eclipse.ui.workbench,3.104.0.v20130204-164612,"",1503634316589
deactivated,workbench,org.eclipse.ui.workbench,3.104.0.v20130204-164612,"",1503634459688
activated,workbench,org.eclipse.ui.workbench,3.104.0.v20130204-164612,"",1503642513340
deactivated,workbench,org.eclipse.ui.workbench,3.104.0.v20130204-164612,"",1503642525473
activated,workbench,org.eclipse.ui.workbench,3.104.0.v20130204-164612,"",1503644594138
activated,view,org.eclipse.team.ui,3.6.201.v20130125-135424,"org.eclipse.team.ui.GenericHistoryView",1503644594156
opened,editor,org.eclipse.jdt.ui,3.8.2.v20130107-165834,"org.eclipse.jdt.ui.CompilationUnitEditor",1503644602544
activated,editor,org.eclipse.jdt.ui,3.8.2.v20130107-165834,"org.eclipse.jdt.ui.CompilationUnitEditor",1503644602700
activated,view,org.eclipse.ui.navigator.resources,3.4.400.v20120705-114010,"org.eclipse.ui.navigator.ProjectExplorer",1503644611111
activated,view,org.eclipse.team.ui,3.6.201.v20130125-135424,"org.eclipse.team.ui.GenericHistoryView",1503644617267
executed,command,org.tigris.subversion.subclipse.ui,1.8.21,"org.tigris.subversion.subclipse.ui.showresourceinhistoryaction",1503644617345
deactivated,workbench,org.eclipse.ui.workbench,3.104.0.v20130204-164612,"",1503644621772
opened,editor,org.eclipse.compare,3.5.301.v20130125-135424,"org.eclipse.compare.CompareEditor",1503644623088
activated,editor,org.eclipse.compare,3.5.301.v20130125-135424,"org.eclipse.compare.CompareEditor",1503644623151
activated,workbench,org.eclipse.ui.workbench,3.104.0.v20130204-164612,"",1503644623151
deactivated,workbench,org.eclipse.ui.workbench,3.104.0.v20130204-164612,"",1503644623575
activated,workbench,org.eclipse.ui.workbench,3.104.0.v20130204-164612,"",1503644623897
deactivated,workbench,org.eclipse.ui.workbench,3.104.0.v20130204-164612,"",1503644636009
activated,workbench,org.eclipse.ui.workbench,3.104.0.v20130204-164612,"",1503644774923
deactivated,workbench,org.eclipse.ui.workbench,3.104.0.v20130204-164612,"",1503644775925
activated,workbench,org.eclipse.ui.workbench,3.104.0.v20130204-164612,"",1503878928480
started,bundle,org.eclipse.epp.usagedata.ui,1.3.1.R201106061540,"org.eclipse.epp.usagedata.ui",1503878928498
deactivated,workbench,org.eclipse.ui.workbench,3.104.0.v20130204-164612,"",1503878928690
activated,workbench,org.eclipse.ui.workbench,3.104.0.v20130204-164612,"",1503878930018
activated,editor,org.eclipse.jdt.ui,3.8.2.v20130107-165834,"org.eclipse.jdt.ui.CompilationUnitEditor",1503878931899
closed,editor,org.eclipse.compare,3.5.301.v20130125-135424,"org.eclipse.compare.CompareEditor",1503878931915
deactivated,workbench,org.eclipse.ui.workbench,3.104.0.v20130204-164612,"",1503878934910
deactivated,workbench,org.eclipse.ui.workbench,3.104.0.v20130204-164612,"",1503878935567
activated,workbench,org.eclipse.ui.workbench,3.104.0.v20130204-164612,"",1503879744989
activated,view,org.eclipse.ui.navigator.resources,3.4.400.v20120705-114010,"org.eclipse.ui.navigator.ProjectExplorer",1503879758186
activated,editor,org.eclipse.jdt.ui,3.8.2.v20130107-165834,"org.eclipse.jdt.ui.CompilationUnitEditor",1503879758451
executed,command,org.eclipse.ui,3.104.0.v20121024-145224,"org.eclipse.ui.edit.copy",1503879761786
executed,command,org.eclipse.ui,3.104.0.v20121024-145224,"org.eclipse.ui.edit.paste",1503879763364
executed,command,org.eclipse.ui,3.104.0.v20121024-145224,"org.eclipse.ui.file.save",1503879768720
executed,command,org.eclipse.ui,3.104.0.v20121024-145224,"org.eclipse.ui.file.save",1503879771824
activated,view,org.eclipse.ui.navigator.resources,3.4.400.v20120705-114010,"org.eclipse.ui.navigator.ProjectExplorer",1503879784906
deactivated,workbench,org.eclipse.ui.workbench,3.104.0.v20130204-164612,"",1503879796789
activated,workbench,org.eclipse.ui.workbench,3.104.0.v20130204-164612,"",1503879800611
executed,command,org.tigris.subversion.subclipse.ui,1.8.21,"org.tigris.subversion.subclipse.ui.commit",1503879800650
deactivated,workbench,org.eclipse.ui.workbench,3.104.0.v20130204-164612,"",1503879800941
activated,workbench,org.eclipse.ui.workbench,3.104.0.v20130204-164612,"",1503879801286
deactivated,workbench,org.eclipse.ui.workbench,3.104.0.v20130204-164612,"",1503879808882
activated,workbench,org.eclipse.ui.workbench,3.104.0.v20130204-164612,"",1503880426935
deactivated,workbench,org.eclipse.ui.workbench,3.104.0.v20130204-164612,"",1503880428345
activated,workbench,org.eclipse.ui.workbench,3.104.0.v20130204-164612,"",1503880920538
deactivated,workbench,org.eclipse.ui.workbench,3.104.0.v20130204-164612,"",1503880950534
activated,workbench,org.eclipse.ui.workbench,3.104.0.v20130204-164612,"",1503891943737
deactivated,workbench,org.eclipse.ui.workbench,3.104.0.v20130204-164612,"",1503891948167
activated,workbench,org.eclipse.ui.workbench,3.104.0.v20130204-164612,"",1503891962639
deactivated,workbench,org.eclipse.ui.workbench,3.104.0.v20130204-164612,"",1503891965798
activated,workbench,org.eclipse.ui.workbench,3.104.0.v20130204-164612,"",1503900979852
deactivated,workbench,org.eclipse.ui.workbench,3.104.0.v20130204-164612,"",1503900985196
activated,workbench,org.eclipse.ui.workbench,3.104.0.v20130204-164612,"",1503900989592
closed,editor,com.adobe.flexbuilder.project.ui,4.7.0.349722,"com.adobe.flexbuilder.ui.StartPage",1503900989647
closed,editor,org.eclipse.jdt.ui,3.8.2.v20130107-165834,"org.eclipse.jdt.ui.CompilationUnitEditor",1503900989694
closed,editor,org.eclipse.compare,3.5.301.v20130125-135424,"org.eclipse.compare.CompareEditor",1503900989905
closed,editor,org.eclipse.jdt.ui,3.8.2.v20130107-165834,"org.eclipse.jdt.ui.CompilationUnitEditor",1503900989921
closed,view,org.eclipse.ui.ide,3.8.2.v20121106-165923,"org.eclipse.ui.views.ProblemView",1503900989952
closed,view,org.eclipse.search,3.8.0.v20120523-1540,"org.eclipse.search.ui.views.SearchView",1503900989968
closed,view,org.eclipse.jdt.ui,3.8.2.v20130107-165834,"org.eclipse.jdt.callhierarchy.view",1503900989968
closed,view,org.eclipse.team.ui,3.6.201.v20130125-135424,"org.eclipse.team.ui.GenericHistoryView",1503900989984
closed,view,org.eclipse.ui.views,3.6.100.v20120705-114010,"org.eclipse.ui.views.ContentOutline",1503900989999
closed,editor,com.adobe.flexbuilder.as.editor,4.7.0.349722,"com.adobe.flexbuilder.editors.actionscript.ActionScriptEditor",1503900990015
closed,editor,org.eclipse.wst.html.ui,1.0.702.v201211262010,"org.eclipse.wst.html.core.htmlsource.source",1503900990046
closed,editor,org.eclipse.jdt.ui,3.8.2.v20130107-165834,"org.eclipse.jdt.ui.CompilationUnitEditor",1503900990093
closed,editor,org.eclipse.jdt.ui,3.8.2.v20130107-165834,"org.eclipse.jdt.ui.CompilationUnitEditor",1503900990109
closed,editor,org.eclipse.jdt.ui,3.8.2.v20130107-165834,"org.eclipse.jdt.ui.CompilationUnitEditor",1503900990156
closed,editor,org.eclipse.jdt.ui,3.8.2.v20130107-165834,"org.eclipse.jdt.ui.CompilationUnitEditor",1503900990187
closed,view,org.eclipse.ui.navigator.resources,3.4.400.v20120705-114010,"org.eclipse.ui.navigator.ProjectExplorer",1503900990267
closed,workbench,org.eclipse.ui.workbench,3.104.0.v20130204-164612,"",1503900990376
stopped,bundle,org.eclipse.jst.j2ee.xdoclet.runtime,1.1.300.v201004280700,"org.eclipse.jst.j2ee.xdoclet.runtime",1503900991427
stopped,bundle,org.eclipse.jst.j2ee.ejb.annotations.xdoclet,1.2.200.v201103302125,"org.eclipse.jst.j2ee.ejb.annotations.xdoclet",1503900991427
stopped,bundle,org.eclipse.jst.server.generic.jboss,1.6.1.v200904151730,"org.eclipse.jst.server.generic.jboss",1503900991427
stopped,bundle,org.eclipse.jst.server.generic.jonas,1.5.205.v200805140145,"org.eclipse.jst.server.generic.jonas",1503900991427
stopped,bundle,org.eclipse.jst.server.generic.oc4j,1.5.206.v20090812,"org.eclipse.jst.server.generic.oc4j",1503900991443
stopped,bundle,org.eclipse.jst.server.websphere.core,1.0.302.v20080620,"org.eclipse.jst.server.websphere.core",1503900991443
stopped,bundle,org.eclipse.jst.server.generic.ui,1.0.505.v20100428,"org.eclipse.jst.server.generic.ui",1503900991443
stopped,bundle,org.eclipse.jst.server.generic.core,1.0.700.v20101219,"org.eclipse.jst.server.generic.core",1503900991458
stopped,bundle,org.eclipse.datatools.connectivity.oda.template.ui,3.2.4.v201301111130,"org.eclipse.datatools.connectivity.oda.template.ui",1503900991458
stopped,bundle,org.eclipse.pde.api.tools.ui,1.0.400.v20120523-2012,"org.eclipse.pde.api.tools.ui",1503900991458
stopped,bundle,org.eclipse.pde.ds.ui,1.0.200.v20120530-1435,"org.eclipse.pde.ds.ui",1503900991458
stopped,bundle,org.eclipse.pde.runtime,3.4.300.v20120523-1453,"org.eclipse.pde.runtime",1503900991458
stopped,bundle,org.eclipse.pde.ua.ui,1.0.200.v20120523-1453,"org.eclipse.pde.ua.ui",1503900991474
stopped,bundle,org.eclipse.pde.ui.templates,3.4.500.v20120523-2012,"org.eclipse.pde.ui.templates",1503900991474
stopped,bundle,org.eclipse.pde.ui,3.7.2.v20130121-093123,"org.eclipse.pde.ui",1503900991474
stopped,bundle,org.eclipse.mylyn.ide.ant,3.6.0.v20110608-1400,"org.eclipse.mylyn.ide.ant",1503900991474
stopped,bundle,org.eclipse.ant.ui,3.5.301.v20121210-210948,"org.eclipse.ant.ui",1503900991474
stopped,bundle,org.eclipse.ant.launching,1.0.200.v20120530-1204,"org.eclipse.ant.launching",1503900991490
stopped,bundle,org.eclipse.compare.win32,1.0.200.v20120914-154749,"org.eclipse.compare.win32",1503900991490
stopped,bundle,org.eclipse.equinox.p2.ui.sdk,1.0.200.v20120515-1650,"org.eclipse.equinox.p2.ui.sdk",1503900991490
stopped,bundle,org.eclipse.jst.server.tomcat.ui,1.1.300.v20120420_1012,"org.eclipse.jst.server.tomcat.ui",1503900991490
stopped,bundle,org.eclipse.jst.server.ui,1.1.202.v20110419,"org.eclipse.jst.server.ui",1503900991505
stopped,bundle,org.eclipse.mylyn.java.tasks,3.6.0.v20110608-1400,"org.eclipse.mylyn.java.tasks",1503900991505
stopped,bundle,org.eclipse.mylyn.java.ui,3.6.0.v20110608-1400,"org.eclipse.mylyn.java.ui",1503900991505
stopped,bundle,org.eclipse.jdt.junit,3.7.100.v20120523-1543,"org.eclipse.jdt.junit",1503900991505
stopped,bundle,org.eclipse.jpt.jpa.eclipselink.ui,2.2.1.v201208222210,"org.eclipse.jpt.jpa.eclipselink.ui",1503900991505
stopped,bundle,org.eclipse.jpt.jpa.eclipselink.core,2.2.1.v201208222210,"org.eclipse.jpt.jpa.eclipselink.core",1503900991505
stopped,bundle,org.eclipse.jpt.jpa.ui,3.2.2.v201301092252,"org.eclipse.jpt.jpa.ui",1503900991505
stopped,bundle,org.eclipse.m2e.wtp.jpa,1.0.0.e42-20130613-0136,"org.eclipse.m2e.wtp.jpa",1503900991521
stopped,bundle,org.eclipse.jpt.jpa.core,3.2.2.v201301092252,"org.eclipse.jpt.jpa.core",1503900991521
stopped,bundle,org.eclipse.jpt.jpa.db,2.1.101.v201208222210,"org.eclipse.jpt.jpa.db",1503900991521
stopped,bundle,org.eclipse.datatools.enablement.jdt.classpath,1.0.1.v201107221501,"org.eclipse.datatools.enablement.jdt.classpath",1503900991537
stopped,bundle,org.eclipse.jdt.apt.ui,3.3.300.v20120522-1651,"org.eclipse.jdt.apt.ui",1503900991537
stopped,bundle,org.eclipse.datatools.enablement.sybase.asa.schemaobjecteditor.examples,2.5.0.200810071,"org.eclipse.datatools.enablement.sybase.asa.schemaobjecteditor.examples",1503900991552
stopped,bundle,org.eclipse.datatools.sqltools.debugger.core.ui,1.0.0.v201003161000,"org.eclipse.datatools.sqltools.debugger.core.ui",1503900991552
stopped,bundle,org.eclipse.jst.server.preview.adapter,1.1.201.v20130123_1813,"org.eclipse.jst.server.preview.adapter",1503900991552
stopped,bundle,org.eclipse.wst.xsl.jaxp.debug.ui,1.0.200.v201103081922,"org.eclipse.wst.xsl.jaxp.debug.ui",1503900991552
stopped,bundle,org.eclipse.m2e.launching,1.4.0.20130601-0317,"org.eclipse.m2e.launching",1503900991552
stopped,bundle,org.eclipse.jdt.debug.ui,3.6.100.v20120530-1425,"org.eclipse.jdt.debug.ui",1503900991552
stopped,bundle,org.eclipse.jpt.dbws.eclipselink.ui,1.0.201.v201208222210,"org.eclipse.jpt.dbws.eclipselink.ui",1503900991552
stopped,bundle,org.eclipse.jpt.jaxb.eclipselink.ui,1.3.1.v201208222210,"org.eclipse.jpt.jaxb.eclipselink.ui",1503900991568
stopped,bundle,org.eclipse.jpt.jaxb.ui,1.3.1.v201208222210,"org.eclipse.jpt.jaxb.ui",1503900991568
stopped,bundle,org.eclipse.jpt.common.ui,1.2.1.v201208222210,"org.eclipse.jpt.common.ui",1503900991568
stopped,bundle,org.eclipse.jst.common.annotations.ui,1.1.300.v201002081900,"org.eclipse.jst.common.annotations.ui",1503900991568
stopped,bundle,org.eclipse.jst.j2ee.ejb.annotations.ui,1.1.200.v201004290730,"org.eclipse.jst.j2ee.ejb.annotations.ui",1503900991568
stopped,bundle,org.eclipse.jst.ejb.ui,1.1.700.v201201190500,"org.eclipse.jst.ejb.ui",1503900991568
stopped,bundle,org.eclipse.jst.ws.axis.creation.ui,1.0.750.v201204120428,"org.eclipse.jst.ws.axis.creation.ui",1503900991568
stopped,bundle,org.eclipse.jst.ws.axis.consumption.ui,1.0.700.v201204181727,"org.eclipse.jst.ws.axis.consumption.ui",1503900991584
stopped,bundle,org.eclipse.jst.ws.axis2.creation.ui,1.0.104.v201004211805,"org.eclipse.jst.ws.axis2.creation.ui",1503900991584
stopped,bundle,org.eclipse.jst.ws.axis2.consumption.ui,1.0.103.v201004211805,"org.eclipse.jst.ws.axis2.consumption.ui",1503900991584
stopped,bundle,org.eclipse.jst.ws.axis2.creation.core,1.0.106.v201004211805,"org.eclipse.jst.ws.axis2.creation.core",1503900991584
stopped,bundle,org.eclipse.jst.ws.axis2.consumption.core,1.0.105.v201004211805,"org.eclipse.jst.ws.axis2.consumption.core",1503900991584
stopped,bundle,org.eclipse.jst.ws.cxf.creation.ui,1.0.201.v201301072322,"org.eclipse.jst.ws.cxf.creation.ui",1503900991599
stopped,bundle,org.eclipse.jst.ws.creation.ui,1.0.700.v201205041550,"org.eclipse.jst.ws.creation.ui",1503900991599
stopped,bundle,org.eclipse.jst.ws.cxf.consumption.ui,1.0.200.v201201312103,"org.eclipse.jst.ws.cxf.consumption.ui",1503900991599
stopped,bundle,org.eclipse.jst.ws.consumption.ui,1.1.600.v201301232254,"org.eclipse.jst.ws.consumption.ui",1503900991599
stopped,bundle,org.eclipse.jst.j2ee.webservice.ui,1.1.500.v201105122000,"org.eclipse.jst.j2ee.webservice.ui",1503900991599
stopped,bundle,org.eclipse.jst.servlet.ui,1.1.600.v201202011057,"org.eclipse.jst.servlet.ui",1503900991599
stopped,bundle,org.eclipse.jst.ws.jaxws.dom.integration,1.0.200.v201109042201,"org.eclipse.jst.ws.jaxws.dom.integration",1503900991599
stopped,bundle,org.eclipse.jst.jee.ui,1.0.500.v201205170400,"org.eclipse.jst.jee.ui",1503900991599
stopped,bundle,org.eclipse.jst.j2ee.navigator.ui,1.1.600.v201203142300,"org.eclipse.jst.j2ee.navigator.ui",1503900991599
stopped,bundle,org.eclipse.jst.j2ee.jca.ui,1.1.400.v201004150700,"org.eclipse.jst.j2ee.jca.ui",1503900991615
stopped,bundle,org.eclipse.jst.j2ee.ui,1.1.600.v201205170400,"org.eclipse.jst.j2ee.ui",1503900991615
stopped,bundle,org.eclipse.jst.jsf.facelet.ui,1.1.0.v201301161500,"org.eclipse.jst.jsf.facelet.ui",1503900991615
stopped,bundle,org.eclipse.jst.jsf.ui,1.4.0.v201301161500,"org.eclipse.jst.jsf.ui",1503900991615
stopped,bundle,org.eclipse.jst.ws.jaxrs.ui,1.0.500.v201205020140,"org.eclipse.jst.ws.jaxrs.ui",1503900991615
stopped,bundle,org.eclipse.jst.common.project.facet.ui,1.4.200.v201008182133,"org.eclipse.jst.common.project.facet.ui",1503900991615
