what,kind,bundleId,bundleVersion,description,time
stopped,bundle,org.eclipse.jst.common.ui,1.0.201.v201208292200,"org.eclipse.jst.common.ui",1503900991615
stopped,bundle,org.eclipse.jst.j2ee.ejb.annotations.emitter,1.1.200.v200909290826,"org.eclipse.jst.j2ee.ejb.annotations.emitter",1503900991615
stopped,bundle,org.eclipse.jst.jsf.apache.trinidad.tagsupport,1.2.0.v201301161500,"org.eclipse.jst.jsf.apache.trinidad.tagsupport",1503900991630
stopped,bundle,org.eclipse.jst.jsf.facesconfig.ui,1.3.0.v201301161500,"org.eclipse.jst.jsf.facesconfig.ui",1503900991630
stopped,bundle,org.eclipse.jst.pagedesigner.jsf.ui,1.3.0.v201301161500,"org.eclipse.jst.pagedesigner.jsf.ui",1503900991630
stopped,bundle,org.eclipse.jst.pagedesigner,1.4.0.v201301161500,"org.eclipse.jst.pagedesigner",1503900991630
stopped,bundle,org.eclipse.jst.jsf.common.ui,1.3.0.v201301161500,"org.eclipse.jst.jsf.common.ui",1503900991646
stopped,bundle,org.eclipse.jst.jsf.facelet.core,1.1.0.v201301161500,"org.eclipse.jst.jsf.facelet.core",1503900991646
stopped,bundle,org.eclipse.m2e.wtp.jsf,1.0.0.20130613-0136,"org.eclipse.m2e.wtp.jsf",1503900991646
stopped,bundle,org.eclipse.jst.jsf.core,1.5.0.v201301161500,"org.eclipse.jst.jsf.core",1503900991646
stopped,bundle,org.eclipse.jst.jsf.standard.tagsupport,1.3.0.v201301161500,"org.eclipse.jst.jsf.standard.tagsupport",1503900991646
stopped,bundle,org.eclipse.jst.pagedesigner.jsp.core,1.3.0.v201301161500,"org.eclipse.jst.pagedesigner.jsp.core",1503900991646
stopped,bundle,org.eclipse.jst.jsf.common,1.3.0.v201301161500,"org.eclipse.jst.jsf.common",1503900991662
stopped,bundle,org.eclipse.wst.jsdt.web.support.jsp,1.0.500.v201204260100,"org.eclipse.wst.jsdt.web.support.jsp",1503900991662
stopped,bundle,org.eclipse.jst.jsp.ui,1.1.702.v201301101836,"org.eclipse.jst.jsp.ui",1503900991662
stopped,bundle,org.eclipse.jst.ws.cxf.consumption.core,1.0.201.v201301072322,"org.eclipse.jst.ws.cxf.consumption.core",1503900991662
stopped,bundle,org.eclipse.jst.ws.cxf.creation.core,1.0.201.v201301072322,"org.eclipse.jst.ws.cxf.creation.core",1503900991662
stopped,bundle,org.eclipse.jst.ws.cxf.ui,1.0.200.v201203062228,"org.eclipse.jst.ws.cxf.ui",1503900991677
stopped,bundle,org.eclipse.jst.ws.cxf.core,1.1.1.v201301082115,"org.eclipse.jst.ws.cxf.core",1503900991677
stopped,bundle,org.eclipse.jst.ws.jaxb.core,1.0.100.v201104031139,"org.eclipse.jst.ws.jaxb.core",1503900991677
stopped,bundle,org.eclipse.jst.ws.jaxws.ui,1.0.201.v201301072322,"org.eclipse.jst.ws.jaxws.ui",1503900991677
stopped,bundle,org.eclipse.jst.ws.jaxws.core,1.0.201.v201301072322,"org.eclipse.jst.ws.jaxws.core",1503900991677
stopped,bundle,org.eclipse.jst.ws.annotations.core,1.2.0.v201203272107,"org.eclipse.jst.ws.annotations.core",1503900991677
stopped,bundle,org.eclipse.jst.ws.axis2.ui,1.0.303.v201003110431,"org.eclipse.jst.ws.axis2.ui",1503900991677
stopped,bundle,org.eclipse.jst.ws.uddiregistry,1.0.500.v201004211805,"org.eclipse.jst.ws.uddiregistry",1503900991677
stopped,bundle,org.eclipse.jst.ws.ui,1.0.403.v201004211805,"org.eclipse.jst.ws.ui",1503900991693
stopped,bundle,org.eclipse.m2e.wtp.jaxrs,1.0.0.20130613-0136,"org.eclipse.m2e.wtp.jaxrs",1503900991693
stopped,bundle,org.eclipse.m2e.wtp,1.0.0.20130613-0136,"org.eclipse.m2e.wtp",1503900991693
stopped,bundle,org.jboss.tools.maven.apt.ui,1.0.1.201209200721,"org.jboss.tools.maven.apt.ui",1503900991693
stopped,bundle,org.jboss.tools.maven.apt.core,1.0.1.201209200721,"org.jboss.tools.maven.apt.core",1503900991693
stopped,bundle,org.eclipse.m2e.jdt,1.4.0.20130601-0317,"org.eclipse.m2e.jdt",1503900991693
stopped,bundle,org.eclipse.m2e.refactoring,1.4.0.20130601-0317,"org.eclipse.m2e.refactoring",1503900991693
stopped,bundle,org.granite.builder,2.2.0.SP2,"org.granite.builder",1503900991709
stopped,bundle,org.eclipse.wb.swing.databinding,1.1.0.r37x201109091143,"org.eclipse.wb.swing.databinding",1503900991709
stopped,bundle,org.eclipse.wb.core.databinding,1.1.0.r37x201109091012,"org.eclipse.wb.core.databinding",1503900991709
stopped,bundle,org.eclipse.wb.swing.FormLayout,1.1.0.r37x201109091143,"org.eclipse.wb.swing.FormLayout",1503900991709
stopped,bundle,org.eclipse.wb.swing.MigLayout,1.1.0.r37x201109091143,"org.eclipse.wb.swing.MigLayout",1503900991709
stopped,bundle,org.eclipse.wb.swing.java6,1.1.0.r37x201109091143,"org.eclipse.wb.swing.java6",1503900991709
stopped,bundle,org.eclipse.wb.swing.jsr296,1.1.0.r37x201109091143,"org.eclipse.wb.swing.jsr296",1503900991709
stopped,bundle,org.eclipse.wb.swing,1.1.0.r37x201109091143,"org.eclipse.wb.swing",1503900991724
stopped,bundle,org.eclipse.wb.core.ui,1.1.0.r37x201109091028,"org.eclipse.wb.core.ui",1503900991724
stopped,bundle,org.eclipse.wb.layout.group,1.1.0.r37x201109091112,"org.eclipse.wb.layout.group",1503900991724
stopped,bundle,org.eclipse.wb.os.win32,1.1.0.r37x201109091012,"org.eclipse.wb.os.win32",1503900991724
stopped,bundle,org.eclipse.wb.core,1.1.0.r37x201109091012,"org.eclipse.wb.core",1503900991724
stopped,bundle,org.eclipse.jdt.ui,3.8.2.v20130107-165834,"org.eclipse.jdt.ui",1503900991724
stopped,bundle,org.eclipse.rse.importexport,1.2.300.201205241511,"org.eclipse.rse.importexport",1503900991724
stopped,bundle,org.eclipse.rse.subsystems.shells.telnet,1.2.300.201205062159,"org.eclipse.rse.subsystems.shells.telnet",1503900991724
stopped,bundle,org.eclipse.rse.useractions,1.1.400.201205062159,"org.eclipse.rse.useractions",1503900991724
stopped,bundle,org.eclipse.rse.shells.ui,3.0.401.201212171813,"org.eclipse.rse.shells.ui",1503900991740
stopped,bundle,org.eclipse.rse.files.ui,3.2.101.201302012126,"org.eclipse.rse.files.ui",1503900991740
stopped,bundle,org.eclipse.rse.processes.ui,3.0.400.201205062159,"org.eclipse.rse.processes.ui",1503900991740
stopped,bundle,org.eclipse.wst.dtd.ui,1.0.700.v201203081826,"org.eclipse.wst.dtd.ui",1503900991740
stopped,bundle,org.eclipse.wst.wsdl.ui,1.2.500.v201108240518,"org.eclipse.wst.wsdl.ui",1503900991740
stopped,bundle,org.eclipse.wst.wsi.ui,1.0.502.v201104071820,"org.eclipse.wst.wsi.ui",1503900991740
stopped,bundle,org.eclipse.wst.jsdt.web.ui,1.0.502.v201208171701,"org.eclipse.wst.jsdt.web.ui",1503900991740
stopped,bundle,org.eclipse.wst.web.ui,1.1.600.v201109220400,"org.eclipse.wst.web.ui",1503900991740
stopped,bundle,org.eclipse.wst.html.ui,1.0.702.v201211262010,"org.eclipse.wst.html.ui",1503900991740
stopped,bundle,org.eclipse.wst.css.ui,1.0.702.v201211262010,"org.eclipse.wst.css.ui",1503900991740
stopped,bundle,org.eclipse.wst.xsl.exslt.ui,1.0.0.v201006012005,"org.eclipse.wst.xsl.exslt.ui",1503900991740
stopped,bundle,org.eclipse.wst.xsl.ui,1.1.300.v201204101539,"org.eclipse.wst.xsl.ui",1503900991740
stopped,bundle,org.eclipse.wst.xml.xpath.ui,1.1.101.v201204260040,"org.eclipse.wst.xml.xpath.ui",1503900991740
stopped,bundle,org.eclipse.wst.xsd.ui,1.2.500.v201203081826,"org.eclipse.wst.xsd.ui",1503900991755
stopped,bundle,org.eclipse.wst.xsl.debug.ui,1.0.200.v201101281837,"org.eclipse.wst.xsl.debug.ui",1503900991755
stopped,bundle,org.eclipse.m2e.editor,1.4.0.20130601-0317,"org.eclipse.m2e.editor",1503900991755
stopped,bundle,org.eclipse.m2e.editor.xml,1.4.0.20130601-0317,"org.eclipse.m2e.editor.xml",1503900991755
stopped,bundle,org.eclipse.wst.xml.ui,1.1.302.v201301172222,"org.eclipse.wst.xml.ui",1503900991755
stopped,bundle,org.eclipse.wst.common.ui,1.1.500.v200911190730,"org.eclipse.wst.common.ui",1503900991755
stopped,bundle,org.eclipse.wst.jsdt.debug.rhino.ui,1.0.101.v201208171701,"org.eclipse.wst.jsdt.debug.rhino.ui",1503900991771
stopped,bundle,org.eclipse.wst.jsdt.debug.ui,1.0.201.v201208241832,"org.eclipse.wst.jsdt.debug.ui",1503900991771
stopped,bundle,org.eclipse.wst.jsdt.support.firefox,1.0.402.v201208171701,"org.eclipse.wst.jsdt.support.firefox",1503900991771
stopped,bundle,org.eclipse.wst.jsdt.ui,1.1.202.v201208171701,"org.eclipse.wst.jsdt.ui",1503900991771
stopped,bundle,org.eclipse.wst.sse.ui,1.3.102.v201301162301,"org.eclipse.wst.sse.ui",1503900991771
stopped,bundle,org.eclipse.egit.mylyn.ui,1.1.0.201109151100-r,"org.eclipse.egit.mylyn.ui",1503900991771
stopped,bundle,org.eclipse.egit.ui,1.1.0.201109151100-r,"org.eclipse.egit.ui",1503900991771
stopped,bundle,com.adobe.flashbuilder.multiplatform.android.ui,4.7.0.349722,"com.adobe.flashbuilder.multiplatform.android.ui",1503900991771
stopped,bundle,com.adobe.flashbuilder.multiplatform.ios.ui,4.7.0.349722,"com.adobe.flashbuilder.multiplatform.ios.ui",1503900991771
stopped,bundle,com.adobe.flashbuilder.project.multiplatform.ui,4.7.0.349722,"com.adobe.flashbuilder.project.multiplatform.ui",1503900991771
stopped,bundle,com.adobe.flexbuilder.ajaxbridge,4.7.0.349722,"com.adobe.flexbuilder.ajaxbridge",1503900991771
stopped,bundle,com.adobe.flexbuilder.dcrad,4.7.0.349722,"com.adobe.flexbuilder.dcrad",1503900991771
stopped,bundle,com.adobe.flexbuilder.standalone,4.7.0.349722,"com.adobe.flexbuilder.standalone",1503900991771
stopped,bundle,com.adobe.flexbuilder.debug.ui,4.7.0.349722,"com.adobe.flexbuilder.debug.ui",1503900991771
stopped,bundle,com.adobe.flexbuilder.mxml.editor,4.7.0.349722,"com.adobe.flexbuilder.mxml.editor",1503900991787
stopped,bundle,com.adobe.flexbuilder.css.editor,4.7.0.349722,"com.adobe.flexbuilder.css.editor",1503900991787
stopped,bundle,com.adobe.flexbuilder.exportimport,4.7.0.349722,"com.adobe.flexbuilder.exportimport",1503900991787
stopped,bundle,com.adobe.flexbuilder.flashbridge,4.7.0.349722,"com.adobe.flexbuilder.flashbridge",1503900991787
stopped,bundle,com.adobe.flexbuilder.flexunit,4.7.0.349722,"com.adobe.flexbuilder.flexunit",1503900991787
stopped,bundle,com.adobe.flexbuilder.as.editor,4.7.0.349722,"com.adobe.flexbuilder.as.editor",1503900991787
stopped,bundle,com.adobe.flexbuilder.importartwork,4.7.0.349722,"com.adobe.flexbuilder.importartwork",1503900991787
stopped,bundle,com.adobe.flexbuilder.tengine,4.7.0.349722,"com.adobe.flexbuilder.tengine",1503900991787
stopped,bundle,com.adobe.flexbuilder.editorcore,4.7.0.349722,"com.adobe.flexbuilder.editorcore",1503900991787
stopped,bundle,com.adobe.flashbuilder.launching.multiplatform.ui,4.7.0.349722,"com.adobe.flashbuilder.launching.multiplatform.ui",1503900991787
stopped,bundle,com.adobe.flexbuilder.launching.ui,4.7.0.349722,"com.adobe.flexbuilder.launching.ui",1503900991802
stopped,bundle,com.adobe.flexbuilder.project.ui,4.7.0.349722,"com.adobe.flexbuilder.project.ui",1503900991802
stopped,bundle,com.adobe.flexbuilder.debug,4.7.0.349722,"com.adobe.flexbuilder.debug",1503900991802
stopped,bundle,com.adobe.flash.profiler,4.7.0.349722,"com.adobe.flash.profiler",1503900991802
stopped,bundle,com.adobe.flexide.exportimport,4.7.0.349722,"com.adobe.flexide.exportimport",1503900991802
stopped,bundle,com.adobe.flexide.fonts,4.7.0.349722,"com.adobe.flexide.fonts",1503900991802
stopped,bundle,com.adobe.flexide.designitems,4.7.0.349722,"com.adobe.flexide.designitems",1503900991802
stopped,bundle,com.adobe.flexide.multiplatform.ios,4.7.0.349722,"com.adobe.flexide.multiplatform.ios",1503900991849
stopped,bundle,com.adobe.flexide.refactoring.core,4.7.0.349722,"com.adobe.flexide.refactoring.core",1503900991865
stopped,bundle,com.adobe.flexide.mxml.core,4.7.0.349722,"com.adobe.flexide.mxml.core",1503900991865
stopped,bundle,com.adobe.flexide.css.core,4.7.0.349722,"com.adobe.flexide.css.core",1503900991865
stopped,bundle,com.adobe.flexbuilder.monitors.network,4.7.0.349722,"com.adobe.flexbuilder.monitors.network",1503900991865
stopped,bundle,com.adobe.flexide.as.core,4.7.0.349722,"com.adobe.flexide.as.core",1503900991865
stopped,bundle,com.adobe.flexide.externaleditors,4.7.0.349722,"com.adobe.flexide.externaleditors",1503900991865
stopped,bundle,com.adobe.flexide.editorcore,4.7.0.349722,"com.adobe.flexide.editorcore",1503900991865
stopped,bundle,com.adobe.flexbuilder.mxmlmodel,4.7.0.349722,"com.adobe.flexbuilder.mxmlmodel",1503900991865
stopped,bundle,com.adobe.flashbuilder.launching.multiplatform.contributor,4.7.0.349722,"com.adobe.flashbuilder.launching.multiplatform.contributor",1503900991865
stopped,bundle,com.adobe.flashbuilder.launching.win8,4.7.0.349722,"com.adobe.flashbuilder.launching.win8",1503900991865
stopped,bundle,com.adobe.flexbuilder.multisdk,4.7.0.349722,"com.adobe.flexbuilder.multisdk",1503900991865
stopped,bundle,com.adobe.flexbuilder.ui,4.7.0.349722,"com.adobe.flexbuilder.ui",1503900991865
stopped,bundle,com.adobe.flexide.codemodel.bridge,4.7.0.349722,"com.adobe.flexide.codemodel.bridge",1503900991865
stopped,bundle,com.adobe.flexide.multiplatform.android,4.7.0.349722,"com.adobe.flexide.multiplatform.android",1503900991865
stopped,bundle,com.adobe.flexide.launching.multiplatform,4.7.0.349722,"com.adobe.flexide.launching.multiplatform",1503900991880
stopped,bundle,com.adobe.flexide.launching,4.7.0.349722,"com.adobe.flexide.launching",1503900991880
stopped,bundle,com.adobe.flexide.project.multiplatform,4.7.0.349722,"com.adobe.flexide.project.multiplatform",1503900991880
stopped,bundle,com.adobe.flexbuilder.project,4.7.0.349722,"com.adobe.flexbuilder.project",1503900991880
stopped,bundle,com.adobe.flexbuilder.editors.derived,4.7.0.349722,"com.adobe.flexbuilder.editors.derived",1503900991880
stopped,bundle,org.eclipse.search,3.8.0.v20120523-1540,"org.eclipse.search",1503900991880
stopped,bundle,org.eclipse.datatools.enablement.sybase.asa.ui,1.0.1.v200906111204,"org.eclipse.datatools.enablement.sybase.asa.ui",1503900991880
activated,perspective,org.eclipse.jst.j2ee.ui,,"org.eclipse.jst.j2ee.J2EEPerspective",1504052098956
started,bundle,org.eclipse.osgi,3.8.2.v20130124-134944,"org.eclipse.osgi",1504052098956
started,bundle,org.eclipse.equinox.simpleconfigurator,1.0.301.v20120914-163612,"org.eclipse.equinox.simpleconfigurator",1504052098956
started,bundle,com.ibm.icu,4.4.2.v20110823,"com.ibm.icu",1504052098956
started,bundle,org.apache.felix.gogo.command,0.8.0.v201108120515,"org.apache.felix.gogo.command",1504052098956
started,bundle,org.apache.felix.gogo.runtime,0.8.0.v201108120515,"org.apache.felix.gogo.runtime",1504052098956
started,bundle,org.apache.felix.gogo.shell,0.8.0.v201110170705,"org.apache.felix.gogo.shell",1504052098956
started,bundle,org.eclipse.compare,3.5.301.v20130125-135424,"org.eclipse.compare",1504052098956
started,bundle,org.eclipse.compare.core,3.5.200.v20120522-1148,"org.eclipse.compare.core",1504052098956
started,bundle,org.eclipse.core.contenttype,3.4.200.v20120523-2004,"org.eclipse.core.contenttype",1504052098971
started,bundle,org.eclipse.core.databinding.observable,1.4.1.v20120521-2329,"org.eclipse.core.databinding.observable",1504052098971
started,bundle,org.eclipse.core.expressions,3.4.401.v20120912-155018,"org.eclipse.core.expressions",1504052098971
started,bundle,org.eclipse.core.filebuffers,3.5.200.v20120523-1310,"org.eclipse.core.filebuffers",1504052098971
started,bundle,org.eclipse.core.filesystem,1.3.200.v20130115-145044,"org.eclipse.core.filesystem",1504052098971
started,bundle,org.eclipse.core.jobs,3.5.300.v20120912-155018,"org.eclipse.core.jobs",1504052098971
started,bundle,org.eclipse.core.net,1.2.200.v20120914-093638,"org.eclipse.core.net",1504052098971
started,bundle,org.eclipse.core.resources,3.8.1.v20121114-124432,"org.eclipse.core.resources",1504052098971
started,bundle,org.eclipse.core.runtime,3.8.0.v20120912-155025,"org.eclipse.core.runtime",1504052098971
started,bundle,org.eclipse.core.runtime.compatibility,3.2.200.v20120521-2346,"org.eclipse.core.runtime.compatibility",1504052098971
started,bundle,org.eclipse.core.variables,3.2.600.v20120521-2012,"org.eclipse.core.variables",1504052098971
started,bundle,org.eclipse.debug.core,3.7.100.v20120521-2012,"org.eclipse.debug.core",1504052098971
started,bundle,org.eclipse.e4.core.commands,0.10.1.v20120523-1955,"org.eclipse.e4.core.commands",1504052098971
started,bundle,org.eclipse.e4.core.contexts,1.2.0.v20121221-192508,"org.eclipse.e4.core.contexts",1504052098971
started,bundle,org.eclipse.e4.core.di,1.2.0.v20121024-173149,"org.eclipse.e4.core.di",1504052098971
started,bundle,org.eclipse.e4.core.services,1.0.0.v20120521-2346,"org.eclipse.e4.core.services",1504052098987
started,bundle,org.eclipse.e4.ui.bindings,0.10.3.v20130123-162658,"org.eclipse.e4.ui.bindings",1504052098987
started,bundle,org.eclipse.e4.ui.css.swt,0.10.3.v20130123-162658,"org.eclipse.e4.ui.css.swt",1504052098987
started,bundle,org.eclipse.e4.ui.css.swt.theme,0.9.4.v20130123-162658,"org.eclipse.e4.ui.css.swt.theme",1504052098987
started,bundle,org.eclipse.e4.ui.di,0.10.1.v20120523-1955,"org.eclipse.e4.ui.di",1504052098987
started,bundle,org.eclipse.e4.ui.model.workbench,0.10.1.v20120523-1955,"org.eclipse.e4.ui.model.workbench",1504052098987
started,bundle,org.eclipse.e4.ui.services,0.10.3.v20130123-162658,"org.eclipse.e4.ui.services",1504052098987
started,bundle,org.eclipse.e4.ui.workbench,0.11.0.v20130125-100758,"org.eclipse.e4.ui.workbench",1504052098987
started,bundle,org.eclipse.e4.ui.workbench.addons.swt,0.10.3.v20130124-185622,"org.eclipse.e4.ui.workbench.addons.swt",1504052098987
started,bundle,org.eclipse.e4.ui.workbench.renderers.swt,0.10.3.v20130124-170312,"org.eclipse.e4.ui.workbench.renderers.swt",1504052098987
started,bundle,org.eclipse.e4.ui.workbench.swt,0.10.3.v20130124-133900,"org.eclipse.e4.ui.workbench.swt",1504052099003
started,bundle,org.eclipse.emf.common,2.8.0.v20130125-0546,"org.eclipse.emf.common",1504052099003
started,bundle,org.eclipse.emf.common.ui,2.7.0.v20130125-0826,"org.eclipse.emf.common.ui",1504052099003
started,bundle,org.eclipse.emf.ecore,2.8.3.v20130125-0546,"org.eclipse.emf.ecore",1504052099003
started,bundle,org.eclipse.emf.ecore.xmi,2.8.1.v20130125-0546,"org.eclipse.emf.ecore.xmi",1504052099003
started,bundle,org.eclipse.emf.edit,2.8.0.v20130125-0826,"org.eclipse.emf.edit",1504052099003
started,bundle,org.eclipse.emf.edit.ui,2.8.0.v20130125-0826,"org.eclipse.emf.edit.ui",1504052099003
started,bundle,org.eclipse.epp.mpc.ui,1.1.1.I20110907-0947,"org.eclipse.epp.mpc.ui",1504052099003
started,bundle,org.eclipse.equinox.app,1.3.100.v20120522-1841,"org.eclipse.equinox.app",1504052099003
started,bundle,org.eclipse.equinox.common,3.6.100.v20120522-1841,"org.eclipse.equinox.common",1504052099003
started,bundle,org.eclipse.equinox.console,1.0.0.v20120522-1841,"org.eclipse.equinox.console",1504052099003
started,bundle,org.eclipse.equinox.ds,1.4.1.v20120926-201320,"org.eclipse.equinox.ds",1504052099003
started,bundle,org.eclipse.equinox.event,1.2.200.v20120522-2049,"org.eclipse.equinox.event",1504052099003
started,bundle,org.eclipse.equinox.p2.core,2.2.0.v20120430-0525,"org.eclipse.equinox.p2.core",1504052099003
started,bundle,org.eclipse.equinox.p2.directorywatcher,1.0.300.v20110808-1657,"org.eclipse.equinox.p2.directorywatcher",1504052099003
started,bundle,org.eclipse.equinox.p2.engine,2.2.0.v20130121-021919,"org.eclipse.equinox.p2.engine",1504052099018
started,bundle,org.eclipse.equinox.p2.garbagecollector,1.0.200.v20110808-1657,"org.eclipse.equinox.p2.garbagecollector",1504052099018
started,bundle,org.eclipse.equinox.p2.metadata,2.1.0.v20120430-2001,"org.eclipse.equinox.p2.metadata",1504052099018
started,bundle,org.eclipse.equinox.p2.metadata.repository,1.2.100.v20120524-1717,"org.eclipse.equinox.p2.metadata.repository",1504052099018
started,bundle,org.eclipse.equinox.p2.operations,2.2.0.v20130119-010614,"org.eclipse.equinox.p2.operations",1504052099018
started,bundle,org.eclipse.equinox.p2.publisher,1.2.0.v20121002-080415,"org.eclipse.equinox.p2.publisher",1504052099018
started,bundle,org.eclipse.equinox.p2.reconciler.dropins,1.1.200.v20120301-2145,"org.eclipse.equinox.p2.reconciler.dropins",1504052099034
started,bundle,org.eclipse.equinox.p2.repository,2.2.0.v20120524-1945,"org.eclipse.equinox.p2.repository",1504052099034
started,bundle,org.eclipse.equinox.p2.ui.sdk.scheduler,1.1.0.v20110815-1744,"org.eclipse.equinox.p2.ui.sdk.scheduler",1504052099034
started,bundle,org.eclipse.equinox.p2.updatechecker,1.1.200.v20110808-1657,"org.eclipse.equinox.p2.updatechecker",1504052099034
started,bundle,org.eclipse.equinox.preferences,3.5.1.v20121031-182809,"org.eclipse.equinox.preferences",1504052099034
started,bundle,org.eclipse.equinox.registry,3.5.200.v20120522-1841,"org.eclipse.equinox.registry",1504052099034
started,bundle,org.eclipse.equinox.security,1.1.100.v20120522-1841,"org.eclipse.equinox.security",1504052099050
started,bundle,org.eclipse.equinox.util,1.0.400.v20120917-192807,"org.eclipse.equinox.util",1504052099050
started,bundle,org.eclipse.help,3.6.0.v20120912-134126,"org.eclipse.help",1504052099050
started,bundle,org.eclipse.jdt.apt.core,3.3.500.v20120522-1651,"org.eclipse.jdt.apt.core",1504052099050
started,bundle,org.eclipse.jdt.apt.pluggable.core,1.0.400.v20120522-1651,"org.eclipse.jdt.apt.pluggable.core",1504052099050
started,bundle,org.eclipse.jdt.core,3.8.3.v20130121-145325,"org.eclipse.jdt.core",1504052099050
started,bundle,org.eclipse.jdt.core.manipulation,1.5.0.v20120523-1543,"org.eclipse.jdt.core.manipulation",1504052099050
started,bundle,org.eclipse.jdt.launching,3.6.101.v20130111-183046,"org.eclipse.jdt.launching",1504052099050
started,bundle,org.eclipse.jdt.ui,3.8.2.v20130107-165834,"org.eclipse.jdt.ui",1504052099050
started,bundle,org.eclipse.jem,2.0.600.v201201051400,"org.eclipse.jem",1504052099050
started,bundle,org.eclipse.jem.util,2.1.100.v201103021400,"org.eclipse.jem.util",1504052099065
started,bundle,org.eclipse.jem.workbench,2.0.400.v201104251400,"org.eclipse.jem.workbench",1504052099065
started,bundle,org.eclipse.jface,3.8.102.v20130123-162658,"org.eclipse.jface",1504052099065
started,bundle,org.eclipse.jsch.core,1.1.400.v20120522-1148,"org.eclipse.jsch.core",1504052099065
started,bundle,org.eclipse.jst.common.frameworks,1.1.601.v201208160700,"org.eclipse.jst.common.frameworks",1504052099065
started,bundle,org.eclipse.jst.common.project.facet.core,1.4.201.v201108161900,"org.eclipse.jst.common.project.facet.core",1504052099065
started,bundle,org.eclipse.jst.j2ee,1.1.603.v201301092200,"org.eclipse.jst.j2ee",1504052099065
started,bundle,org.eclipse.jst.j2ee.core,1.2.200.v201205030130,"org.eclipse.jst.j2ee.core",1504052099065
started,bundle,org.eclipse.jst.j2ee.ejb,1.1.601.v201210040812,"org.eclipse.jst.j2ee.ejb",1504052099065
started,bundle,org.eclipse.jst.j2ee.jca,1.1.600.v201111012200,"org.eclipse.jst.j2ee.jca",1504052099065
started,bundle,org.eclipse.jst.j2ee.navigator.ui,1.1.600.v201203142300,"org.eclipse.jst.j2ee.navigator.ui",1504052099065
started,bundle,org.eclipse.jst.j2ee.ui,1.1.600.v201205170400,"org.eclipse.jst.j2ee.ui",1504052099065
started,bundle,org.eclipse.jst.j2ee.web,1.1.601.v201212130700,"org.eclipse.jst.j2ee.web",1504052099065
started,bundle,org.eclipse.jst.j2ee.webservice,1.1.400.v201004110600,"org.eclipse.jst.j2ee.webservice",1504052099065
started,bundle,org.eclipse.jst.j2ee.webservice.ui,1.1.500.v201105122000,"org.eclipse.jst.j2ee.webservice.ui",1504052099065
started,bundle,org.eclipse.jst.jee,1.0.501.v201301091334,"org.eclipse.jst.jee",1504052099065
started,bundle,org.eclipse.jst.jee.ejb,1.0.301.v201007070821,"org.eclipse.jst.jee.ejb",1504052099065
started,bundle,org.eclipse.jst.jee.ui,1.0.500.v201205170400,"org.eclipse.jst.jee.ui",1504052099065
started,bundle,org.eclipse.jst.jee.web,1.0.301.v201007070907,"org.eclipse.jst.jee.web",1504052099065
started,bundle,org.eclipse.jst.servlet.ui,1.1.600.v201202011057,"org.eclipse.jst.servlet.ui",1504052099065
started,bundle,org.eclipse.jst.ws.jaxrs.core,1.0.400.v201202152223,"org.eclipse.jst.ws.jaxrs.core",1504052099065
started,bundle,org.eclipse.jst.ws.jaxws.dom.integration,1.0.200.v201109042201,"org.eclipse.jst.ws.jaxws.dom.integration",1504052099065
started,bundle,org.eclipse.jst.ws.jaxws.dom.ui,1.0.0.v201004171919,"org.eclipse.jst.ws.jaxws.dom.ui",1504052099065
started,bundle,org.eclipse.jst.ws.jaxws.utils,1.0.200.v201201032002,"org.eclipse.jst.ws.jaxws.utils",1504052099065
started,bundle,org.eclipse.ltk.core.refactoring,3.6.0.v20120523-1543,"org.eclipse.ltk.core.refactoring",1504052099065
started,bundle,org.eclipse.ltk.ui.refactoring,3.7.0.v20120523-1543,"org.eclipse.ltk.ui.refactoring",1504052099081
started,bundle,org.eclipse.rse.connectorservice.local,2.1.400.201205062159,"org.eclipse.rse.connectorservice.local",1504052099081
started,bundle,org.eclipse.rse.core,3.3.2.201301152246,"org.eclipse.rse.core",1504052099081
started,bundle,org.eclipse.rse.files.ui,3.2.101.201302012126,"org.eclipse.rse.files.ui",1504052099081
started,bundle,org.eclipse.rse.services,3.2.200.201211090626,"org.eclipse.rse.services",1504052099081
started,bundle,org.eclipse.rse.services.local,2.1.401.201302062104,"org.eclipse.rse.services.local",1504052099081
started,bundle,org.eclipse.rse.subsystems.files.core,3.3.1.201211140039,"org.eclipse.rse.subsystems.files.core",1504052099081
started,bundle,org.eclipse.rse.subsystems.files.local,2.1.300.201205062159,"org.eclipse.rse.subsystems.files.local",1504052099081
started,bundle,org.eclipse.rse.subsystems.shells.core,3.1.300.201205141739,"org.eclipse.rse.subsystems.shells.core",1504052099081
started,bundle,org.eclipse.rse.subsystems.shells.local,2.1.400.201205062159,"org.eclipse.rse.subsystems.shells.local",1504052099081
started,bundle,org.eclipse.rse.ui,3.3.3.201302122026,"org.eclipse.rse.ui",1504052099081
started,bundle,org.eclipse.search,3.8.0.v20120523-1540,"org.eclipse.search",1504052099081
started,bundle,org.eclipse.team.core,3.6.100.v20120524-0627,"org.eclipse.team.core",1504052099081
started,bundle,org.eclipse.team.ui,3.6.201.v20130125-135424,"org.eclipse.team.ui",1504052099081
started,bundle,org.eclipse.ui,3.104.0.v20121024-145224,"org.eclipse.ui",1504052099081
started,bundle,org.eclipse.ui.console,3.5.100.v20120521-2012,"org.eclipse.ui.console",1504052099081
started,bundle,org.eclipse.ui.editors,3.8.0.v20120523-1540,"org.eclipse.ui.editors",1504052099081
started,bundle,org.eclipse.ui.forms,3.5.200.v20120705-114351,"org.eclipse.ui.forms",1504052099081
started,bundle,org.eclipse.ui.ide,3.8.2.v20121106-165923,"org.eclipse.ui.ide",1504052099081
started,bundle,org.eclipse.ui.navigator,3.5.200.v20120705-114103,"org.eclipse.ui.navigator",1504052099081
started,bundle,org.eclipse.ui.navigator.resources,3.4.400.v20120705-114010,"org.eclipse.ui.navigator.resources",1504052099081
started,bundle,org.eclipse.ui.net,1.2.101.v20120914-093638,"org.eclipse.ui.net",1504052099096
started,bundle,org.eclipse.ui.trace,1.0.1.v20121204-224553,"org.eclipse.ui.trace",1504052099096
started,bundle,org.eclipse.ui.views,3.6.100.v20120705-114010,"org.eclipse.ui.views",1504052099096
started,bundle,org.eclipse.ui.workbench,3.104.0.v20130204-164612,"org.eclipse.ui.workbench",1504052099096
started,bundle,org.eclipse.ui.workbench.texteditor,3.8.0.v20120523-1310,"org.eclipse.ui.workbench.texteditor",1504052099096
started,bundle,org.eclipse.update.configurator,3.3.200.v20120912-144026,"org.eclipse.update.configurator",1504052099096
started,bundle,org.eclipse.wst.common.core,1.2.0.v200908252030,"org.eclipse.wst.common.core",1504052099096
started,bundle,org.eclipse.wst.common.emf,1.2.100.v201101101900,"org.eclipse.wst.common.emf",1504052099096
