what,kind,bundleId,bundleVersion,description,time
stopped,bundle,org.eclipse.wst.xsd.ui,1.2.500.v201203081826,"org.eclipse.wst.xsd.ui",1509434719915
stopped,bundle,org.eclipse.wst.xsl.debug.ui,1.0.200.v201101281837,"org.eclipse.wst.xsl.debug.ui",1509434719915
stopped,bundle,org.eclipse.m2e.editor,1.4.0.20130601-0317,"org.eclipse.m2e.editor",1509434719915
stopped,bundle,org.eclipse.m2e.editor.xml,1.4.0.20130601-0317,"org.eclipse.m2e.editor.xml",1509434719915
stopped,bundle,org.eclipse.wst.xml.ui,1.1.302.v201301172222,"org.eclipse.wst.xml.ui",1509434719930
stopped,bundle,org.eclipse.wst.common.ui,1.1.500.v200911190730,"org.eclipse.wst.common.ui",1509434719930
stopped,bundle,org.eclipse.wst.jsdt.debug.rhino.ui,1.0.101.v201208171701,"org.eclipse.wst.jsdt.debug.rhino.ui",1509434719930
stopped,bundle,org.eclipse.wst.jsdt.debug.ui,1.0.201.v201208241832,"org.eclipse.wst.jsdt.debug.ui",1509434719930
stopped,bundle,org.eclipse.wst.jsdt.support.firefox,1.0.402.v201208171701,"org.eclipse.wst.jsdt.support.firefox",1509434719930
stopped,bundle,org.eclipse.wst.jsdt.ui,1.1.202.v201208171701,"org.eclipse.wst.jsdt.ui",1509434719930
stopped,bundle,org.eclipse.wst.sse.ui,1.3.102.v201301162301,"org.eclipse.wst.sse.ui",1509434719930
stopped,bundle,org.eclipse.egit.mylyn.ui,1.1.0.201109151100-r,"org.eclipse.egit.mylyn.ui",1509434719930
stopped,bundle,org.eclipse.egit.ui,1.1.0.201109151100-r,"org.eclipse.egit.ui",1509434719930
stopped,bundle,com.adobe.flashbuilder.multiplatform.android.ui,4.7.0.349722,"com.adobe.flashbuilder.multiplatform.android.ui",1509434719930
stopped,bundle,com.adobe.flashbuilder.multiplatform.ios.ui,4.7.0.349722,"com.adobe.flashbuilder.multiplatform.ios.ui",1509434719930
stopped,bundle,com.adobe.flashbuilder.project.multiplatform.ui,4.7.0.349722,"com.adobe.flashbuilder.project.multiplatform.ui",1509434719930
stopped,bundle,com.adobe.flexbuilder.ajaxbridge,4.7.0.349722,"com.adobe.flexbuilder.ajaxbridge",1509434719930
stopped,bundle,com.adobe.flexbuilder.dcrad,4.7.0.349722,"com.adobe.flexbuilder.dcrad",1509434719930
stopped,bundle,com.adobe.flexbuilder.standalone,4.7.0.349722,"com.adobe.flexbuilder.standalone",1509434719930
stopped,bundle,com.adobe.flexbuilder.debug.ui,4.7.0.349722,"com.adobe.flexbuilder.debug.ui",1509434719930
stopped,bundle,com.adobe.flexbuilder.mxml.editor,4.7.0.349722,"com.adobe.flexbuilder.mxml.editor",1509434719930
stopped,bundle,com.adobe.flexbuilder.css.editor,4.7.0.349722,"com.adobe.flexbuilder.css.editor",1509434719930
stopped,bundle,com.adobe.flexbuilder.exportimport,4.7.0.349722,"com.adobe.flexbuilder.exportimport",1509434719930
stopped,bundle,com.adobe.flexbuilder.flashbridge,4.7.0.349722,"com.adobe.flexbuilder.flashbridge",1509434719930
stopped,bundle,com.adobe.flexbuilder.flexunit,4.7.0.349722,"com.adobe.flexbuilder.flexunit",1509434719930
stopped,bundle,com.adobe.flexbuilder.as.editor,4.7.0.349722,"com.adobe.flexbuilder.as.editor",1509434719930
stopped,bundle,com.adobe.flexbuilder.importartwork,4.7.0.349722,"com.adobe.flexbuilder.importartwork",1509434719930
stopped,bundle,com.adobe.flexbuilder.tengine,4.7.0.349722,"com.adobe.flexbuilder.tengine",1509434719930
stopped,bundle,com.adobe.flexbuilder.editorcore,4.7.0.349722,"com.adobe.flexbuilder.editorcore",1509434719930
stopped,bundle,com.adobe.flashbuilder.launching.multiplatform.ui,4.7.0.349722,"com.adobe.flashbuilder.launching.multiplatform.ui",1509434719930
stopped,bundle,com.adobe.flexbuilder.launching.ui,4.7.0.349722,"com.adobe.flexbuilder.launching.ui",1509434719930
stopped,bundle,com.adobe.flexbuilder.project.ui,4.7.0.349722,"com.adobe.flexbuilder.project.ui",1509434719930
stopped,bundle,com.adobe.flexbuilder.debug,4.7.0.349722,"com.adobe.flexbuilder.debug",1509434719930
stopped,bundle,com.adobe.flash.profiler,4.7.0.349722,"com.adobe.flash.profiler",1509434719930
stopped,bundle,com.adobe.flexide.exportimport,4.7.0.349722,"com.adobe.flexide.exportimport",1509434719930
stopped,bundle,com.adobe.flexide.fonts,4.7.0.349722,"com.adobe.flexide.fonts",1509434719930
stopped,bundle,com.adobe.flexide.designitems,4.7.0.349722,"com.adobe.flexide.designitems",1509434719930
stopped,bundle,com.adobe.flexide.multiplatform.ios,4.7.0.349722,"com.adobe.flexide.multiplatform.ios",1509434719930
stopped,bundle,com.adobe.flexide.refactoring.core,4.7.0.349722,"com.adobe.flexide.refactoring.core",1509434719930
stopped,bundle,com.adobe.flexide.mxml.core,4.7.0.349722,"com.adobe.flexide.mxml.core",1509434719930
stopped,bundle,com.adobe.flexide.css.core,4.7.0.349722,"com.adobe.flexide.css.core",1509434719930
stopped,bundle,com.adobe.flexbuilder.monitors.network,4.7.0.349722,"com.adobe.flexbuilder.monitors.network",1509434719930
stopped,bundle,com.adobe.flexide.as.core,4.7.0.349722,"com.adobe.flexide.as.core",1509434719946
stopped,bundle,com.adobe.flexide.externaleditors,4.7.0.349722,"com.adobe.flexide.externaleditors",1509434719946
stopped,bundle,com.adobe.flexide.editorcore,4.7.0.349722,"com.adobe.flexide.editorcore",1509434719946
stopped,bundle,com.adobe.flexbuilder.mxmlmodel,4.7.0.349722,"com.adobe.flexbuilder.mxmlmodel",1509434719946
stopped,bundle,com.adobe.flashbuilder.launching.multiplatform.contributor,4.7.0.349722,"com.adobe.flashbuilder.launching.multiplatform.contributor",1509434719946
stopped,bundle,com.adobe.flashbuilder.launching.win8,4.7.0.349722,"com.adobe.flashbuilder.launching.win8",1509434719946
stopped,bundle,com.adobe.flexbuilder.multisdk,4.7.0.349722,"com.adobe.flexbuilder.multisdk",1509434719946
stopped,bundle,com.adobe.flexbuilder.ui,4.7.0.349722,"com.adobe.flexbuilder.ui",1509434719946
stopped,bundle,com.adobe.flexide.codemodel.bridge,4.7.0.349722,"com.adobe.flexide.codemodel.bridge",1509434719946
stopped,bundle,com.adobe.flexide.multiplatform.android,4.7.0.349722,"com.adobe.flexide.multiplatform.android",1509434719946
stopped,bundle,com.adobe.flexide.launching.multiplatform,4.7.0.349722,"com.adobe.flexide.launching.multiplatform",1509434719946
stopped,bundle,com.adobe.flexide.launching,4.7.0.349722,"com.adobe.flexide.launching",1509434719946
stopped,bundle,com.adobe.flexide.project.multiplatform,4.7.0.349722,"com.adobe.flexide.project.multiplatform",1509434719946
stopped,bundle,com.adobe.flexbuilder.project,4.7.0.349722,"com.adobe.flexbuilder.project",1509434719946
stopped,bundle,com.adobe.flexbuilder.editors.derived,4.7.0.349722,"com.adobe.flexbuilder.editors.derived",1509434719946
stopped,bundle,org.eclipse.search,3.8.0.v20120523-1540,"org.eclipse.search",1509434719946
stopped,bundle,org.eclipse.datatools.enablement.sybase.asa.ui,1.0.1.v200906111204,"org.eclipse.datatools.enablement.sybase.asa.ui",1509434719946
stopped,bundle,org.eclipse.datatools.enablement.sybase.ase.ui,1.0.1.v200906020900,"org.eclipse.datatools.enablement.sybase.ase.ui",1509434719946
stopped,bundle,org.eclipse.datatools.sqltools.ddlgen.ui,1.0.3.v201211200616,"org.eclipse.datatools.sqltools.ddlgen.ui",1509434719946
stopped,bundle,org.eclipse.datatools.connectivity.ui.dse,1.1.5.v201212070447,"org.eclipse.datatools.connectivity.ui.dse",1509434719946
stopped,bundle,org.eclipse.mylyn.commons.team,0.8.0.v20110608-1400,"org.eclipse.mylyn.commons.team",1509434719946
stopped,bundle,org.tigris.subversion.subclipse.mylyn,3.0.0,"org.tigris.subversion.subclipse.mylyn",1509434719946
stopped,bundle,org.eclipse.mylyn.team.ui,3.6.1.v20110825-0100,"org.eclipse.mylyn.team.ui",1509434719946
stopped,bundle,com.wireframesketcher.ui,4.5.0,"com.wireframesketcher.ui",1509434719946
stopped,bundle,org.eclipse.ui.navigator.resources,3.4.400.v20120705-114010,"org.eclipse.ui.navigator.resources",1509434719946
stopped,bundle,org.eclipse.ltk.ui.refactoring,3.7.0.v20120523-1543,"org.eclipse.ltk.ui.refactoring",1509434719946
stopped,bundle,com.collabnet.subversion.merge,3.0.13,"com.collabnet.subversion.merge",1509434719946
stopped,bundle,org.tigris.subversion.subclipse.graph,1.1.1,"org.tigris.subversion.subclipse.graph",1509434719946
stopped,bundle,org.tigris.subversion.subclipse.tools.usage,1.1.0,"org.tigris.subversion.subclipse.tools.usage",1509434719946
stopped,bundle,org.sonatype.m2e.subclipse,0.13.0.201303011221,"org.sonatype.m2e.subclipse",1509434719946
stopped,bundle,org.tigris.subversion.subclipse.ui,1.8.21,"org.tigris.subversion.subclipse.ui",1509434719946
stopped,bundle,org.eclipse.team.cvs.ui,3.3.400.I20110510-0800,"org.eclipse.team.cvs.ui",1509434719946
stopped,bundle,org.eclipse.team.ui,3.6.201.v20130125-135424,"org.eclipse.team.ui",1509434719946
stopped,bundle,org.eclipse.mylyn.bugzilla.ui,3.6.0.v20110608-1400,"org.eclipse.mylyn.bugzilla.ui",1509434719946
stopped,bundle,org.eclipse.mylyn.ide.ui,3.6.0.v20110608-1400,"org.eclipse.mylyn.ide.ui",1509434719946
stopped,bundle,org.eclipse.mylyn.resources.ui,3.6.0.v20110608-1400,"org.eclipse.mylyn.resources.ui",1509434719946
stopped,bundle,org.eclipse.mylyn.wikitext.tasks.ui,1.5.0.v20110608-1400,"org.eclipse.mylyn.wikitext.tasks.ui",1509434719946
stopped,bundle,org.eclipse.mylyn.context.ui,3.6.0.v20110608-1400,"org.eclipse.mylyn.context.ui",1509434719946
stopped,bundle,org.eclipse.mylyn.help.ui,3.6.1.v20110830-0100,"org.eclipse.mylyn.help.ui",1509434719946
stopped,bundle,org.eclipse.mylyn.tasks.bugs,3.6.1.v20110825-0100,"org.eclipse.mylyn.tasks.bugs",1509434719946
stopped,bundle,org.eclipse.mylyn.tasks.ui,3.6.2.v20110826-0100,"org.eclipse.mylyn.tasks.ui",1509434719946
stopped,bundle,org.eclipse.compare,3.5.301.v20130125-135424,"org.eclipse.compare",1509434719946
stopped,bundle,org.eclipse.datatools.enablement.ingres.ui,1.0.0.v201105270214,"org.eclipse.datatools.enablement.ingres.ui",1509434719946
stopped,bundle,org.eclipse.datatools.sqltools.db.derby.ui,1.0.0.v200906020900,"org.eclipse.datatools.sqltools.db.derby.ui",1509434719946
stopped,bundle,org.eclipse.datatools.sqltools.db.generic.ui,1.0.0.v200906020900,"org.eclipse.datatools.sqltools.db.generic.ui",1509434719962
stopped,bundle,org.eclipse.datatools.sqltools.routineeditor.ui,1.0.3.v201211200616,"org.eclipse.datatools.sqltools.routineeditor.ui",1509434719962
stopped,bundle,org.eclipse.datatools.sqltools.sqlbuilder,1.0.5.v201212120623,"org.eclipse.datatools.sqltools.sqlbuilder",1509434719962
stopped,bundle,org.eclipse.datatools.sqltools.debugger.core,1.0.1.v201107221520,"org.eclipse.datatools.sqltools.debugger.core",1509434719962
stopped,bundle,org.eclipse.datatools.sqltools.schemaobjecteditor.ui.pages,1.1.1.200810071,"org.eclipse.datatools.sqltools.schemaobjecteditor.ui.pages",1509434719962
stopped,bundle,org.eclipse.datatools.sqltools.schemaobjecteditor.ui,1.1.1.200810071,"org.eclipse.datatools.sqltools.schemaobjecteditor.ui",1509434719962
stopped,bundle,org.eclipse.datatools.sqltools.sqlscrapbook,1.0.2.v201205310922,"org.eclipse.datatools.sqltools.sqlscrapbook",1509434719962
stopped,bundle,org.eclipse.datatools.sqltools.sqleditor,1.0.4.v201212120623,"org.eclipse.datatools.sqltools.sqleditor",1509434719962
stopped,bundle,org.eclipse.datatools.sqltools.editor.core.ui,1.0.0.v201001150815,"org.eclipse.datatools.sqltools.editor.core.ui",1509434719962
stopped,bundle,org.eclipse.datatools.sqltools.plan,1.0.0.v201107221520,"org.eclipse.datatools.sqltools.plan",1509434719962
stopped,bundle,org.eclipse.datatools.sqltools.data.ui,1.2.2.v201212120623,"org.eclipse.datatools.sqltools.data.ui",1509434719962
stopped,bundle,org.eclipse.datatools.sqltools.tabledataeditor,1.0.2.v201212120623,"org.eclipse.datatools.sqltools.tabledataeditor",1509434719962
stopped,bundle,org.eclipse.datatools.sqltools.result.ui,1.1.3.v201302061703,"org.eclipse.datatools.sqltools.result.ui",1509434719962
stopped,bundle,org.eclipse.datatools.sqltools.common.ui,1.0.1.v201212120623,"org.eclipse.datatools.sqltools.common.ui",1509434719962
stopped,bundle,org.eclipse.ui.externaltools,3.2.100.v20120530-1753,"org.eclipse.ui.externaltools",1509434719962
stopped,bundle,org.eclipse.wst.server.preview.adapter,1.1.101.v20121107_1651,"org.eclipse.wst.server.preview.adapter",1509434719962
stopped,bundle,org.eclipse.wst.server.http.ui,1.0.300.v20120821_1517,"org.eclipse.wst.server.http.ui",1509434719962
stopped,bundle,org.eclipse.wst.server.ui,1.4.100.v20121112_1718,"org.eclipse.wst.server.ui",1509434719962
stopped,bundle,org.eclipse.debug.ui,3.8.2.v20130130-171415,"org.eclipse.debug.ui",1509434719962
activated,perspective,org.eclipse.jst.j2ee.ui,,"org.eclipse.jst.j2ee.J2EEPerspective",1519113578356
started,bundle,org.eclipse.osgi,3.8.2.v20130124-134944,"org.eclipse.osgi",1519113578357
started,bundle,org.eclipse.equinox.simpleconfigurator,1.0.301.v20120914-163612,"org.eclipse.equinox.simpleconfigurator",1519113578358
started,bundle,com.ibm.icu,4.4.2.v20110823,"com.ibm.icu",1519113578358
started,bundle,org.apache.felix.gogo.command,0.8.0.v201108120515,"org.apache.felix.gogo.command",1519113578358
started,bundle,org.apache.felix.gogo.runtime,0.8.0.v201108120515,"org.apache.felix.gogo.runtime",1519113578358
started,bundle,org.apache.felix.gogo.shell,0.8.0.v201110170705,"org.apache.felix.gogo.shell",1519113578359
started,bundle,org.eclipse.compare,3.5.301.v20130125-135424,"org.eclipse.compare",1519113578360
started,bundle,org.eclipse.compare.core,3.5.200.v20120522-1148,"org.eclipse.compare.core",1519113578360
started,bundle,org.eclipse.core.contenttype,3.4.200.v20120523-2004,"org.eclipse.core.contenttype",1519113578361
started,bundle,org.eclipse.core.databinding.observable,1.4.1.v20120521-2329,"org.eclipse.core.databinding.observable",1519113578364
started,bundle,org.eclipse.core.expressions,3.4.401.v20120912-155018,"org.eclipse.core.expressions",1519113578365
started,bundle,org.eclipse.core.filebuffers,3.5.200.v20120523-1310,"org.eclipse.core.filebuffers",1519113578365
started,bundle,org.eclipse.core.filesystem,1.3.200.v20130115-145044,"org.eclipse.core.filesystem",1519113578366
started,bundle,org.eclipse.core.jobs,3.5.300.v20120912-155018,"org.eclipse.core.jobs",1519113578369
started,bundle,org.eclipse.core.net,1.2.200.v20120914-093638,"org.eclipse.core.net",1519113578369
started,bundle,org.eclipse.core.resources,3.8.1.v20121114-124432,"org.eclipse.core.resources",1519113578370
started,bundle,org.eclipse.core.runtime,3.8.0.v20120912-155025,"org.eclipse.core.runtime",1519113578371
started,bundle,org.eclipse.core.runtime.compatibility,3.2.200.v20120521-2346,"org.eclipse.core.runtime.compatibility",1519113578371
started,bundle,org.eclipse.core.variables,3.2.600.v20120521-2012,"org.eclipse.core.variables",1519113578376
started,bundle,org.eclipse.debug.core,3.7.100.v20120521-2012,"org.eclipse.debug.core",1519113578376
started,bundle,org.eclipse.e4.core.commands,0.10.1.v20120523-1955,"org.eclipse.e4.core.commands",1519113578379
started,bundle,org.eclipse.e4.core.contexts,1.2.0.v20121221-192508,"org.eclipse.e4.core.contexts",1519113578381
started,bundle,org.eclipse.e4.core.di,1.2.0.v20121024-173149,"org.eclipse.e4.core.di",1519113578381
started,bundle,org.eclipse.e4.core.services,1.0.0.v20120521-2346,"org.eclipse.e4.core.services",1519113578382
started,bundle,org.eclipse.e4.ui.bindings,0.10.3.v20130123-162658,"org.eclipse.e4.ui.bindings",1519113578382
started,bundle,org.eclipse.e4.ui.css.swt,0.10.3.v20130123-162658,"org.eclipse.e4.ui.css.swt",1519113578384
started,bundle,org.eclipse.e4.ui.css.swt.theme,0.9.4.v20130123-162658,"org.eclipse.e4.ui.css.swt.theme",1519113578386
started,bundle,org.eclipse.e4.ui.di,0.10.1.v20120523-1955,"org.eclipse.e4.ui.di",1519113578388
started,bundle,org.eclipse.e4.ui.model.workbench,0.10.1.v20120523-1955,"org.eclipse.e4.ui.model.workbench",1519113578390
started,bundle,org.eclipse.e4.ui.services,0.10.3.v20130123-162658,"org.eclipse.e4.ui.services",1519113578392
started,bundle,org.eclipse.e4.ui.workbench,0.11.0.v20130125-100758,"org.eclipse.e4.ui.workbench",1519113578394
started,bundle,org.eclipse.e4.ui.workbench.addons.swt,0.10.3.v20130124-185622,"org.eclipse.e4.ui.workbench.addons.swt",1519113578396
started,bundle,org.eclipse.e4.ui.workbench.renderers.swt,0.10.3.v20130124-170312,"org.eclipse.e4.ui.workbench.renderers.swt",1519113578397
started,bundle,org.eclipse.e4.ui.workbench.swt,0.10.3.v20130124-133900,"org.eclipse.e4.ui.workbench.swt",1519113578399
started,bundle,org.eclipse.emf.common,2.8.0.v20130125-0546,"org.eclipse.emf.common",1519113578399
started,bundle,org.eclipse.emf.common.ui,2.7.0.v20130125-0826,"org.eclipse.emf.common.ui",1519113578400
started,bundle,org.eclipse.emf.ecore,2.8.3.v20130125-0546,"org.eclipse.emf.ecore",1519113578404
started,bundle,org.eclipse.emf.ecore.xmi,2.8.1.v20130125-0546,"org.eclipse.emf.ecore.xmi",1519113578404
started,bundle,org.eclipse.emf.edit,2.8.0.v20130125-0826,"org.eclipse.emf.edit",1519113578405
started,bundle,org.eclipse.emf.edit.ui,2.8.0.v20130125-0826,"org.eclipse.emf.edit.ui",1519113578406
started,bundle,org.eclipse.epp.mpc.ui,1.1.1.I20110907-0947,"org.eclipse.epp.mpc.ui",1519113578406
started,bundle,org.eclipse.equinox.app,1.3.100.v20120522-1841,"org.eclipse.equinox.app",1519113578409
started,bundle,org.eclipse.equinox.common,3.6.100.v20120522-1841,"org.eclipse.equinox.common",1519113578410
started,bundle,org.eclipse.equinox.console,1.0.0.v20120522-1841,"org.eclipse.equinox.console",1519113578410
started,bundle,org.eclipse.equinox.ds,1.4.1.v20120926-201320,"org.eclipse.equinox.ds",1519113578410
started,bundle,org.eclipse.equinox.event,1.2.200.v20120522-2049,"org.eclipse.equinox.event",1519113578411
started,bundle,org.eclipse.equinox.p2.core,2.2.0.v20120430-0525,"org.eclipse.equinox.p2.core",1519113578413
started,bundle,org.eclipse.equinox.p2.directorywatcher,1.0.300.v20110808-1657,"org.eclipse.equinox.p2.directorywatcher",1519113578415
started,bundle,org.eclipse.equinox.p2.engine,2.2.0.v20130121-021919,"org.eclipse.equinox.p2.engine",1519113578416
started,bundle,org.eclipse.equinox.p2.garbagecollector,1.0.200.v20110808-1657,"org.eclipse.equinox.p2.garbagecollector",1519113578418
started,bundle,org.eclipse.equinox.p2.metadata,2.1.0.v20120430-2001,"org.eclipse.equinox.p2.metadata",1519113578419
started,bundle,org.eclipse.equinox.p2.metadata.repository,1.2.100.v20120524-1717,"org.eclipse.equinox.p2.metadata.repository",1519113578421
started,bundle,org.eclipse.equinox.p2.operations,2.2.0.v20130119-010614,"org.eclipse.equinox.p2.operations",1519113578421
started,bundle,org.eclipse.equinox.p2.publisher,1.2.0.v20121002-080415,"org.eclipse.equinox.p2.publisher",1519113578424
started,bundle,org.eclipse.equinox.p2.reconciler.dropins,1.1.200.v20120301-2145,"org.eclipse.equinox.p2.reconciler.dropins",1519113578426
started,bundle,org.eclipse.equinox.p2.repository,2.2.0.v20120524-1945,"org.eclipse.equinox.p2.repository",1519113578426
started,bundle,org.eclipse.equinox.p2.ui.sdk.scheduler,1.1.0.v20110815-1744,"org.eclipse.equinox.p2.ui.sdk.scheduler",1519113578427
started,bundle,org.eclipse.equinox.p2.updatechecker,1.1.200.v20110808-1657,"org.eclipse.equinox.p2.updatechecker",1519113578429
started,bundle,org.eclipse.equinox.preferences,3.5.1.v20121031-182809,"org.eclipse.equinox.preferences",1519113578431
started,bundle,org.eclipse.equinox.registry,3.5.200.v20120522-1841,"org.eclipse.equinox.registry",1519113578431
started,bundle,org.eclipse.equinox.security,1.1.100.v20120522-1841,"org.eclipse.equinox.security",1519113578436
started,bundle,org.eclipse.equinox.util,1.0.400.v20120917-192807,"org.eclipse.equinox.util",1519113578437
started,bundle,org.eclipse.help,3.6.0.v20120912-134126,"org.eclipse.help",1519113578440
started,bundle,org.eclipse.jdt.apt.core,3.3.500.v20120522-1651,"org.eclipse.jdt.apt.core",1519113578440
started,bundle,org.eclipse.jdt.apt.pluggable.core,1.0.400.v20120522-1651,"org.eclipse.jdt.apt.pluggable.core",1519113578443
started,bundle,org.eclipse.jdt.core,3.8.3.v20130121-145325,"org.eclipse.jdt.core",1519113578444
started,bundle,org.eclipse.jdt.core.manipulation,1.5.0.v20120523-1543,"org.eclipse.jdt.core.manipulation",1519113578446
started,bundle,org.eclipse.jdt.launching,3.6.101.v20130111-183046,"org.eclipse.jdt.launching",1519113578446
started,bundle,org.eclipse.jdt.ui,3.8.2.v20130107-165834,"org.eclipse.jdt.ui",1519113578446
started,bundle,org.eclipse.jem,2.0.600.v201201051400,"org.eclipse.jem",1519113578447
started,bundle,org.eclipse.jem.util,2.1.100.v201103021400,"org.eclipse.jem.util",1519113578449
started,bundle,org.eclipse.jem.workbench,2.0.400.v201104251400,"org.eclipse.jem.workbench",1519113578449
started,bundle,org.eclipse.jface,3.8.102.v20130123-162658,"org.eclipse.jface",1519113578450
started,bundle,org.eclipse.jsch.core,1.1.400.v20120522-1148,"org.eclipse.jsch.core",1519113578452
started,bundle,org.eclipse.jst.common.frameworks,1.1.601.v201208160700,"org.eclipse.jst.common.frameworks",1519113578452
started,bundle,org.eclipse.jst.common.project.facet.core,1.4.201.v201108161900,"org.eclipse.jst.common.project.facet.core",1519113578453
started,bundle,org.eclipse.jst.j2ee,1.1.603.v201301092200,"org.eclipse.jst.j2ee",1519113578453
started,bundle,org.eclipse.jst.j2ee.core,1.2.200.v201205030130,"org.eclipse.jst.j2ee.core",1519113578454
started,bundle,org.eclipse.jst.j2ee.ejb,1.1.601.v201210040812,"org.eclipse.jst.j2ee.ejb",1519113578454
started,bundle,org.eclipse.jst.j2ee.jca,1.1.600.v201111012200,"org.eclipse.jst.j2ee.jca",1519113578455
started,bundle,org.eclipse.jst.j2ee.navigator.ui,1.1.600.v201203142300,"org.eclipse.jst.j2ee.navigator.ui",1519113578455
started,bundle,org.eclipse.jst.j2ee.ui,1.1.600.v201205170400,"org.eclipse.jst.j2ee.ui",1519113578455
started,bundle,org.eclipse.jst.j2ee.web,1.1.601.v201212130700,"org.eclipse.jst.j2ee.web",1519113578456
started,bundle,org.eclipse.jst.j2ee.webservice,1.1.400.v201004110600,"org.eclipse.jst.j2ee.webservice",1519113578456
started,bundle,org.eclipse.jst.j2ee.webservice.ui,1.1.500.v201105122000,"org.eclipse.jst.j2ee.webservice.ui",1519113578456
started,bundle,org.eclipse.jst.jee,1.0.501.v201301091334,"org.eclipse.jst.jee",1519113578457
started,bundle,org.eclipse.jst.jee.ejb,1.0.301.v201007070821,"org.eclipse.jst.jee.ejb",1519113578457
started,bundle,org.eclipse.jst.jee.ui,1.0.500.v201205170400,"org.eclipse.jst.jee.ui",1519113578457
started,bundle,org.eclipse.jst.jee.web,1.0.301.v201007070907,"org.eclipse.jst.jee.web",1519113578465
started,bundle,org.eclipse.jst.server.core,1.2.302.v20120503_1042,"org.eclipse.jst.server.core",1519113578465
started,bundle,org.eclipse.jst.servlet.ui,1.1.600.v201202011057,"org.eclipse.jst.servlet.ui",1519113578466
started,bundle,org.eclipse.jst.ws.jaxrs.core,1.0.400.v201202152223,"org.eclipse.jst.ws.jaxrs.core",1519113578466
started,bundle,org.eclipse.jst.ws.jaxws.dom.integration,1.0.200.v201109042201,"org.eclipse.jst.ws.jaxws.dom.integration",1519113578467
started,bundle,org.eclipse.jst.ws.jaxws.dom.ui,1.0.0.v201004171919,"org.eclipse.jst.ws.jaxws.dom.ui",1519113578467
started,bundle,org.eclipse.jst.ws.jaxws.utils,1.0.200.v201201032002,"org.eclipse.jst.ws.jaxws.utils",1519113578468
started,bundle,org.eclipse.ltk.core.refactoring,3.6.0.v20120523-1543,"org.eclipse.ltk.core.refactoring",1519113578472
started,bundle,org.eclipse.ltk.ui.refactoring,3.7.0.v20120523-1543,"org.eclipse.ltk.ui.refactoring",1519113578476
started,bundle,org.eclipse.rse.connectorservice.local,2.1.400.201205062159,"org.eclipse.rse.connectorservice.local",1519113578476
started,bundle,org.eclipse.rse.core,3.3.2.201301152246,"org.eclipse.rse.core",1519113578476
started,bundle,org.eclipse.rse.files.ui,3.2.101.201302012126,"org.eclipse.rse.files.ui",1519113578477
started,bundle,org.eclipse.rse.services,3.2.200.201211090626,"org.eclipse.rse.services",1519113578477
started,bundle,org.eclipse.rse.services.local,2.1.401.201302062104,"org.eclipse.rse.services.local",1519113578478
started,bundle,org.eclipse.rse.subsystems.files.core,3.3.1.201211140039,"org.eclipse.rse.subsystems.files.core",1519113578478
started,bundle,org.eclipse.rse.subsystems.files.local,2.1.300.201205062159,"org.eclipse.rse.subsystems.files.local",1519113578479
started,bundle,org.eclipse.rse.subsystems.shells.core,3.1.300.201205141739,"org.eclipse.rse.subsystems.shells.core",1519113578479
started,bundle,org.eclipse.rse.subsystems.shells.local,2.1.400.201205062159,"org.eclipse.rse.subsystems.shells.local",1519113578479
started,bundle,org.eclipse.rse.ui,3.3.3.201302122026,"org.eclipse.rse.ui",1519113578480
started,bundle,org.eclipse.search,3.8.0.v20120523-1540,"org.eclipse.search",1519113578480
started,bundle,org.eclipse.team.core,3.6.100.v20120524-0627,"org.eclipse.team.core",1519113578481
started,bundle,org.eclipse.team.ui,3.6.201.v20130125-135424,"org.eclipse.team.ui",1519113578482
started,bundle,org.eclipse.ui,3.104.0.v20121024-145224,"org.eclipse.ui",1519113578483
started,bundle,org.eclipse.ui.console,3.5.100.v20120521-2012,"org.eclipse.ui.console",1519113578484
started,bundle,org.eclipse.ui.editors,3.8.0.v20120523-1540,"org.eclipse.ui.editors",1519113578484
started,bundle,org.eclipse.ui.forms,3.5.200.v20120705-114351,"org.eclipse.ui.forms",1519113578486
started,bundle,org.eclipse.ui.ide,3.8.2.v20121106-165923,"org.eclipse.ui.ide",1519113578488
started,bundle,org.eclipse.ui.navigator,3.5.200.v20120705-114103,"org.eclipse.ui.navigator",1519113578488
started,bundle,org.eclipse.ui.navigator.resources,3.4.400.v20120705-114010,"org.eclipse.ui.navigator.resources",1519113578489
started,bundle,org.eclipse.ui.net,1.2.101.v20120914-093638,"org.eclipse.ui.net",1519113578493
started,bundle,org.eclipse.ui.trace,1.0.1.v20121204-224553,"org.eclipse.ui.trace",1519113578493
started,bundle,org.eclipse.ui.views,3.6.100.v20120705-114010,"org.eclipse.ui.views",1519113578494
started,bundle,org.eclipse.ui.workbench,3.104.0.v20130204-164612,"org.eclipse.ui.workbench",1519113578494
started,bundle,org.eclipse.ui.workbench.texteditor,3.8.0.v20120523-1310,"org.eclipse.ui.workbench.texteditor",1519113578495
started,bundle,org.eclipse.update.configurator,3.3.200.v20120912-144026,"org.eclipse.update.configurator",1519113578496
started,bundle,org.eclipse.wst.common.core,1.2.0.v200908252030,"org.eclipse.wst.common.core",1519113578500
