what,kind,bundleId,bundleVersion,description,time
started,bundle,org.eclipse.wst.common.emfworkbench.integration,1.2.101.v201107140600,"org.eclipse.wst.common.emfworkbench.integration",1504052099096
started,bundle,org.eclipse.wst.common.frameworks,1.2.200.v201203141800,"org.eclipse.wst.common.frameworks",1504052099096
started,bundle,org.eclipse.wst.common.frameworks.ui,1.2.201.v201208292200,"org.eclipse.wst.common.frameworks.ui",1504052099096
started,bundle,org.eclipse.wst.common.modulecore,1.2.201.v201301092200,"org.eclipse.wst.common.modulecore",1504052099096
started,bundle,org.eclipse.wst.common.project.facet.core,1.4.300.v201111030424,"org.eclipse.wst.common.project.facet.core",1504052099096
started,bundle,org.eclipse.wst.common.ui,1.1.500.v200911190730,"org.eclipse.wst.common.ui",1504052099096
started,bundle,org.eclipse.wst.jsdt.core,1.1.202.v201208171701,"org.eclipse.wst.jsdt.core",1504052099096
started,bundle,org.eclipse.wst.jsdt.manipulation,1.0.400.v201204261600,"org.eclipse.wst.jsdt.manipulation",1504052099096
started,bundle,org.eclipse.wst.jsdt.ui,1.1.202.v201208171701,"org.eclipse.wst.jsdt.ui",1504052099112
started,bundle,org.eclipse.wst.server.core,1.4.100.v20130117_1140,"org.eclipse.wst.server.core",1504052099112
started,bundle,org.eclipse.wst.server.ui,1.4.100.v20121112_1718,"org.eclipse.wst.server.ui",1504052099112
started,bundle,org.eclipse.wst.sse.ui,1.3.102.v201301162301,"org.eclipse.wst.sse.ui",1504052099112
started,bundle,org.eclipse.wst.validation,1.2.402.v201212031633,"org.eclipse.wst.validation",1504052099112
started,bundle,org.eclipse.wst.web,1.1.600.v201204190200,"org.eclipse.wst.web",1504052099112
started,bundle,org.eclipse.wst.xml.core,1.1.702.v201301101836,"org.eclipse.wst.xml.core",1504052099112
started,bundle,org.eclipse.xsd,2.8.1.v20130125-0826,"org.eclipse.xsd",1504052099112
started,bundle,org.eclipse.m2e.core,1.4.0.20130601-0317,"org.eclipse.m2e.core",1504052099112
started,bundle,org.eclipse.m2e.jdt,1.4.0.20130601-0317,"org.eclipse.m2e.jdt",1504052099128
started,bundle,org.eclipse.m2e.logback.configuration,1.4.0.20130601-0317,"org.eclipse.m2e.logback.configuration",1504052099128
started,bundle,org.eclipse.m2e.wtp,1.0.0.20130613-0136,"org.eclipse.m2e.wtp",1504052099128
started,bundle,org.eclipse.m2e.wtp.overlay,1.0.0.20130613-0136,"org.eclipse.m2e.wtp.overlay",1504052099128
started,bundle,com.collabnet.subversion.merge,3.0.13,"com.collabnet.subversion.merge",1504052099128
started,bundle,org.tigris.subversion.clientadapter,1.8.6,"org.tigris.subversion.clientadapter",1504052099128
started,bundle,org.tigris.subversion.subclipse.core,1.8.22,"org.tigris.subversion.subclipse.core",1504052099128
started,bundle,org.tigris.subversion.subclipse.mylyn,3.0.0,"org.tigris.subversion.subclipse.mylyn",1504052099128
started,bundle,org.tigris.subversion.subclipse.tools.usage,1.1.0,"org.tigris.subversion.subclipse.tools.usage",1504052099128
started,bundle,org.tigris.subversion.subclipse.ui,1.8.21,"org.tigris.subversion.subclipse.ui",1504052099128
started,bundle,org.eclipse.egit.core,1.1.0.201109151100-r,"org.eclipse.egit.core",1504052099128
started,bundle,org.eclipse.egit.ui,1.1.0.201109151100-r,"org.eclipse.egit.ui",1504052099128
started,bundle,org.eclipse.epp.usagedata.gathering,1.3.1.R201106061540,"org.eclipse.epp.usagedata.gathering",1504052099128
started,bundle,org.eclipse.epp.usagedata.recording,1.3.1.R201106061540,"org.eclipse.epp.usagedata.recording",1504052099128
started,bundle,org.eclipse.jgit,1.1.0.201109151100-r,"org.eclipse.jgit",1504052099128
started,bundle,org.eclipse.mylyn.bugzilla.core,3.6.2.v20110903-0100,"org.eclipse.mylyn.bugzilla.core",1504052099128
started,bundle,org.eclipse.mylyn.bugzilla.ui,3.6.0.v20110608-1400,"org.eclipse.mylyn.bugzilla.ui",1504052099128
started,bundle,org.eclipse.mylyn.commons.identity,0.8.0.v20110608-1400,"org.eclipse.mylyn.commons.identity",1504052099128
started,bundle,org.eclipse.mylyn.commons.net,3.6.0.v20110608-1400,"org.eclipse.mylyn.commons.net",1504052099128
started,bundle,org.eclipse.mylyn.commons.ui,3.6.1.v20110720-0100,"org.eclipse.mylyn.commons.ui",1504052099128
started,bundle,org.eclipse.mylyn.context.core,3.6.1.v20110720-0100,"org.eclipse.mylyn.context.core",1504052099128
started,bundle,org.eclipse.mylyn.context.ui,3.6.0.v20110608-1400,"org.eclipse.mylyn.context.ui",1504052099128
started,bundle,org.eclipse.mylyn.monitor.ui,3.6.0.v20110608-1400,"org.eclipse.mylyn.monitor.ui",1504052099128
started,bundle,org.eclipse.mylyn.tasks.ui,3.6.2.v20110826-0100,"org.eclipse.mylyn.tasks.ui",1504052099128
started,bundle,org.eclipse.mylyn.team.ui,3.6.1.v20110825-0100,"org.eclipse.mylyn.team.ui",1504052099128
started,bundle,org.eclipse.team.cvs.core,3.3.400.I20110510-0800,"org.eclipse.team.cvs.core",1504052099128
started,bundle,org.eclipse.team.cvs.ui,3.3.400.I20110510-0800,"org.eclipse.team.cvs.ui",1504052099128
started,bundle,com.adobe.flash.compiler,4.7.0.349722,"com.adobe.flash.compiler",1504052099128
started,bundle,com.adobe.flexbuilder.DCDService,4.7.0.349722,"com.adobe.flexbuilder.DCDService",1504052099143
started,bundle,com.adobe.flexbuilder.dcrad,4.7.0.349722,"com.adobe.flexbuilder.dcrad",1504052099143
started,bundle,com.adobe.flexbuilder.debug.ui,4.7.0.349722,"com.adobe.flexbuilder.debug.ui",1504052099143
started,bundle,com.adobe.flexbuilder.editors.derived,4.7.0.349722,"com.adobe.flexbuilder.editors.derived",1504052099143
started,bundle,com.adobe.flexbuilder.exportimport,4.7.0.349722,"com.adobe.flexbuilder.exportimport",1504052099159
started,bundle,com.adobe.flexbuilder.flashbridge,4.7.0.349722,"com.adobe.flexbuilder.flashbridge",1504052099159
started,bundle,com.adobe.flexbuilder.multisdk,4.7.0.349722,"com.adobe.flexbuilder.multisdk",1504052099159
started,bundle,com.adobe.flexbuilder.mxmlmodel,4.7.0.349722,"com.adobe.flexbuilder.mxmlmodel",1504052099175
started,bundle,com.adobe.flexbuilder.project,4.7.0.349722,"com.adobe.flexbuilder.project",1504052099175
started,bundle,com.adobe.flexbuilder.project.ui,4.7.0.349722,"com.adobe.flexbuilder.project.ui",1504052099175
started,bundle,com.adobe.flexbuilder.utils.osnative,4.7.0.349722,"com.adobe.flexbuilder.utils.osnative",1504052099175
started,bundle,com.adobe.flexide.amt,4.7.0.349722,"com.adobe.flexide.amt",1504052099175
started,bundle,com.adobe.flexide.editorcore,4.7.0.349722,"com.adobe.flexide.editorcore",1504052099190
started,bundle,com.adobe.flexide.nativelibs,4.7.0.349722,"com.adobe.flexide.nativelibs",1504052099190
started,bundle,org.eclipse.equinox.event,1.2.100.v20110502,"org.eclipse.equinox.event",1504052099190
started,bundle,org.eclipse.update.core,3.2.500.v20110330,"org.eclipse.update.core",1504052099190
started,bundle,org.eclipse.update.scheduler,3.2.300.v20100512,"org.eclipse.update.scheduler",1504052099190
started,bundle,org.eclipse.wb.core,1.1.0.r37x201109091012,"org.eclipse.wb.core",1504052099190
started,bundle,org.eclipse.wb.core.lib,1.1.0.r37x201109091012,"org.eclipse.wb.core.lib",1504052099190
started,bundle,org.eclipse.wb.discovery.core,1.1.0.r37x201109091028,"org.eclipse.wb.discovery.core",1504052099190
started,bundle,org.eclipse.wb.discovery.ui,1.1.0.r37x201109091028,"org.eclipse.wb.discovery.ui",1504052099190
os,sysinfo,,,"win32",1504052099206
arch,sysinfo,,,"x86_64",1504052099206
ws,sysinfo,,,"win32",1504052099206
locale,sysinfo,,,"en_US",1504052099206
processors,sysinfo,,,"8",1504052099206
java.runtime.name,sysinfo,,,"Java(TM) SE Runtime Environment",1504052099206
java.runtime.version,sysinfo,,,"1.6.0_71-b10",1504052099206
java.specification.name,sysinfo,,,"Java Platform API Specification",1504052099206
java.specification.vendor,sysinfo,,,"Sun Microsystems Inc.",1504052099206
java.specification.version,sysinfo,,,"1.6",1504052099206
java.vendor,sysinfo,,,"Oracle Corporation",1504052099206
java.version,sysinfo,,,"1.6.0_71",1504052099206
java.vm.info,sysinfo,,,"compiled mode",1504052099206
java.vm.name,sysinfo,,,"Oracle JRockit(R)",1504052099206
java.vm.specification.name,sysinfo,,,"Java Virtual Machine Specification",1504052099206
java.vm.specification.vendor,sysinfo,,,"Sun Microsystems Inc.",1504052099206
java.vm.specification.version,sysinfo,,,"1.0",1504052099206
java.vm.vendor,sysinfo,,,"Oracle Corporation",1504052099206
java.vm.version,sysinfo,,,"R28.3.1-12-159557-1.6.0_71-20131209-2113-windows-x86_64",1504052099206
started,bundle,org.eclipse.jst.server.core,1.2.302.v20120503_1042,"org.eclipse.jst.server.core",1504052100878
deactivated,workbench,org.eclipse.ui.workbench,3.104.0.v20130204-164612,"",1504137292310
activated,workbench,org.eclipse.ui.workbench,3.104.0.v20130204-164612,"",1504163670732
activated,editor,org.eclipse.jdt.ui,3.8.2.v20130107-165834,"org.eclipse.jdt.ui.CompilationUnitEditor",1504163672703
deactivated,workbench,org.eclipse.ui.workbench,3.104.0.v20130204-164612,"",1504164041808
activated,workbench,org.eclipse.ui.workbench,3.104.0.v20130204-164612,"",1504229910660
deactivated,workbench,org.eclipse.ui.workbench,3.104.0.v20130204-164612,"",1504229916558
activated,workbench,org.eclipse.ui.workbench,3.104.0.v20130204-164612,"",1504229924571
started,bundle,org.eclipse.wb.os,1.1.0.r37x201109091012,"org.eclipse.wb.os",1504229924973
deactivated,workbench,org.eclipse.ui.workbench,3.104.0.v20130204-164612,"",1504229934462
activated,workbench,org.eclipse.ui.workbench,3.104.0.v20130204-164612,"",1504234839937
activated,view,org.eclipse.ui.navigator.resources,3.4.400.v20120705-114010,"org.eclipse.ui.navigator.ProjectExplorer",1504234841996
deactivated,workbench,org.eclipse.ui.workbench,3.104.0.v20130204-164612,"",1504234933831
activated,workbench,org.eclipse.ui.workbench,3.104.0.v20130204-164612,"",1504250797813
closed,view,org.eclipse.ui.ide,3.8.2.v20121106-165923,"org.eclipse.ui.views.ProblemView",1504250801074
closed,view,org.eclipse.team.ui,3.6.201.v20130125-135424,"org.eclipse.team.ui.GenericHistoryView",1504250801106
closed,view,org.eclipse.ui.views,3.6.100.v20120705-114010,"org.eclipse.ui.views.ContentOutline",1504250801121
closed,editor,org.eclipse.jdt.ui,3.8.2.v20130107-165834,"org.eclipse.jdt.ui.CompilationUnitEditor",1504250801142
closed,view,org.eclipse.ui.navigator.resources,3.4.400.v20120705-114010,"org.eclipse.ui.navigator.ProjectExplorer",1504250801222
closed,workbench,org.eclipse.ui.workbench,3.104.0.v20130204-164612,"",1504250801303
stopped,bundle,org.eclipse.jst.j2ee.xdoclet.runtime,1.1.300.v201004280700,"org.eclipse.jst.j2ee.xdoclet.runtime",1504250802775
stopped,bundle,org.eclipse.jst.j2ee.ejb.annotations.xdoclet,1.2.200.v201103302125,"org.eclipse.jst.j2ee.ejb.annotations.xdoclet",1504250802777
stopped,bundle,org.eclipse.jst.server.generic.jboss,1.6.1.v200904151730,"org.eclipse.jst.server.generic.jboss",1504250802777
stopped,bundle,org.eclipse.jst.server.generic.jonas,1.5.205.v200805140145,"org.eclipse.jst.server.generic.jonas",1504250802777
stopped,bundle,org.eclipse.jst.server.generic.oc4j,1.5.206.v20090812,"org.eclipse.jst.server.generic.oc4j",1504250802793
stopped,bundle,org.eclipse.jst.server.websphere.core,1.0.302.v20080620,"org.eclipse.jst.server.websphere.core",1504250802793
stopped,bundle,org.eclipse.jst.server.generic.ui,1.0.505.v20100428,"org.eclipse.jst.server.generic.ui",1504250802793
stopped,bundle,org.eclipse.jst.server.generic.core,1.0.700.v20101219,"org.eclipse.jst.server.generic.core",1504250802793
stopped,bundle,org.eclipse.datatools.connectivity.oda.template.ui,3.2.4.v201301111130,"org.eclipse.datatools.connectivity.oda.template.ui",1504250802793
stopped,bundle,org.eclipse.pde.api.tools.ui,1.0.400.v20120523-2012,"org.eclipse.pde.api.tools.ui",1504250802809
stopped,bundle,org.eclipse.pde.ds.ui,1.0.200.v20120530-1435,"org.eclipse.pde.ds.ui",1504250802809
stopped,bundle,org.eclipse.pde.runtime,3.4.300.v20120523-1453,"org.eclipse.pde.runtime",1504250802809
stopped,bundle,org.eclipse.pde.ua.ui,1.0.200.v20120523-1453,"org.eclipse.pde.ua.ui",1504250802824
stopped,bundle,org.eclipse.pde.ui.templates,3.4.500.v20120523-2012,"org.eclipse.pde.ui.templates",1504250802824
stopped,bundle,org.eclipse.pde.ui,3.7.2.v20130121-093123,"org.eclipse.pde.ui",1504250802824
stopped,bundle,org.eclipse.mylyn.ide.ant,3.6.0.v20110608-1400,"org.eclipse.mylyn.ide.ant",1504250802824
stopped,bundle,org.eclipse.ant.ui,3.5.301.v20121210-210948,"org.eclipse.ant.ui",1504250802840
stopped,bundle,org.eclipse.ant.launching,1.0.200.v20120530-1204,"org.eclipse.ant.launching",1504250802840
stopped,bundle,org.eclipse.compare.win32,1.0.200.v20120914-154749,"org.eclipse.compare.win32",1504250802840
stopped,bundle,org.eclipse.equinox.p2.ui.sdk,1.0.200.v20120515-1650,"org.eclipse.equinox.p2.ui.sdk",1504250802856
stopped,bundle,org.eclipse.jst.server.tomcat.ui,1.1.300.v20120420_1012,"org.eclipse.jst.server.tomcat.ui",1504250802856
stopped,bundle,org.eclipse.jst.server.ui,1.1.202.v20110419,"org.eclipse.jst.server.ui",1504250802856
stopped,bundle,org.eclipse.mylyn.java.tasks,3.6.0.v20110608-1400,"org.eclipse.mylyn.java.tasks",1504250802856
stopped,bundle,org.eclipse.mylyn.java.ui,3.6.0.v20110608-1400,"org.eclipse.mylyn.java.ui",1504250802856
stopped,bundle,org.eclipse.jdt.junit,3.7.100.v20120523-1543,"org.eclipse.jdt.junit",1504250802856
stopped,bundle,org.eclipse.jpt.jpa.eclipselink.ui,2.2.1.v201208222210,"org.eclipse.jpt.jpa.eclipselink.ui",1504250802878
stopped,bundle,org.eclipse.jpt.jpa.eclipselink.core,2.2.1.v201208222210,"org.eclipse.jpt.jpa.eclipselink.core",1504250802878
stopped,bundle,org.eclipse.jpt.jpa.ui,3.2.2.v201301092252,"org.eclipse.jpt.jpa.ui",1504250802878
stopped,bundle,org.eclipse.m2e.wtp.jpa,1.0.0.e42-20130613-0136,"org.eclipse.m2e.wtp.jpa",1504250802878
stopped,bundle,org.eclipse.jpt.jpa.core,3.2.2.v201301092252,"org.eclipse.jpt.jpa.core",1504250802894
stopped,bundle,org.eclipse.jpt.jpa.db,2.1.101.v201208222210,"org.eclipse.jpt.jpa.db",1504250802894
stopped,bundle,org.eclipse.datatools.enablement.jdt.classpath,1.0.1.v201107221501,"org.eclipse.datatools.enablement.jdt.classpath",1504250802909
stopped,bundle,org.eclipse.jdt.apt.ui,3.3.300.v20120522-1651,"org.eclipse.jdt.apt.ui",1504250802909
stopped,bundle,org.eclipse.datatools.enablement.sybase.asa.schemaobjecteditor.examples,2.5.0.200810071,"org.eclipse.datatools.enablement.sybase.asa.schemaobjecteditor.examples",1504250802909
stopped,bundle,org.eclipse.datatools.sqltools.debugger.core.ui,1.0.0.v201003161000,"org.eclipse.datatools.sqltools.debugger.core.ui",1504250802925
stopped,bundle,org.eclipse.jst.server.preview.adapter,1.1.201.v20130123_1813,"org.eclipse.jst.server.preview.adapter",1504250802925
stopped,bundle,org.eclipse.wst.xsl.jaxp.debug.ui,1.0.200.v201103081922,"org.eclipse.wst.xsl.jaxp.debug.ui",1504250802925
stopped,bundle,org.eclipse.m2e.launching,1.4.0.20130601-0317,"org.eclipse.m2e.launching",1504250802925
stopped,bundle,org.eclipse.jdt.debug.ui,3.6.100.v20120530-1425,"org.eclipse.jdt.debug.ui",1504250802925
stopped,bundle,org.eclipse.jpt.dbws.eclipselink.ui,1.0.201.v201208222210,"org.eclipse.jpt.dbws.eclipselink.ui",1504250802940
stopped,bundle,org.eclipse.jpt.jaxb.eclipselink.ui,1.3.1.v201208222210,"org.eclipse.jpt.jaxb.eclipselink.ui",1504250802940
stopped,bundle,org.eclipse.jpt.jaxb.ui,1.3.1.v201208222210,"org.eclipse.jpt.jaxb.ui",1504250802940
stopped,bundle,org.eclipse.jpt.common.ui,1.2.1.v201208222210,"org.eclipse.jpt.common.ui",1504250802940
stopped,bundle,org.eclipse.jst.common.annotations.ui,1.1.300.v201002081900,"org.eclipse.jst.common.annotations.ui",1504250802956
stopped,bundle,org.eclipse.jst.j2ee.ejb.annotations.ui,1.1.200.v201004290730,"org.eclipse.jst.j2ee.ejb.annotations.ui",1504250802956
stopped,bundle,org.eclipse.jst.ejb.ui,1.1.700.v201201190500,"org.eclipse.jst.ejb.ui",1504250802956
activated,perspective,org.eclipse.jst.j2ee.ui,,"org.eclipse.jst.j2ee.J2EEPerspective",1504258143332
started,bundle,org.eclipse.osgi,3.8.2.v20130124-134944,"org.eclipse.osgi",1504258143334
started,bundle,org.eclipse.equinox.simpleconfigurator,1.0.301.v20120914-163612,"org.eclipse.equinox.simpleconfigurator",1504258143334
started,bundle,com.ibm.icu,4.4.2.v20110823,"com.ibm.icu",1504258143334
started,bundle,org.apache.felix.gogo.command,0.8.0.v201108120515,"org.apache.felix.gogo.command",1504258143335
started,bundle,org.apache.felix.gogo.runtime,0.8.0.v201108120515,"org.apache.felix.gogo.runtime",1504258143335
started,bundle,org.apache.felix.gogo.shell,0.8.0.v201110170705,"org.apache.felix.gogo.shell",1504258143335
started,bundle,org.eclipse.compare,3.5.301.v20130125-135424,"org.eclipse.compare",1504258143336
started,bundle,org.eclipse.compare.core,3.5.200.v20120522-1148,"org.eclipse.compare.core",1504258143336
started,bundle,org.eclipse.core.contenttype,3.4.200.v20120523-2004,"org.eclipse.core.contenttype",1504258143337
started,bundle,org.eclipse.core.databinding.observable,1.4.1.v20120521-2329,"org.eclipse.core.databinding.observable",1504258143338
started,bundle,org.eclipse.core.expressions,3.4.401.v20120912-155018,"org.eclipse.core.expressions",1504258143338
started,bundle,org.eclipse.core.filebuffers,3.5.200.v20120523-1310,"org.eclipse.core.filebuffers",1504258143339
started,bundle,org.eclipse.core.filesystem,1.3.200.v20130115-145044,"org.eclipse.core.filesystem",1504258143339
started,bundle,org.eclipse.core.jobs,3.5.300.v20120912-155018,"org.eclipse.core.jobs",1504258143340
started,bundle,org.eclipse.core.net,1.2.200.v20120914-093638,"org.eclipse.core.net",1504258143340
started,bundle,org.eclipse.core.resources,3.8.1.v20121114-124432,"org.eclipse.core.resources",1504258143341
started,bundle,org.eclipse.core.runtime,3.8.0.v20120912-155025,"org.eclipse.core.runtime",1504258143341
started,bundle,org.eclipse.core.runtime.compatibility,3.2.200.v20120521-2346,"org.eclipse.core.runtime.compatibility",1504258143342
started,bundle,org.eclipse.core.variables,3.2.600.v20120521-2012,"org.eclipse.core.variables",1504258143342
started,bundle,org.eclipse.debug.core,3.7.100.v20120521-2012,"org.eclipse.debug.core",1504258143343
started,bundle,org.eclipse.e4.core.commands,0.10.1.v20120523-1955,"org.eclipse.e4.core.commands",1504258143343
started,bundle,org.eclipse.e4.core.contexts,1.2.0.v20121221-192508,"org.eclipse.e4.core.contexts",1504258143343
started,bundle,org.eclipse.e4.core.di,1.2.0.v20121024-173149,"org.eclipse.e4.core.di",1504258143344
started,bundle,org.eclipse.e4.core.services,1.0.0.v20120521-2346,"org.eclipse.e4.core.services",1504258143344
started,bundle,org.eclipse.e4.ui.bindings,0.10.3.v20130123-162658,"org.eclipse.e4.ui.bindings",1504258143345
started,bundle,org.eclipse.e4.ui.css.swt,0.10.3.v20130123-162658,"org.eclipse.e4.ui.css.swt",1504258143345
started,bundle,org.eclipse.e4.ui.css.swt.theme,0.9.4.v20130123-162658,"org.eclipse.e4.ui.css.swt.theme",1504258143346
started,bundle,org.eclipse.e4.ui.di,0.10.1.v20120523-1955,"org.eclipse.e4.ui.di",1504258143346
started,bundle,org.eclipse.e4.ui.model.workbench,0.10.1.v20120523-1955,"org.eclipse.e4.ui.model.workbench",1504258143347
started,bundle,org.eclipse.e4.ui.services,0.10.3.v20130123-162658,"org.eclipse.e4.ui.services",1504258143347
started,bundle,org.eclipse.e4.ui.workbench,0.11.0.v20130125-100758,"org.eclipse.e4.ui.workbench",1504258143347
started,bundle,org.eclipse.e4.ui.workbench.addons.swt,0.10.3.v20130124-185622,"org.eclipse.e4.ui.workbench.addons.swt",1504258143348
started,bundle,org.eclipse.e4.ui.workbench.renderers.swt,0.10.3.v20130124-170312,"org.eclipse.e4.ui.workbench.renderers.swt",1504258143348
started,bundle,org.eclipse.e4.ui.workbench.swt,0.10.3.v20130124-133900,"org.eclipse.e4.ui.workbench.swt",1504258143349
started,bundle,org.eclipse.emf.common,2.8.0.v20130125-0546,"org.eclipse.emf.common",1504258143349
started,bundle,org.eclipse.emf.common.ui,2.7.0.v20130125-0826,"org.eclipse.emf.common.ui",1504258143350
started,bundle,org.eclipse.emf.ecore,2.8.3.v20130125-0546,"org.eclipse.emf.ecore",1504258143351
started,bundle,org.eclipse.emf.ecore.xmi,2.8.1.v20130125-0546,"org.eclipse.emf.ecore.xmi",1504258143351
started,bundle,org.eclipse.emf.edit,2.8.0.v20130125-0826,"org.eclipse.emf.edit",1504258143352
started,bundle,org.eclipse.emf.edit.ui,2.8.0.v20130125-0826,"org.eclipse.emf.edit.ui",1504258143352
started,bundle,org.eclipse.epp.mpc.ui,1.1.1.I20110907-0947,"org.eclipse.epp.mpc.ui",1504258143352
started,bundle,org.eclipse.equinox.app,1.3.100.v20120522-1841,"org.eclipse.equinox.app",1504258143353
started,bundle,org.eclipse.equinox.common,3.6.100.v20120522-1841,"org.eclipse.equinox.common",1504258143353
started,bundle,org.eclipse.equinox.console,1.0.0.v20120522-1841,"org.eclipse.equinox.console",1504258143353
started,bundle,org.eclipse.equinox.ds,1.4.1.v20120926-201320,"org.eclipse.equinox.ds",1504258143354
started,bundle,org.eclipse.equinox.event,1.2.200.v20120522-2049,"org.eclipse.equinox.event",1504258143354
started,bundle,org.eclipse.equinox.p2.core,2.2.0.v20120430-0525,"org.eclipse.equinox.p2.core",1504258143355
started,bundle,org.eclipse.equinox.p2.directorywatcher,1.0.300.v20110808-1657,"org.eclipse.equinox.p2.directorywatcher",1504258143355
started,bundle,org.eclipse.equinox.p2.engine,2.2.0.v20130121-021919,"org.eclipse.equinox.p2.engine",1504258143356
started,bundle,org.eclipse.equinox.p2.garbagecollector,1.0.200.v20110808-1657,"org.eclipse.equinox.p2.garbagecollector",1504258143356
started,bundle,org.eclipse.equinox.p2.metadata,2.1.0.v20120430-2001,"org.eclipse.equinox.p2.metadata",1504258143357
started,bundle,org.eclipse.equinox.p2.metadata.repository,1.2.100.v20120524-1717,"org.eclipse.equinox.p2.metadata.repository",1504258143357
started,bundle,org.eclipse.equinox.p2.operations,2.2.0.v20130119-010614,"org.eclipse.equinox.p2.operations",1504258143358
started,bundle,org.eclipse.equinox.p2.publisher,1.2.0.v20121002-080415,"org.eclipse.equinox.p2.publisher",1504258143358
started,bundle,org.eclipse.equinox.p2.reconciler.dropins,1.1.200.v20120301-2145,"org.eclipse.equinox.p2.reconciler.dropins",1504258143359
started,bundle,org.eclipse.equinox.p2.repository,2.2.0.v20120524-1945,"org.eclipse.equinox.p2.repository",1504258143360
started,bundle,org.eclipse.equinox.p2.ui.sdk.scheduler,1.1.0.v20110815-1744,"org.eclipse.equinox.p2.ui.sdk.scheduler",1504258143360
started,bundle,org.eclipse.equinox.p2.updatechecker,1.1.200.v20110808-1657,"org.eclipse.equinox.p2.updatechecker",1504258143361
started,bundle,org.eclipse.equinox.preferences,3.5.1.v20121031-182809,"org.eclipse.equinox.preferences",1504258143361
started,bundle,org.eclipse.equinox.registry,3.5.200.v20120522-1841,"org.eclipse.equinox.registry",1504258143362
started,bundle,org.eclipse.equinox.security,1.1.100.v20120522-1841,"org.eclipse.equinox.security",1504258143363
started,bundle,org.eclipse.equinox.util,1.0.400.v20120917-192807,"org.eclipse.equinox.util",1504258143370
started,bundle,org.eclipse.help,3.6.0.v20120912-134126,"org.eclipse.help",1504258143370
started,bundle,org.eclipse.jdt.apt.core,3.3.500.v20120522-1651,"org.eclipse.jdt.apt.core",1504258143371
started,bundle,org.eclipse.jdt.apt.pluggable.core,1.0.400.v20120522-1651,"org.eclipse.jdt.apt.pluggable.core",1504258143371
started,bundle,org.eclipse.jdt.core,3.8.3.v20130121-145325,"org.eclipse.jdt.core",1504258143373
started,bundle,org.eclipse.jdt.core.manipulation,1.5.0.v20120523-1543,"org.eclipse.jdt.core.manipulation",1504258143373
started,bundle,org.eclipse.jdt.launching,3.6.101.v20130111-183046,"org.eclipse.jdt.launching",1504258143373
started,bundle,org.eclipse.jdt.ui,3.8.2.v20130107-165834,"org.eclipse.jdt.ui",1504258143373
started,bundle,org.eclipse.jem,2.0.600.v201201051400,"org.eclipse.jem",1504258143373
started,bundle,org.eclipse.jem.util,2.1.100.v201103021400,"org.eclipse.jem.util",1504258143373
started,bundle,org.eclipse.jem.workbench,2.0.400.v201104251400,"org.eclipse.jem.workbench",1504258143373
started,bundle,org.eclipse.jface,3.8.102.v20130123-162658,"org.eclipse.jface",1504258143373
started,bundle,org.eclipse.jsch.core,1.1.400.v20120522-1148,"org.eclipse.jsch.core",1504258143373
started,bundle,org.eclipse.jst.common.frameworks,1.1.601.v201208160700,"org.eclipse.jst.common.frameworks",1504258143373
started,bundle,org.eclipse.jst.common.project.facet.core,1.4.201.v201108161900,"org.eclipse.jst.common.project.facet.core",1504258143373
started,bundle,org.eclipse.jst.j2ee,1.1.603.v201301092200,"org.eclipse.jst.j2ee",1504258143373
started,bundle,org.eclipse.jst.j2ee.core,1.2.200.v201205030130,"org.eclipse.jst.j2ee.core",1504258143373
started,bundle,org.eclipse.jst.j2ee.ejb,1.1.601.v201210040812,"org.eclipse.jst.j2ee.ejb",1504258143373
started,bundle,org.eclipse.jst.j2ee.jca,1.1.600.v201111012200,"org.eclipse.jst.j2ee.jca",1504258143373
started,bundle,org.eclipse.jst.j2ee.navigator.ui,1.1.600.v201203142300,"org.eclipse.jst.j2ee.navigator.ui",1504258143373
started,bundle,org.eclipse.jst.j2ee.ui,1.1.600.v201205170400,"org.eclipse.jst.j2ee.ui",1504258143373
started,bundle,org.eclipse.jst.j2ee.web,1.1.601.v201212130700,"org.eclipse.jst.j2ee.web",1504258143373
started,bundle,org.eclipse.jst.j2ee.webservice,1.1.400.v201004110600,"org.eclipse.jst.j2ee.webservice",1504258143373
started,bundle,org.eclipse.jst.j2ee.webservice.ui,1.1.500.v201105122000,"org.eclipse.jst.j2ee.webservice.ui",1504258143373
started,bundle,org.eclipse.jst.jee,1.0.501.v201301091334,"org.eclipse.jst.jee",1504258143373
started,bundle,org.eclipse.jst.jee.ejb,1.0.301.v201007070821,"org.eclipse.jst.jee.ejb",1504258143373
started,bundle,org.eclipse.jst.jee.ui,1.0.500.v201205170400,"org.eclipse.jst.jee.ui",1504258143373
started,bundle,org.eclipse.jst.jee.web,1.0.301.v201007070907,"org.eclipse.jst.jee.web",1504258143373
started,bundle,org.eclipse.jst.servlet.ui,1.1.600.v201202011057,"org.eclipse.jst.servlet.ui",1504258143373
started,bundle,org.eclipse.jst.ws.jaxrs.core,1.0.400.v201202152223,"org.eclipse.jst.ws.jaxrs.core",1504258143373
started,bundle,org.eclipse.jst.ws.jaxws.dom.integration,1.0.200.v201109042201,"org.eclipse.jst.ws.jaxws.dom.integration",1504258143373
started,bundle,org.eclipse.jst.ws.jaxws.dom.ui,1.0.0.v201004171919,"org.eclipse.jst.ws.jaxws.dom.ui",1504258143373
started,bundle,org.eclipse.jst.ws.jaxws.utils,1.0.200.v201201032002,"org.eclipse.jst.ws.jaxws.utils",1504258143373
started,bundle,org.eclipse.ltk.core.refactoring,3.6.0.v20120523-1543,"org.eclipse.ltk.core.refactoring",1504258143373
started,bundle,org.eclipse.ltk.ui.refactoring,3.7.0.v20120523-1543,"org.eclipse.ltk.ui.refactoring",1504258143373
started,bundle,org.eclipse.rse.connectorservice.local,2.1.400.201205062159,"org.eclipse.rse.connectorservice.local",1504258143373
started,bundle,org.eclipse.rse.core,3.3.2.201301152246,"org.eclipse.rse.core",1504258143388
started,bundle,org.eclipse.rse.files.ui,3.2.101.201302012126,"org.eclipse.rse.files.ui",1504258143388
