what,kind,bundleId,bundleVersion,description,time
activated,view,org.eclipse.ui.navigator.resources,3.4.400.v20120705-114010,"org.eclipse.ui.navigator.ProjectExplorer",1501831078960
started,bundle,org.eclipse.jdt.junit.core,3.7.100.v20120523-1257,"org.eclipse.jdt.junit.core",1501831090326
opened,view,org.eclipse.team.ui,3.6.201.v20130125-135424,"org.eclipse.team.ui.GenericHistoryView",1501831097053
activated,view,org.eclipse.team.ui,3.6.201.v20130125-135424,"org.eclipse.team.ui.GenericHistoryView",1501831097085
executed,command,org.tigris.subversion.subclipse.ui,1.8.21,"org.tigris.subversion.subclipse.ui.showresourceinhistoryaction",1501831097420
opened,editor,org.eclipse.jdt.ui,3.8.2.v20130107-165834,"org.eclipse.jdt.ui.CompilationUnitEditor",1501831099992
activated,editor,org.eclipse.jdt.ui,3.8.2.v20130107-165834,"org.eclipse.jdt.ui.CompilationUnitEditor",1501831100195
executed,command,org.eclipse.ui,3.104.0.v20121024-145224,"org.eclipse.ui.edit.selectAll",1501831106117
executed,command,org.eclipse.ui,3.104.0.v20121024-145224,"org.eclipse.ui.edit.copy",1501831106437
activated,view,org.eclipse.ui.navigator.resources,3.4.400.v20120705-114010,"org.eclipse.ui.navigator.ProjectExplorer",1501831107899
activated,editor,org.eclipse.jdt.ui,3.8.2.v20130107-165834,"org.eclipse.jdt.ui.CompilationUnitEditor",1501831108249
executed,command,org.eclipse.ui,3.104.0.v20121024-145224,"org.eclipse.ui.edit.selectAll",1501831109861
executed,command,org.eclipse.ui,3.104.0.v20121024-145224,"org.eclipse.ui.edit.paste",1501831110189
executed,command,org.eclipse.ui,3.104.0.v20121024-145224,"org.eclipse.ui.file.save",1501831111118
activated,editor,org.eclipse.jdt.ui,3.8.2.v20130107-165834,"org.eclipse.jdt.ui.CompilationUnitEditor",1501831113179
activated,editor,org.eclipse.jdt.ui,3.8.2.v20130107-165834,"org.eclipse.jdt.ui.CompilationUnitEditor",1501831114195
closed,editor,org.eclipse.jdt.ui,3.8.2.v20130107-165834,"org.eclipse.jdt.ui.CompilationUnitEditor",1501831114195
executed,command,org.eclipse.ui,3.104.0.v20121024-145224,"org.eclipse.ui.file.save",1501831145915
activated,view,org.eclipse.team.ui,3.6.201.v20130125-135424,"org.eclipse.team.ui.GenericHistoryView",1501831149421
opened,editor,org.eclipse.jdt.ui,3.8.2.v20130107-165834,"org.eclipse.jdt.ui.CompilationUnitEditor",1501831151467
activated,editor,org.eclipse.jdt.ui,3.8.2.v20130107-165834,"org.eclipse.jdt.ui.CompilationUnitEditor",1501831151655
activated,view,org.eclipse.team.ui,3.6.201.v20130125-135424,"org.eclipse.team.ui.GenericHistoryView",1501831155821
deactivated,workbench,org.eclipse.ui.workbench,3.104.0.v20130204-164612,"",1501831160264
activated,workbench,org.eclipse.ui.workbench,3.104.0.v20130204-164612,"",1501831167327
activated,editor,org.eclipse.jdt.ui,3.8.2.v20130107-165834,"org.eclipse.jdt.ui.CompilationUnitEditor",1501831167351
activated,view,org.eclipse.ui.navigator.resources,3.4.400.v20120705-114010,"org.eclipse.ui.navigator.ProjectExplorer",1501831169772
started,bundle,com.adobe.flexide.multiplatform.ios,4.7.0.349722,"com.adobe.flexide.multiplatform.ios",1501831228360
started,bundle,com.adobe.flexide.launching.multiplatform,4.7.0.349722,"com.adobe.flexide.launching.multiplatform",1501831228372
started,bundle,com.adobe.flexide.multiplatform.android,4.7.0.349722,"com.adobe.flexide.multiplatform.android",1501831228374
activated,view,org.eclipse.team.ui,3.6.201.v20130125-135424,"org.eclipse.team.ui.GenericHistoryView",1501831236593
executed,command,org.tigris.subversion.subclipse.ui,1.8.21,"org.tigris.subversion.subclipse.ui.showresourceinhistoryaction",1501831236655
deactivated,workbench,org.eclipse.ui.workbench,3.104.0.v20130204-164612,"",1501831268452
opened,editor,org.eclipse.compare,3.5.301.v20130125-135424,"org.eclipse.compare.CompareEditor",1501831270102
activated,editor,org.eclipse.compare,3.5.301.v20130125-135424,"org.eclipse.compare.CompareEditor",1501831270211
activated,workbench,org.eclipse.ui.workbench,3.104.0.v20130204-164612,"",1501831270227
deactivated,workbench,org.eclipse.ui.workbench,3.104.0.v20130204-164612,"",1501831270624
activated,workbench,org.eclipse.ui.workbench,3.104.0.v20130204-164612,"",1501831271208
executed,command,org.eclipse.ui,3.104.0.v20121024-145224,"org.eclipse.ui.edit.selectAll",1501831275421
executed,command,org.eclipse.ui,3.104.0.v20121024-145224,"org.eclipse.ui.edit.copy",1501831276087
activated,view,org.eclipse.ui.navigator.resources,3.4.400.v20120705-114010,"org.eclipse.ui.navigator.ProjectExplorer",1501831276979
activated,editor,org.eclipse.compare,3.5.301.v20130125-135424,"org.eclipse.compare.CompareEditor",1501831279135
activated,editor,org.eclipse.jdt.ui,3.8.2.v20130107-165834,"org.eclipse.jdt.ui.CompilationUnitEditor",1501831280070
closed,editor,org.eclipse.compare,3.5.301.v20130125-135424,"org.eclipse.compare.CompareEditor",1501831280085
activated,view,org.eclipse.ui.navigator.resources,3.4.400.v20120705-114010,"org.eclipse.ui.navigator.ProjectExplorer",1501831282089
deactivated,workbench,org.eclipse.ui.workbench,3.104.0.v20130204-164612,"",1501831285967
activated,workbench,org.eclipse.ui.workbench,3.104.0.v20130204-164612,"",1501831311726
deactivated,workbench,org.eclipse.ui.workbench,3.104.0.v20130204-164612,"",1501831315954
activated,workbench,org.eclipse.ui.workbench,3.104.0.v20130204-164612,"",1501831317240
executed,command,org.tigris.subversion.subclipse.ui,1.8.21,"org.tigris.subversion.subclipse.ui.revert",1501831317250
deactivated,workbench,org.eclipse.ui.workbench,3.104.0.v20130204-164612,"",1501831318249
activated,workbench,org.eclipse.ui.workbench,3.104.0.v20130204-164612,"",1501831325868
activated,view,org.eclipse.team.ui,3.6.201.v20130125-135424,"org.eclipse.team.ui.GenericHistoryView",1501831325884
activated,view,org.eclipse.ui.navigator.resources,3.4.400.v20120705-114010,"org.eclipse.ui.navigator.ProjectExplorer",1501831327359
deactivated,workbench,org.eclipse.ui.workbench,3.104.0.v20130204-164612,"",1501831330531
activated,workbench,org.eclipse.ui.workbench,3.104.0.v20130204-164612,"",1501831417133
executed,command,org.eclipse.ui,3.104.0.v20121024-145224,"org.eclipse.ui.file.refresh",1501831419495
deactivated,workbench,org.eclipse.ui.workbench,3.104.0.v20130204-164612,"",1501831424641
activated,workbench,org.eclipse.ui.workbench,3.104.0.v20130204-164612,"",1501831431994
opened,editor,org.eclipse.ui.editors,3.8.0.v20120523-1540,"org.eclipse.ui.DefaultTextEditor",1501831437624
activated,editor,org.eclipse.ui.editors,3.8.0.v20120523-1540,"org.eclipse.ui.DefaultTextEditor",1501831437744
activated,view,org.eclipse.ui.navigator.resources,3.4.400.v20120705-114010,"org.eclipse.ui.navigator.ProjectExplorer",1501831456822
deactivated,workbench,org.eclipse.ui.workbench,3.104.0.v20130204-164612,"",1501831464640
activated,workbench,org.eclipse.ui.workbench,3.104.0.v20130204-164612,"",1501831465884
executed,command,org.tigris.subversion.subclipse.ui,1.8.21,"org.tigris.subversion.subclipse.ui.revert",1501831465915
activated,editor,org.eclipse.ui.editors,3.8.0.v20120523-1540,"org.eclipse.ui.DefaultTextEditor",1501831467899
deactivated,workbench,org.eclipse.ui.workbench,3.104.0.v20130204-164612,"",1501831469250
activated,workbench,org.eclipse.ui.workbench,3.104.0.v20130204-164612,"",1501831470045
activated,view,org.eclipse.ui.navigator.resources,3.4.400.v20120705-114010,"org.eclipse.ui.navigator.ProjectExplorer",1501831470060
closed,editor,org.eclipse.ui.editors,3.8.0.v20120523-1540,"org.eclipse.ui.DefaultTextEditor",1501831471790
activated,editor,org.eclipse.jdt.ui,3.8.2.v20130107-165834,"org.eclipse.jdt.ui.CompilationUnitEditor",1501831471868
activated,view,org.eclipse.ui.navigator.resources,3.4.400.v20120705-114010,"org.eclipse.ui.navigator.ProjectExplorer",1501831473824
deactivated,workbench,org.eclipse.ui.workbench,3.104.0.v20130204-164612,"",1501831480209
activated,workbench,org.eclipse.ui.workbench,3.104.0.v20130204-164612,"",1501831536962
opened,editor,org.eclipse.ui.editors,3.8.0.v20120523-1540,"org.eclipse.ui.DefaultTextEditor",1501831539501
activated,editor,org.eclipse.ui.editors,3.8.0.v20120523-1540,"org.eclipse.ui.DefaultTextEditor",1501831539613
deactivated,workbench,org.eclipse.ui.workbench,3.104.0.v20130204-164612,"",1501831540375
activated,workbench,org.eclipse.ui.workbench,3.104.0.v20130204-164612,"",1501831591636
deactivated,workbench,org.eclipse.ui.workbench,3.104.0.v20130204-164612,"",1501831594008
activated,workbench,org.eclipse.ui.workbench,3.104.0.v20130204-164612,"",1501831694039
activated,view,org.eclipse.ui.navigator.resources,3.4.400.v20120705-114010,"org.eclipse.ui.navigator.ProjectExplorer",1501831700265
activated,editor,org.eclipse.jdt.ui,3.8.2.v20130107-165834,"org.eclipse.jdt.ui.CompilationUnitEditor",1501831704492
activated,view,org.eclipse.ui.navigator.resources,3.4.400.v20120705-114010,"org.eclipse.ui.navigator.ProjectExplorer",1501831708209
activated,editor,org.eclipse.jdt.ui,3.8.2.v20130107-165834,"org.eclipse.jdt.ui.CompilationUnitEditor",1501831720992
deactivated,workbench,org.eclipse.ui.workbench,3.104.0.v20130204-164612,"",1501831721992
activated,workbench,org.eclipse.ui.workbench,3.104.0.v20130204-164612,"",1501831723977
activated,editor,org.eclipse.jdt.ui,3.8.2.v20130107-165834,"org.eclipse.jdt.ui.CompilationUnitEditor",1501831724164
executed,command,org.eclipse.ui.ide,3.8.2.v20121106-165923,"org.eclipse.ui.navigate.openResource",1501831724164
deactivated,workbench,org.eclipse.ui.workbench,3.104.0.v20130204-164612,"",1501831737921
activated,workbench,org.eclipse.ui.workbench,3.104.0.v20130204-164612,"",1501831742087
deactivated,workbench,org.eclipse.ui.workbench,3.104.0.v20130204-164612,"",1501831771049
activated,workbench,org.eclipse.ui.workbench,3.104.0.v20130204-164612,"",1501831771930
executed,command,org.eclipse.ui.ide,3.8.2.v20121106-165923,"org.eclipse.ui.project.cleanAction",1501831771962
deactivated,workbench,org.eclipse.ui.workbench,3.104.0.v20130204-164612,"",1501831772266
activated,workbench,org.eclipse.ui.workbench,3.104.0.v20130204-164612,"",1501831804261
deactivated,workbench,org.eclipse.ui.workbench,3.104.0.v20130204-164612,"",1501831936281
activated,workbench,org.eclipse.ui.workbench,3.104.0.v20130204-164612,"",1501837575796
deactivated,workbench,org.eclipse.ui.workbench,3.104.0.v20130204-164612,"",1501837584407
activated,workbench,org.eclipse.ui.workbench,3.104.0.v20130204-164612,"",1501837586413
opened,editor,org.eclipse.wst.xml.ui,1.1.302.v201301172222,"org.eclipse.wst.xml.ui.internal.tabletree.XMLMultiPageEditorPart",1501837586622
activated,editor,org.eclipse.wst.xml.ui,1.1.302.v201301172222,"org.eclipse.wst.xml.ui.internal.tabletree.XMLMultiPageEditorPart",1501837586818
executed,command,org.eclipse.ui.ide,3.8.2.v20121106-165923,"org.eclipse.ui.navigate.openResource",1501837586818
started,bundle,org.eclipse.jst.jsp.ui,1.1.702.v201301101836,"org.eclipse.jst.jsp.ui",1501837587263
deactivated,workbench,org.eclipse.ui.workbench,3.104.0.v20130204-164612,"",1501837607617
activated,workbench,org.eclipse.ui.workbench,3.104.0.v20130204-164612,"",1501837626570
deactivated,workbench,org.eclipse.ui.workbench,3.104.0.v20130204-164612,"",1501837627782
activated,workbench,org.eclipse.ui.workbench,3.104.0.v20130204-164612,"",1501837816530
deactivated,workbench,org.eclipse.ui.workbench,3.104.0.v20130204-164612,"",1501837832949
activated,workbench,org.eclipse.ui.workbench,3.104.0.v20130204-164612,"",1501837841524
activated,view,org.eclipse.ui.navigator.resources,3.4.400.v20120705-114010,"org.eclipse.ui.navigator.ProjectExplorer",1501837845030
activated,view,org.eclipse.team.ui,3.6.201.v20130125-135424,"org.eclipse.team.ui.GenericHistoryView",1501837859802
executed,command,org.tigris.subversion.subclipse.ui,1.8.21,"org.tigris.subversion.subclipse.ui.showresourceinhistoryaction",1501837859849
opened,editor,org.eclipse.wst.xml.ui,1.1.302.v201301172222,"org.eclipse.wst.xml.ui.internal.tabletree.XMLMultiPageEditorPart",1501837869015
activated,editor,org.eclipse.wst.xml.ui,1.1.302.v201301172222,"org.eclipse.wst.xml.ui.internal.tabletree.XMLMultiPageEditorPart",1501837869187
activated,view,org.eclipse.team.ui,3.6.201.v20130125-135424,"org.eclipse.team.ui.GenericHistoryView",1501837875584
opened,editor,org.eclipse.wst.xml.ui,1.1.302.v201301172222,"org.eclipse.wst.xml.ui.internal.tabletree.XMLMultiPageEditorPart",1501837875946
activated,editor,org.eclipse.wst.xml.ui,1.1.302.v201301172222,"org.eclipse.wst.xml.ui.internal.tabletree.XMLMultiPageEditorPart",1501837876133
deactivated,workbench,org.eclipse.ui.workbench,3.104.0.v20130204-164612,"",1501837891846
activated,workbench,org.eclipse.ui.workbench,3.104.0.v20130204-164612,"",1501837894565
deactivated,workbench,org.eclipse.ui.workbench,3.104.0.v20130204-164612,"",1501837898618
activated,workbench,org.eclipse.ui.workbench,3.104.0.v20130204-164612,"",1501837946541
deactivated,workbench,org.eclipse.ui.workbench,3.104.0.v20130204-164612,"",1501837951247
activated,workbench,org.eclipse.ui.workbench,3.104.0.v20130204-164612,"",1502066708795
started,bundle,org.eclipse.epp.usagedata.ui,1.3.1.R201106061540,"org.eclipse.epp.usagedata.ui",1502066708826
deactivated,workbench,org.eclipse.ui.workbench,3.104.0.v20130204-164612,"",1502066709078
activated,workbench,org.eclipse.ui.workbench,3.104.0.v20130204-164612,"",1502066711642
activated,view,org.eclipse.ui.navigator.resources,3.4.400.v20120705-114010,"org.eclipse.ui.navigator.ProjectExplorer",1502066715846
activated,editor,org.eclipse.jdt.ui,3.8.2.v20130107-165834,"org.eclipse.jdt.ui.CompilationUnitEditor",1502066716351
activated,view,org.eclipse.ui.navigator.resources,3.4.400.v20120705-114010,"org.eclipse.ui.navigator.ProjectExplorer",1502066733127
activated,editor,org.eclipse.jdt.ui,3.8.2.v20130107-165834,"org.eclipse.jdt.ui.CompilationUnitEditor",1502066733682
activated,editor,org.eclipse.jdt.ui,3.8.2.v20130107-165834,"org.eclipse.jdt.ui.CompilationUnitEditor",1502066766538
executed,command,org.eclipse.ui,3.104.0.v20121024-145224,"org.eclipse.ui.edit.copy",1502066771391
executed,command,org.eclipse.ui,3.104.0.v20121024-145224,"org.eclipse.ui.edit.paste",1502066773865
executed,command,org.eclipse.ui,3.104.0.v20121024-145224,"org.eclipse.ui.edit.cut",1502066785202
executed,command,org.eclipse.ui,3.104.0.v20121024-145224,"org.eclipse.ui.file.save",1502066785911
activated,view,org.eclipse.ui.navigator.resources,3.4.400.v20120705-114010,"org.eclipse.ui.navigator.ProjectExplorer",1502066791611
activated,editor,org.eclipse.jdt.ui,3.8.2.v20130107-165834,"org.eclipse.jdt.ui.CompilationUnitEditor",1502066791964
executed,command,org.eclipse.ui,3.104.0.v20121024-145224,"org.eclipse.ui.file.save",1502066805826
executed,command,org.eclipse.ui,3.104.0.v20121024-145224,"org.eclipse.ui.edit.copy",1502066813796
executed,command,org.eclipse.ui,3.104.0.v20121024-145224,"org.eclipse.ui.edit.paste",1502066815062
executed,command,org.eclipse.ui.workbench.texteditor,3.8.0.v20120523-1310,"org.eclipse.ui.edit.text.delete.line",1502066816296
executed,command,org.eclipse.ui,3.104.0.v20121024-145224,"org.eclipse.ui.edit.delete",1502066834797
executed,command,org.eclipse.ui,3.104.0.v20121024-145224,"org.eclipse.ui.edit.copy",1502066843252
executed,command,org.eclipse.ui,3.104.0.v20121024-145224,"org.eclipse.ui.edit.paste",1502066845607
executed,command,org.eclipse.ui,3.104.0.v20121024-145224,"org.eclipse.ui.edit.delete",1502066849110
executed,command,org.eclipse.ui,3.104.0.v20121024-145224,"org.eclipse.ui.edit.delete",1502066855244
executed,command,org.eclipse.ui,3.104.0.v20121024-145224,"org.eclipse.ui.file.save",1502066855779
activated,view,org.eclipse.ui.navigator.resources,3.4.400.v20120705-114010,"org.eclipse.ui.navigator.ProjectExplorer",1502066858011
activated,editor,org.eclipse.jdt.ui,3.8.2.v20130107-165834,"org.eclipse.jdt.ui.CompilationUnitEditor",1502066858412
executed,command,org.eclipse.ui,3.104.0.v20121024-145224,"org.eclipse.ui.edit.copy",1502066861441
executed,command,org.eclipse.ui,3.104.0.v20121024-145224,"org.eclipse.ui.edit.paste",1502066862675
executed,command,org.eclipse.ui,3.104.0.v20121024-145224,"org.eclipse.ui.edit.delete",1502066864994
executed,command,org.eclipse.ui,3.104.0.v20121024-145224,"org.eclipse.ui.file.save",1502066866449
activated,view,org.eclipse.ui.navigator.resources,3.4.400.v20120705-114010,"org.eclipse.ui.navigator.ProjectExplorer",1502066870111
activated,editor,org.eclipse.jdt.ui,3.8.2.v20130107-165834,"org.eclipse.jdt.ui.CompilationUnitEditor",1502066870456
executed,command,org.eclipse.ui.workbench.texteditor,3.8.0.v20120523-1310,"org.eclipse.ui.edit.text.delete.line",1502066873384
executed,command,org.eclipse.ui,3.104.0.v20121024-145224,"org.eclipse.ui.file.save",1502066873581
executed,command,org.eclipse.ui.workbench.texteditor,3.8.0.v20120523-1310,"org.eclipse.ui.edit.text.delete.line",1502066889648
executed,command,org.eclipse.ui.workbench.texteditor,3.8.0.v20120523-1310,"org.eclipse.ui.edit.text.delete.line",1502066891448
executed,command,org.eclipse.ui,3.104.0.v20121024-145224,"org.eclipse.ui.file.save",1502066891714
executed,command,org.eclipse.ui,3.104.0.v20121024-145224,"org.eclipse.ui.edit.copy",1502066948273
executed,command,org.eclipse.ui,3.104.0.v20121024-145224,"org.eclipse.ui.edit.copy",1502066977596
executed,command,org.eclipse.ui,3.104.0.v20121024-145224,"org.eclipse.ui.edit.paste",1502066978589
executed,command,org.eclipse.ui,3.104.0.v20121024-145224,"org.eclipse.ui.edit.copy",1502066986694
executed,command,org.eclipse.ui,3.104.0.v20121024-145224,"org.eclipse.ui.edit.undo",1502066989757
executed,command,org.eclipse.ui,3.104.0.v20121024-145224,"org.eclipse.ui.edit.undo",1502066990134
executed,command,org.eclipse.ui,3.104.0.v20121024-145224,"org.eclipse.ui.edit.undo",1502066990646
executed,command,org.eclipse.ui,3.104.0.v20121024-145224,"org.eclipse.ui.edit.undo",1502066991090
executed,command,org.eclipse.ui,3.104.0.v20121024-145224,"org.eclipse.ui.edit.copy",1502066994560
deactivated,workbench,org.eclipse.ui.workbench,3.104.0.v20130204-164612,"",1502067006850
activated,workbench,org.eclipse.ui.workbench,3.104.0.v20130204-164612,"",1502067012396
executed,command,org.eclipse.ui,3.104.0.v20121024-145224,"org.eclipse.ui.edit.copy",1502067068658
executed,command,org.eclipse.ui,3.104.0.v20121024-145224,"org.eclipse.ui.edit.copy",1502067115986
executed,command,org.eclipse.ui,3.104.0.v20121024-145224,"org.eclipse.ui.edit.paste",1502067118880
executed,command,org.eclipse.ui,3.104.0.v20121024-145224,"org.eclipse.ui.edit.copy",1502067121897
executed,command,org.eclipse.ui,3.104.0.v20121024-145224,"org.eclipse.ui.edit.paste",1502067125586
executed,command,org.eclipse.ui,3.104.0.v20121024-145224,"org.eclipse.ui.edit.undo",1502067127188
executed,command,org.eclipse.ui,3.104.0.v20121024-145224,"org.eclipse.ui.edit.paste",1502067128404
executed,command,org.eclipse.ui.workbench.texteditor,3.8.0.v20120523-1310,"org.eclipse.ui.edit.text.delete.line",1502067138637
executed,command,org.eclipse.ui,3.104.0.v20121024-145224,"org.eclipse.ui.edit.undo",1502067142896
executed,command,org.eclipse.ui.workbench.texteditor,3.8.0.v20120523-1310,"org.eclipse.ui.edit.text.delete.line",1502067152527
activated,editor,org.eclipse.jdt.ui,3.8.2.v20130107-165834,"org.eclipse.jdt.ui.CompilationUnitEditor",1502067160819
executed,command,org.eclipse.ui,3.104.0.v20121024-145224,"org.eclipse.ui.file.save",1502067169115
activated,view,org.eclipse.ui.navigator.resources,3.4.400.v20120705-114010,"org.eclipse.ui.navigator.ProjectExplorer",1502067170796
activated,editor,org.eclipse.jdt.ui,3.8.2.v20130107-165834,"org.eclipse.jdt.ui.CompilationUnitEditor",1502067171223
executed,command,org.eclipse.ui,3.104.0.v20121024-145224,"org.eclipse.ui.file.save",1502067189544
executed,command,org.eclipse.ui,3.104.0.v20121024-145224,"org.eclipse.ui.edit.delete",1502067195428
executed,command,org.eclipse.ui,3.104.0.v20121024-145224,"org.eclipse.ui.edit.delete",1502067195566
executed,command,org.eclipse.ui,3.104.0.v20121024-145224,"org.eclipse.ui.file.save",1502067196011
executed,command,org.eclipse.ui,3.104.0.v20121024-145224,"org.eclipse.ui.edit.copy",1502067203697
executed,command,org.eclipse.ui,3.104.0.v20121024-145224,"org.eclipse.ui.edit.paste",1502067206211
executed,command,org.eclipse.ui,3.104.0.v20121024-145224,"org.eclipse.ui.file.save",1502067206574
executed,command,org.eclipse.ui,3.104.0.v20121024-145224,"org.eclipse.ui.edit.copy",1502067242004
executed,command,org.eclipse.ui,3.104.0.v20121024-145224,"org.eclipse.ui.edit.paste",1502067243207
executed,command,org.eclipse.ui,3.104.0.v20121024-145224,"org.eclipse.ui.edit.copy",1502067259539
executed,command,org.eclipse.ui,3.104.0.v20121024-145224,"org.eclipse.ui.edit.copy",1502067264114
executed,command,org.eclipse.ui,3.104.0.v20121024-145224,"org.eclipse.ui.edit.paste",1502067266693
executed,command,org.eclipse.ui,3.104.0.v20121024-145224,"org.eclipse.ui.edit.copy",1502067279335
executed,command,org.eclipse.ui,3.104.0.v20121024-145224,"org.eclipse.ui.edit.paste",1502067281790
executed,command,org.eclipse.ui,3.104.0.v20121024-145224,"org.eclipse.ui.edit.copy",1502067291470
executed,command,org.eclipse.ui,3.104.0.v20121024-145224,"org.eclipse.ui.edit.paste",1502067292942
executed,command,org.eclipse.ui,3.104.0.v20121024-145224,"org.eclipse.ui.edit.copy",1502067301027
executed,command,org.eclipse.ui,3.104.0.v20121024-145224,"org.eclipse.ui.edit.paste",1502067304980
executed,command,org.eclipse.ui,3.104.0.v20121024-145224,"org.eclipse.ui.file.save",1502067317529
executed,command,org.eclipse.ui,3.104.0.v20121024-145224,"org.eclipse.ui.edit.paste",1502067322454
executed,command,org.eclipse.ui,3.104.0.v20121024-145224,"org.eclipse.ui.edit.copy",1502067326114
executed,command,org.eclipse.ui,3.104.0.v20121024-145224,"org.eclipse.ui.edit.paste",1502067327815
executed,command,org.eclipse.ui,3.104.0.v20121024-145224,"org.eclipse.ui.edit.paste",1502067340879
executed,command,org.eclipse.ui,3.104.0.v20121024-145224,"org.eclipse.ui.edit.undo",1502067341705
executed,command,org.eclipse.ui,3.104.0.v20121024-145224,"org.eclipse.ui.edit.paste",1502067343948
executed,command,org.eclipse.ui,3.104.0.v20121024-145224,"org.eclipse.ui.edit.copy",1502067348299
executed,command,org.eclipse.ui,3.104.0.v20121024-145224,"org.eclipse.ui.edit.copy",1502067351541
executed,command,org.eclipse.ui,3.104.0.v20121024-145224,"org.eclipse.ui.edit.paste",1502067352911
executed,command,org.eclipse.ui,3.104.0.v20121024-145224,"org.eclipse.ui.file.save",1502067372045
executed,command,org.eclipse.ui,3.104.0.v20121024-145224,"org.eclipse.ui.edit.copy",1502067379900
executed,command,org.eclipse.ui,3.104.0.v20121024-145224,"org.eclipse.ui.edit.paste",1502067382565
executed,command,org.eclipse.ui,3.104.0.v20121024-145224,"org.eclipse.ui.edit.copy",1502067384678
executed,command,org.eclipse.ui,3.104.0.v20121024-145224,"org.eclipse.ui.edit.paste",1502067386477
executed,command,org.eclipse.ui,3.104.0.v20121024-145224,"org.eclipse.ui.edit.copy",1502067402157
executed,command,org.eclipse.ui,3.104.0.v20121024-145224,"org.eclipse.ui.edit.paste",1502067403429
executed,command,org.eclipse.ui,3.104.0.v20121024-145224,"org.eclipse.ui.edit.copy",1502067409812
executed,command,org.eclipse.ui,3.104.0.v20121024-145224,"org.eclipse.ui.edit.paste",1502067411124
executed,command,org.eclipse.ui,3.104.0.v20121024-145224,"org.eclipse.ui.edit.copy",1502067415786
executed,command,org.eclipse.ui,3.104.0.v20121024-145224,"org.eclipse.ui.edit.paste",1502067418113
executed,command,org.eclipse.ui,3.104.0.v20121024-145224,"org.eclipse.ui.edit.copy",1502067439505
executed,command,org.eclipse.ui,3.104.0.v20121024-145224,"org.eclipse.ui.edit.paste",1502067448495
deactivated,workbench,org.eclipse.ui.workbench,3.104.0.v20130204-164612,"",1502067462201
activated,workbench,org.eclipse.ui.workbench,3.104.0.v20130204-164612,"",1502067464087
executed,command,org.eclipse.ui,3.104.0.v20121024-145224,"org.eclipse.ui.edit.undo",1502067465773
executed,command,org.eclipse.ui,3.104.0.v20121024-145224,"org.eclipse.ui.file.save",1502067468948
executed,command,org.eclipse.ui,3.104.0.v20121024-145224,"org.eclipse.ui.edit.copy",1502067509127
executed,command,org.eclipse.ui,3.104.0.v20121024-145224,"org.eclipse.ui.edit.paste",1502067511110
executed,command,org.eclipse.ui,3.104.0.v20121024-145224,"org.eclipse.ui.file.save",1502067514314
executed,command,org.eclipse.ui,3.104.0.v20121024-145224,"org.eclipse.ui.edit.undo",1502067518025
executed,command,org.eclipse.ui,3.104.0.v20121024-145224,"org.eclipse.ui.edit.undo",1502067518389
executed,command,org.eclipse.ui,3.104.0.v20121024-145224,"org.eclipse.ui.edit.undo",1502067518957
executed,command,org.eclipse.ui,3.104.0.v20121024-145224,"org.eclipse.ui.edit.undo",1502067523106
executed,command,org.eclipse.ui,3.104.0.v20121024-145224,"org.eclipse.ui.edit.undo",1502067523571
executed,command,org.eclipse.ui,3.104.0.v20121024-145224,"org.eclipse.ui.edit.undo",1502067524035
executed,command,org.eclipse.ui,3.104.0.v20121024-145224,"org.eclipse.ui.edit.copy",1502067529661
executed,command,org.eclipse.ui,3.104.0.v20121024-145224,"org.eclipse.ui.edit.paste",1502067531742
executed,command,org.eclipse.ui,3.104.0.v20121024-145224,"org.eclipse.ui.edit.copy",1502067535284
executed,command,org.eclipse.ui,3.104.0.v20121024-145224,"org.eclipse.ui.edit.paste",1502067537953
executed,command,org.eclipse.ui,3.104.0.v20121024-145224,"org.eclipse.ui.edit.copy",1502067552844
executed,command,org.eclipse.ui,3.104.0.v20121024-145224,"org.eclipse.ui.edit.paste",1502067554446
executed,command,org.eclipse.ui,3.104.0.v20121024-145224,"org.eclipse.ui.file.save",1502067563090
executed,command,org.eclipse.ui,3.104.0.v20121024-145224,"org.eclipse.ui.edit.copy",1502067587995
executed,command,org.eclipse.ui,3.104.0.v20121024-145224,"org.eclipse.ui.edit.paste",1502067590114
executed,command,org.eclipse.ui.workbench.texteditor,3.8.0.v20120523-1310,"org.eclipse.ui.edit.text.delete.line",1502067591618
executed,command,org.eclipse.ui.workbench.texteditor,3.8.0.v20120523-1310,"org.eclipse.ui.edit.text.delete.line",1502067592491
executed,command,org.eclipse.ui.workbench.texteditor,3.8.0.v20120523-1310,"org.eclipse.ui.edit.text.delete.line",1502067593198
