what,kind,bundleId,bundleVersion,description,time
deactivated,workbench,org.eclipse.ui.workbench,3.104.0.v20130204-164612,"",1508206351415
activated,view,org.eclipse.search,3.8.0.v20120523-1540,"org.eclipse.search.ui.views.SearchView",1508206356639
activated,workbench,org.eclipse.ui.workbench,3.104.0.v20130204-164612,"",1508206356670
executed,command,org.eclipse.search,3.8.0.v20120523-1540,"org.eclipse.search.ui.openSearchDialog",1508206356717
deactivated,workbench,org.eclipse.ui.workbench,3.104.0.v20130204-164612,"",1508206357108
activated,workbench,org.eclipse.ui.workbench,3.104.0.v20130204-164612,"",1508206357346
activated,editor,com.adobe.flexbuilder.as.editor,4.7.0.349722,"com.adobe.flexbuilder.editors.actionscript.ActionScriptEditor",1508206363661
activated,view,org.eclipse.search,3.8.0.v20120523-1540,"org.eclipse.search.ui.views.SearchView",1508206372640
activated,editor,com.adobe.flexbuilder.as.editor,4.7.0.349722,"com.adobe.flexbuilder.editors.actionscript.ActionScriptEditor",1508206373031
activated,view,org.eclipse.search,3.8.0.v20120523-1540,"org.eclipse.search.ui.views.SearchView",1508206381067
activated,editor,com.adobe.flexbuilder.as.editor,4.7.0.349722,"com.adobe.flexbuilder.editors.actionscript.ActionScriptEditor",1508206381458
activated,view,org.eclipse.search,3.8.0.v20120523-1540,"org.eclipse.search.ui.views.SearchView",1508206408498
activated,editor,org.eclipse.jdt.ui,3.8.2.v20130107-165834,"org.eclipse.jdt.ui.CompilationUnitEditor",1508206408873
activated,view,org.eclipse.search,3.8.0.v20120523-1540,"org.eclipse.search.ui.views.SearchView",1508206411163
activated,editor,org.eclipse.jdt.ui,3.8.2.v20130107-165834,"org.eclipse.jdt.ui.CompilationUnitEditor",1508206411819
executed,command,org.eclipse.ui,3.104.0.v20121024-145224,"org.eclipse.ui.edit.copy",1508206430299
deactivated,workbench,org.eclipse.ui.workbench,3.104.0.v20130204-164612,"",1508206430553
executed,command,org.eclipse.ui,3.104.0.v20121024-145224,"org.eclipse.ui.edit.findReplace",1508206430588
executed,command,org.eclipse.ui,3.104.0.v20121024-145224,"org.eclipse.ui.edit.paste",1508206431572
activated,workbench,org.eclipse.ui.workbench,3.104.0.v20130204-164612,"",1508206446010
activated,view,org.eclipse.search,3.8.0.v20120523-1540,"org.eclipse.search.ui.views.SearchView",1508206446026
activated,editor,com.adobe.flexbuilder.as.editor,4.7.0.349722,"com.adobe.flexbuilder.editors.actionscript.ActionScriptEditor",1508206446292
executed,command,org.eclipse.ui,3.104.0.v20121024-145224,"org.eclipse.ui.edit.copy",1508206457883
deactivated,workbench,org.eclipse.ui.workbench,3.104.0.v20130204-164612,"",1508206458743
activated,view,org.eclipse.search,3.8.0.v20120523-1540,"org.eclipse.search.ui.views.SearchView",1508206460762
activated,workbench,org.eclipse.ui.workbench,3.104.0.v20130204-164612,"",1508206460793
executed,command,org.eclipse.search,3.8.0.v20120523-1540,"org.eclipse.search.ui.openSearchDialog",1508206460824
deactivated,workbench,org.eclipse.ui.workbench,3.104.0.v20130204-164612,"",1508206461340
activated,workbench,org.eclipse.ui.workbench,3.104.0.v20130204-164612,"",1508206461481
closed,editor,com.adobe.flexbuilder.as.editor,4.7.0.349722,"com.adobe.flexbuilder.editors.actionscript.ActionScriptEditor",1508206472356
opened,editor,org.eclipse.jdt.ui,3.8.2.v20130107-165834,"org.eclipse.jdt.ui.CompilationUnitEditor",1508206472543
activated,view,org.eclipse.ui.navigator.resources,3.4.400.v20120705-114010,"org.eclipse.ui.navigator.ProjectExplorer",1508206484283
opened,editor,org.eclipse.jdt.ui,3.8.2.v20130107-165834,"org.eclipse.jdt.ui.CompilationUnitEditor",1508206484689
activated,editor,org.eclipse.jdt.ui,3.8.2.v20130107-165834,"org.eclipse.jdt.ui.CompilationUnitEditor",1508206484830
deactivated,workbench,org.eclipse.ui.workbench,3.104.0.v20130204-164612,"",1508206525185
activated,workbench,org.eclipse.ui.workbench,3.104.0.v20130204-164612,"",1508207025444
activated,view,org.eclipse.search,3.8.0.v20120523-1540,"org.eclipse.search.ui.views.SearchView",1508207116272
closed,editor,org.eclipse.jdt.ui,3.8.2.v20130107-165834,"org.eclipse.jdt.ui.CompilationUnitEditor",1508207116476
opened,editor,com.adobe.flexbuilder.as.editor,4.7.0.349722,"com.adobe.flexbuilder.editors.actionscript.ActionScriptEditor",1508207116575
activated,editor,com.adobe.flexbuilder.as.editor,4.7.0.349722,"com.adobe.flexbuilder.editors.actionscript.ActionScriptEditor",1508207116794
executed,command,org.eclipse.ui,3.104.0.v20121024-145224,"org.eclipse.ui.edit.copy",1508207122511
executed,command,org.eclipse.ui,3.104.0.v20121024-145224,"org.eclipse.ui.edit.paste",1508207127300
deactivated,workbench,org.eclipse.ui.workbench,3.104.0.v20130204-164612,"",1508207139197
activated,workbench,org.eclipse.ui.workbench,3.104.0.v20130204-164612,"",1508207139681
executed,command,org.eclipse.ui,3.104.0.v20121024-145224,"org.eclipse.ui.file.save",1508207141260
deactivated,workbench,org.eclipse.ui.workbench,3.104.0.v20130204-164612,"",1508207142525
started,bundle,com.adobe.flexbuilder.flexunit,4.7.0.349722,"com.adobe.flexbuilder.flexunit",1508207148433
started,bundle,org.eclipse.m2e.launching,1.4.0.20130601-0317,"org.eclipse.m2e.launching",1508207148589
started,bundle,com.adobe.flexbuilder.launching.ui,4.7.0.349722,"com.adobe.flexbuilder.launching.ui",1508207148605
activated,workbench,org.eclipse.ui.workbench,3.104.0.v20130204-164612,"",1508207148730
activated,editor,com.adobe.flexbuilder.as.editor,4.7.0.349722,"com.adobe.flexbuilder.editors.actionscript.ActionScriptEditor",1508207148745
activated,view,org.eclipse.ui.navigator.resources,3.4.400.v20120705-114010,"org.eclipse.ui.navigator.ProjectExplorer",1508207173554
activated,editor,org.eclipse.jdt.ui,3.8.2.v20130107-165834,"org.eclipse.jdt.ui.CompilationUnitEditor",1508207173898
executed,command,org.eclipse.ui,3.104.0.v20121024-145224,"org.eclipse.ui.edit.copy",1508207204087
deactivated,workbench,org.eclipse.ui.workbench,3.104.0.v20130204-164612,"",1508207204556
activated,view,org.eclipse.search,3.8.0.v20120523-1540,"org.eclipse.search.ui.views.SearchView",1508207210617
activated,workbench,org.eclipse.ui.workbench,3.104.0.v20130204-164612,"",1508207210648
executed,command,org.eclipse.search,3.8.0.v20120523-1540,"org.eclipse.search.ui.openSearchDialog",1508207210695
deactivated,workbench,org.eclipse.ui.workbench,3.104.0.v20130204-164612,"",1508207211081
activated,workbench,org.eclipse.ui.workbench,3.104.0.v20130204-164612,"",1508207211425
activated,editor,com.adobe.flexbuilder.as.editor,4.7.0.349722,"com.adobe.flexbuilder.editors.actionscript.ActionScriptEditor",1508207265546
activated,view,org.eclipse.ui.navigator.resources,3.4.400.v20120705-114010,"org.eclipse.ui.navigator.ProjectExplorer",1508207328178
deactivated,workbench,org.eclipse.ui.workbench,3.104.0.v20130204-164612,"",1508207332429
activated,workbench,org.eclipse.ui.workbench,3.104.0.v20130204-164612,"",1508207376235
activated,editor,com.adobe.flexbuilder.as.editor,4.7.0.349722,"com.adobe.flexbuilder.editors.actionscript.ActionScriptEditor",1508207376273
activated,view,org.eclipse.ui.navigator.resources,3.4.400.v20120705-114010,"org.eclipse.ui.navigator.ProjectExplorer",1508207384805
activated,editor,com.adobe.flexbuilder.as.editor,4.7.0.349722,"com.adobe.flexbuilder.editors.actionscript.ActionScriptEditor",1508207398069
deactivated,workbench,org.eclipse.ui.workbench,3.104.0.v20130204-164612,"",1508207407339
activated,view,org.eclipse.search,3.8.0.v20120523-1540,"org.eclipse.search.ui.views.SearchView",1508207410367
activated,workbench,org.eclipse.ui.workbench,3.104.0.v20130204-164612,"",1508207410398
executed,command,org.eclipse.search,3.8.0.v20120523-1540,"org.eclipse.search.ui.openSearchDialog",1508207410429
deactivated,workbench,org.eclipse.ui.workbench,3.104.0.v20130204-164612,"",1508207410961
activated,workbench,org.eclipse.ui.workbench,3.104.0.v20130204-164612,"",1508207411381
activated,editor,com.adobe.flexbuilder.as.editor,4.7.0.349722,"com.adobe.flexbuilder.editors.actionscript.ActionScriptEditor",1508207449694
activated,view,org.eclipse.search,3.8.0.v20120523-1540,"org.eclipse.search.ui.views.SearchView",1508207487891
activated,editor,com.adobe.flexbuilder.as.editor,4.7.0.349722,"com.adobe.flexbuilder.editors.actionscript.ActionScriptEditor",1508207488281
activated,editor,com.adobe.flexbuilder.mxml.editor,4.7.0.349722,"com.adobe.flexbuilder.editors.mxml.MXMLEditor",1508207536685
executed,command,org.eclipse.ui,3.104.0.v20121024-145224,"org.eclipse.ui.edit.copy",1508207544413
deactivated,workbench,org.eclipse.ui.workbench,3.104.0.v20130204-164612,"",1508207544773
activated,view,org.eclipse.search,3.8.0.v20120523-1540,"org.eclipse.search.ui.views.SearchView",1508207546292
activated,workbench,org.eclipse.ui.workbench,3.104.0.v20130204-164612,"",1508207546323
executed,command,org.eclipse.search,3.8.0.v20120523-1540,"org.eclipse.search.ui.openSearchDialog",1508207546355
deactivated,workbench,org.eclipse.ui.workbench,3.104.0.v20130204-164612,"",1508207546745
activated,workbench,org.eclipse.ui.workbench,3.104.0.v20130204-164612,"",1508207547073
activated,editor,com.adobe.flexbuilder.as.editor,4.7.0.349722,"com.adobe.flexbuilder.editors.actionscript.ActionScriptEditor",1508207553225
executed,command,org.eclipse.ui,3.104.0.v20121024-145224,"org.eclipse.ui.edit.copy",1508207573760
executed,command,org.eclipse.ui,3.104.0.v20121024-145224,"org.eclipse.ui.edit.copy",1508207574670
executed,command,org.eclipse.ui,3.104.0.v20121024-145224,"org.eclipse.ui.edit.copy",1508207587879
deactivated,workbench,org.eclipse.ui.workbench,3.104.0.v20130204-164612,"",1508207588107
executed,command,org.eclipse.ui,3.104.0.v20121024-145224,"org.eclipse.ui.edit.findReplace",1508207588122
activated,workbench,org.eclipse.ui.workbench,3.104.0.v20130204-164612,"",1508207592681
activated,editor,com.adobe.flexbuilder.as.editor,4.7.0.349722,"com.adobe.flexbuilder.editors.actionscript.ActionScriptEditor",1508207592696
deactivated,workbench,org.eclipse.ui.workbench,3.104.0.v20130204-164612,"",1508207605303
activated,workbench,org.eclipse.ui.workbench,3.104.0.v20130204-164612,"",1508207605489
activated,view,org.eclipse.search,3.8.0.v20120523-1540,"org.eclipse.search.ui.views.SearchView",1508207609504
activated,editor,com.adobe.flexbuilder.mxml.editor,4.7.0.349722,"com.adobe.flexbuilder.editors.mxml.MXMLEditor",1508207609770
deactivated,workbench,org.eclipse.ui.workbench,3.104.0.v20130204-164612,"",1508207767750
activated,workbench,org.eclipse.ui.workbench,3.104.0.v20130204-164612,"",1508207914396
activated,view,org.eclipse.search,3.8.0.v20120523-1540,"org.eclipse.search.ui.views.SearchView",1508207914412
activated,editor,com.adobe.flexbuilder.as.editor,4.7.0.349722,"com.adobe.flexbuilder.editors.actionscript.ActionScriptEditor",1508207916249
activated,view,org.eclipse.search,3.8.0.v20120523-1540,"org.eclipse.search.ui.views.SearchView",1508207919030
activated,editor,com.adobe.flexbuilder.as.editor,4.7.0.349722,"com.adobe.flexbuilder.editors.actionscript.ActionScriptEditor",1508207919311
executed,command,org.eclipse.ui,3.104.0.v20121024-145224,"org.eclipse.ui.edit.copy",1508207923192
deactivated,workbench,org.eclipse.ui.workbench,3.104.0.v20130204-164612,"",1508207923880
activated,workbench,org.eclipse.ui.workbench,3.104.0.v20130204-164612,"",1508207938438
deactivated,workbench,org.eclipse.ui.workbench,3.104.0.v20130204-164612,"",1508207948796
activated,view,org.eclipse.search,3.8.0.v20120523-1540,"org.eclipse.search.ui.views.SearchView",1508207953170
activated,workbench,org.eclipse.ui.workbench,3.104.0.v20130204-164612,"",1508207953201
executed,command,org.eclipse.search,3.8.0.v20120523-1540,"org.eclipse.search.ui.openSearchDialog",1508207953233
deactivated,workbench,org.eclipse.ui.workbench,3.104.0.v20130204-164612,"",1508207953771
activated,workbench,org.eclipse.ui.workbench,3.104.0.v20130204-164612,"",1508207953927
activated,editor,org.eclipse.jdt.ui,3.8.2.v20130107-165834,"org.eclipse.jdt.ui.CompilationUnitEditor",1508207965906
executed,command,org.eclipse.ui,3.104.0.v20121024-145224,"org.eclipse.ui.edit.copy",1508207969411
deactivated,workbench,org.eclipse.ui.workbench,3.104.0.v20130204-164612,"",1508207969825
executed,command,org.eclipse.ui,3.104.0.v20121024-145224,"org.eclipse.ui.edit.paste",1508207973314
activated,view,org.eclipse.search,3.8.0.v20120523-1540,"org.eclipse.search.ui.views.SearchView",1508207974393
activated,workbench,org.eclipse.ui.workbench,3.104.0.v20130204-164612,"",1508207974424
executed,command,org.eclipse.search,3.8.0.v20120523-1540,"org.eclipse.search.ui.openSearchDialog",1508207974455
deactivated,workbench,org.eclipse.ui.workbench,3.104.0.v20130204-164612,"",1508207974846
activated,workbench,org.eclipse.ui.workbench,3.104.0.v20130204-164612,"",1508207975196
activated,editor,com.adobe.flexbuilder.as.editor,4.7.0.349722,"com.adobe.flexbuilder.editors.actionscript.ActionScriptEditor",1508207983927
executed,command,org.eclipse.ui,3.104.0.v20121024-145224,"org.eclipse.ui.edit.copy",1508207988642
deactivated,workbench,org.eclipse.ui.workbench,3.104.0.v20130204-164612,"",1508207989267
activated,workbench,org.eclipse.ui.workbench,3.104.0.v20130204-164612,"",1508208014739
deactivated,workbench,org.eclipse.ui.workbench,3.104.0.v20130204-164612,"",1508208060194
activated,workbench,org.eclipse.ui.workbench,3.104.0.v20130204-164612,"",1508208070951
executed,command,org.eclipse.ui,3.104.0.v20121024-145224,"org.eclipse.ui.edit.copy",1508208123897
deactivated,workbench,org.eclipse.ui.workbench,3.104.0.v20130204-164612,"",1508208124225
activated,view,org.eclipse.search,3.8.0.v20120523-1540,"org.eclipse.search.ui.views.SearchView",1508208126112
activated,workbench,org.eclipse.ui.workbench,3.104.0.v20130204-164612,"",1508208126237
executed,command,org.eclipse.search,3.8.0.v20120523-1540,"org.eclipse.search.ui.openSearchDialog",1508208126284
deactivated,workbench,org.eclipse.ui.workbench,3.104.0.v20130204-164612,"",1508208126691
activated,workbench,org.eclipse.ui.workbench,3.104.0.v20130204-164612,"",1508208127035
closed,editor,com.adobe.flexbuilder.as.editor,4.7.0.349722,"com.adobe.flexbuilder.editors.actionscript.ActionScriptEditor",1508208143614
opened,editor,com.adobe.flexbuilder.mxml.editor,4.7.0.349722,"com.adobe.flexbuilder.editors.mxml.MXMLEditor",1508208143848
activated,editor,com.adobe.flexbuilder.mxml.editor,4.7.0.349722,"com.adobe.flexbuilder.editors.mxml.MXMLEditor",1508208144239
deactivated,workbench,org.eclipse.ui.workbench,3.104.0.v20130204-164612,"",1508208154265
activated,workbench,org.eclipse.ui.workbench,3.104.0.v20130204-164612,"",1508208299677
activated,view,org.eclipse.ui.navigator.resources,3.4.400.v20120705-114010,"org.eclipse.ui.navigator.ProjectExplorer",1508208310702
activated,editor,org.eclipse.jdt.ui,3.8.2.v20130107-165834,"org.eclipse.jdt.ui.CompilationUnitEditor",1508208311061
deactivated,workbench,org.eclipse.ui.workbench,3.104.0.v20130204-164612,"",1508208336444
activated,workbench,org.eclipse.ui.workbench,3.104.0.v20130204-164612,"",1508209031911
activated,view,org.eclipse.ui.navigator.resources,3.4.400.v20120705-114010,"org.eclipse.ui.navigator.ProjectExplorer",1508209031926
activated,editor,org.eclipse.jdt.ui,3.8.2.v20130107-165834,"org.eclipse.jdt.ui.CompilationUnitEditor",1508209040233
deactivated,workbench,org.eclipse.ui.workbench,3.104.0.v20130204-164612,"",1508209067548
activated,workbench,org.eclipse.ui.workbench,3.104.0.v20130204-164612,"",1508209569354
deactivated,workbench,org.eclipse.ui.workbench,3.104.0.v20130204-164612,"",1508209572410
activated,workbench,org.eclipse.ui.workbench,3.104.0.v20130204-164612,"",1508227591247
executed,command,org.eclipse.ui,3.104.0.v20121024-145224,"org.eclipse.ui.edit.copy",1508227593861
executed,command,org.eclipse.ui,3.104.0.v20121024-145224,"org.eclipse.ui.edit.paste",1508227597290
executed,command,org.eclipse.ui,3.104.0.v20121024-145224,"org.eclipse.ui.edit.cut",1508227631099
executed,command,org.eclipse.ui,3.104.0.v20121024-145224,"org.eclipse.ui.edit.paste",1508227634181
executed,command,org.eclipse.ui,3.104.0.v20121024-145224,"org.eclipse.ui.file.save",1508227635016
executed,command,org.eclipse.ui.workbench.texteditor,3.8.0.v20120523-1310,"org.eclipse.ui.edit.text.delete.line",1508227636741
executed,command,org.eclipse.ui,3.104.0.v20121024-145224,"org.eclipse.ui.file.save",1508227636959
activated,view,org.eclipse.ui.navigator.resources,3.4.400.v20120705-114010,"org.eclipse.ui.navigator.ProjectExplorer",1508227643416
opened,editor,org.eclipse.jdt.ui,3.8.2.v20130107-165834,"org.eclipse.jdt.ui.CompilationUnitEditor",1508227643713
activated,editor,org.eclipse.jdt.ui,3.8.2.v20130107-165834,"org.eclipse.jdt.ui.CompilationUnitEditor",1508227643838
executed,command,org.eclipse.ui,3.104.0.v20121024-145224,"org.eclipse.ui.file.save",1508227658511
executed,command,org.eclipse.jdt.ui,3.8.2.v20130107-165834,"org.eclipse.jdt.ui.edit.text.java.organize.imports",1508227660668
activated,view,org.eclipse.ui.navigator.resources,3.4.400.v20120705-114010,"org.eclipse.ui.navigator.ProjectExplorer",1508227667515
started,bundle,org.eclipse.wst.ws.service.policy.ui,1.0.400.v201201111717,"org.eclipse.wst.ws.service.policy.ui",1508227667885
started,bundle,org.eclipse.wst.ws.service.policy,1.0.303.v201009221810,"org.eclipse.wst.ws.service.policy",1508227667885
started,bundle,org.eclipse.wst.command.env,1.0.409.v201004211805,"org.eclipse.wst.command.env",1508227667901
started,bundle,org.eclipse.wst.ws,1.1.300.v201204181727,"org.eclipse.wst.ws",1508227667901
started,bundle,org.granite.builder,2.2.0.SP2,"org.granite.builder",1508227670034
started,bundle,org.eclipse.m2e.wtp.jpa,1.0.0.e42-20130613-0136,"org.eclipse.m2e.wtp.jpa",1508227672902
started,bundle,org.eclipse.jpt.common.core,1.2.2.v201301082148,"org.eclipse.jpt.common.core",1508227672902
started,bundle,org.eclipse.jpt.jpa.core,3.2.2.v201301092252,"org.eclipse.jpt.jpa.core",1508227672918
started,bundle,org.jboss.tools.maven.apt.core,1.0.1.201209200721,"org.jboss.tools.maven.apt.core",1508227672918
deactivated,workbench,org.eclipse.ui.workbench,3.104.0.v20130204-164612,"",1508227678149
activated,workbench,org.eclipse.ui.workbench,3.104.0.v20130204-164612,"",1508227679540
executed,command,org.eclipse.ui.ide,3.8.2.v20121106-165923,"org.eclipse.ui.project.cleanAction",1508227679571
started,bundle,org.eclipse.wst.wsdl.validation,1.1.600.v201203081939,"org.eclipse.wst.wsdl.validation",1508227679618
deactivated,workbench,org.eclipse.ui.workbench,3.104.0.v20130204-164612,"",1508227679868
started,bundle,org.eclipse.jst.jsf.common,1.3.0.v201301161500,"org.eclipse.jst.jsf.common",1508227679977
started,bundle,org.eclipse.jst.jsf.core,1.5.0.v201301161500,"org.eclipse.jst.jsf.core",1508227679977
started,bundle,org.eclipse.jst.jsf.ui,1.4.0.v201301161500,"org.eclipse.jst.jsf.ui",1508227680993
started,bundle,org.eclipse.m2e.wtp.jaxrs,1.0.0.20130613-0136,"org.eclipse.m2e.wtp.jaxrs",1508227681118
started,bundle,org.eclipse.m2e.wtp.jsf,1.0.0.20130613-0136,"org.eclipse.m2e.wtp.jsf",1508227681118
activated,workbench,org.eclipse.ui.workbench,3.104.0.v20130204-164612,"",1508227681696
activated,view,org.eclipse.ui.navigator.resources,3.4.400.v20120705-114010,"org.eclipse.ui.navigator.ProjectExplorer",1508227682214
deactivated,workbench,org.eclipse.ui.workbench,3.104.0.v20130204-164612,"",1508227682901
opened,view,org.eclipse.ui.console,3.5.100.v20120521-2012,"org.eclipse.ui.console.ConsoleView",1508227686624
started,bundle,org.eclipse.wst.css.core,1.1.602.v201210091733,"org.eclipse.wst.css.core",1508227709532
started,bundle,org.eclipse.jst.jsf.common.runtime,1.2.0.v201301161500,"org.eclipse.jst.jsf.common.runtime",1508227712583
started,bundle,org.eclipse.jst.jsf.facelet.core,1.1.0.v201301161500,"org.eclipse.jst.jsf.facelet.core",1508227712637
started,bundle,org.eclipse.wst.wsi.ui,1.0.502.v201104071820,"org.eclipse.wst.wsi.ui",1508227713476
started,bundle,org.eclipse.jdt.junit.core,3.7.100.v20120523-1257,"org.eclipse.jdt.junit.core",1508227768319
activated,workbench,org.eclipse.ui.workbench,3.104.0.v20130204-164612,"",1508227825489
activated,view,org.eclipse.search,3.8.0.v20120523-1540,"org.eclipse.search.ui.views.SearchView",1508227825505
activated,editor,com.adobe.flexbuilder.mxml.editor,4.7.0.349722,"com.adobe.flexbuilder.editors.mxml.MXMLEditor",1508227825992
opened,editor,com.adobe.flexbuilder.as.editor,4.7.0.349722,"com.adobe.flexbuilder.editors.actionscript.ActionScriptEditor",1508227829178
activated,editor,com.adobe.flexbuilder.as.editor,4.7.0.349722,"com.adobe.flexbuilder.editors.actionscript.ActionScriptEditor",1508227831251
executed,command,com.adobe.flexbuilder.as.editor,4.7.0.349722,"com.adobe.flexbuilder.as.editor.organize.imports",1508227849893
executed,command,org.eclipse.ui,3.104.0.v20121024-145224,"org.eclipse.ui.edit.copy",1508227853717
executed,command,org.eclipse.ui,3.104.0.v20121024-145224,"org.eclipse.ui.edit.paste",1508227854717
executed,command,org.eclipse.ui,3.104.0.v20121024-145224,"org.eclipse.ui.edit.copy",1508227861628
executed,command,org.eclipse.ui,3.104.0.v20121024-145224,"org.eclipse.ui.edit.paste",1508227862768
executed,command,org.eclipse.ui,3.104.0.v20121024-145224,"org.eclipse.ui.edit.copy",1508227869877
executed,command,org.eclipse.ui,3.104.0.v20121024-145224,"org.eclipse.ui.edit.paste",1508227871221
executed,command,org.eclipse.ui,3.104.0.v20121024-145224,"org.eclipse.ui.edit.copy",1508227877284
executed,command,org.eclipse.ui,3.104.0.v20121024-145224,"org.eclipse.ui.edit.paste",1508227877956
executed,command,org.eclipse.ui,3.104.0.v20121024-145224,"org.eclipse.ui.edit.copy",1508227880159
executed,command,org.eclipse.ui,3.104.0.v20121024-145224,"org.eclipse.ui.edit.paste",1508227881222
executed,command,org.eclipse.ui,3.104.0.v20121024-145224,"org.eclipse.ui.edit.paste",1508227884519
executed,command,org.eclipse.ui,3.104.0.v20121024-145224,"org.eclipse.ui.edit.copy",1508227886146
executed,command,org.eclipse.ui,3.104.0.v20121024-145224,"org.eclipse.ui.edit.paste",1508227887391
executed,command,org.eclipse.ui.workbench.texteditor,3.8.0.v20120523-1310,"org.eclipse.ui.edit.text.delete.line",1508227887750
executed,command,org.eclipse.ui,3.104.0.v20121024-145224,"org.eclipse.ui.edit.undo",1508227888828
executed,command,org.eclipse.ui,3.104.0.v20121024-145224,"org.eclipse.ui.file.save",1508227889203
activated,view,org.eclipse.search,3.8.0.v20120523-1540,"org.eclipse.search.ui.views.SearchView",1508227898331
opened,editor,com.adobe.flexbuilder.as.editor,4.7.0.349722,"com.adobe.flexbuilder.editors.actionscript.ActionScriptEditor",1508227898628
activated,editor,com.adobe.flexbuilder.as.editor,4.7.0.349722,"com.adobe.flexbuilder.editors.actionscript.ActionScriptEditor",1508227898737
executed,command,org.eclipse.ui,3.104.0.v20121024-145224,"org.eclipse.ui.file.save",1508227908926
activated,view,org.eclipse.search,3.8.0.v20120523-1540,"org.eclipse.search.ui.views.SearchView",1508227917709
started,bundle,com.adobe.flexide.multiplatform.ios,4.7.0.349722,"com.adobe.flexide.multiplatform.ios",1508227925894
started,bundle,com.adobe.flexide.launching.multiplatform,4.7.0.349722,"com.adobe.flexide.launching.multiplatform",1508227925909
started,bundle,com.adobe.flexide.multiplatform.android,4.7.0.349722,"com.adobe.flexide.multiplatform.android",1508227925909
activated,editor,com.adobe.flexbuilder.as.editor,4.7.0.349722,"com.adobe.flexbuilder.editors.actionscript.ActionScriptEditor",1508227928404
activated,view,org.eclipse.ui.navigator.resources,3.4.400.v20120705-114010,"org.eclipse.ui.navigator.ProjectExplorer",1508227930718
activated,editor,com.adobe.flexbuilder.as.editor,4.7.0.349722,"com.adobe.flexbuilder.editors.actionscript.ActionScriptEditor",1508227930952
executed,command,org.eclipse.ui,3.104.0.v20121024-145224,"org.eclipse.ui.file.refresh",1508227932124
executed,command,org.eclipse.ui,3.104.0.v20121024-145224,"org.eclipse.ui.file.refresh",1508227932426
activated,view,org.eclipse.search,3.8.0.v20120523-1540,"org.eclipse.search.ui.views.SearchView",1508227933598
activated,editor,com.adobe.flexbuilder.as.editor,4.7.0.349722,"com.adobe.flexbuilder.editors.actionscript.ActionScriptEditor",1508227939535
executed,command,com.adobe.flexbuilder.as.editor,4.7.0.349722,"com.adobe.flexbuilder.as.editor.organize.imports",1508227958062
started,bundle,org.eclipse.jpt.jpa.db,2.1.101.v201208222210,"org.eclipse.jpt.jpa.db",1508227958687
executed,command,org.eclipse.ui,3.104.0.v20121024-145224,"org.eclipse.ui.file.save",1508227958718
activated,editor,com.adobe.flexbuilder.as.editor,4.7.0.349722,"com.adobe.flexbuilder.editors.actionscript.ActionScriptEditor",1508228110991
activated,editor,com.adobe.flexbuilder.as.editor,4.7.0.349722,"com.adobe.flexbuilder.editors.actionscript.ActionScriptEditor",1508228118146
deactivated,workbench,org.eclipse.ui.workbench,3.104.0.v20130204-164612,"",1508228134277
activated,workbench,org.eclipse.ui.workbench,3.104.0.v20130204-164612,"",1508228135605
executed,command,org.eclipse.ui.ide,3.8.2.v20121106-165923,"org.eclipse.ui.project.cleanAction",1508228135637
deactivated,workbench,org.eclipse.ui.workbench,3.104.0.v20130204-164612,"",1508228135949
error,log,,,"Unhandled event loop exception",1508228153718
activated,workbench,org.eclipse.ui.workbench,3.104.0.v20130204-164612,"",1508228159050
activated,view,org.eclipse.search,3.8.0.v20120523-1540,"org.eclipse.search.ui.views.SearchView",1508228199159
activated,editor,com.adobe.flexbuilder.mxml.editor,4.7.0.349722,"com.adobe.flexbuilder.editors.mxml.MXMLEditor",1508228199424
executed,command,org.eclipse.ui,3.104.0.v20121024-145224,"org.eclipse.ui.file.save",1508228224661
activated,view,org.eclipse.search,3.8.0.v20120523-1540,"org.eclipse.search.ui.views.SearchView",1508228226585
closed,editor,com.adobe.flexbuilder.as.editor,4.7.0.349722,"com.adobe.flexbuilder.editors.actionscript.ActionScriptEditor",1508228226773
opened,editor,com.adobe.flexbuilder.mxml.editor,4.7.0.349722,"com.adobe.flexbuilder.editors.mxml.MXMLEditor",1508228229381
activated,editor,com.adobe.flexbuilder.mxml.editor,4.7.0.349722,"com.adobe.flexbuilder.editors.mxml.MXMLEditor",1508228229568
activated,view,org.eclipse.search,3.8.0.v20120523-1540,"org.eclipse.search.ui.views.SearchView",1508228238508
activated,editor,com.adobe.flexbuilder.mxml.editor,4.7.0.349722,"com.adobe.flexbuilder.editors.mxml.MXMLEditor",1508228238852
error,log,,,"Unhandled event loop exception",1508228239118
error,log,,,"Unhandled event loop exception",1508228239149
error,log,,,"Unhandled event loop exception",1508228239149
error,log,,,"Unhandled event loop exception",1508228239462
