what,kind,bundleId,bundleVersion,description,time
started,bundle,org.eclipse.rse.services,3.2.200.201211090626,"org.eclipse.rse.services",1509434528801
started,bundle,org.eclipse.rse.services.local,2.1.401.201302062104,"org.eclipse.rse.services.local",1509434528801
started,bundle,org.eclipse.rse.subsystems.files.core,3.3.1.201211140039,"org.eclipse.rse.subsystems.files.core",1509434528801
started,bundle,org.eclipse.rse.subsystems.files.local,2.1.300.201205062159,"org.eclipse.rse.subsystems.files.local",1509434528801
started,bundle,org.eclipse.rse.subsystems.shells.core,3.1.300.201205141739,"org.eclipse.rse.subsystems.shells.core",1509434528801
started,bundle,org.eclipse.rse.subsystems.shells.local,2.1.400.201205062159,"org.eclipse.rse.subsystems.shells.local",1509434528801
started,bundle,org.eclipse.rse.ui,3.3.3.201302122026,"org.eclipse.rse.ui",1509434528801
started,bundle,org.eclipse.search,3.8.0.v20120523-1540,"org.eclipse.search",1509434528801
started,bundle,org.eclipse.team.core,3.6.100.v20120524-0627,"org.eclipse.team.core",1509434528801
started,bundle,org.eclipse.team.ui,3.6.201.v20130125-135424,"org.eclipse.team.ui",1509434528817
started,bundle,org.eclipse.ui,3.104.0.v20121024-145224,"org.eclipse.ui",1509434528817
started,bundle,org.eclipse.ui.console,3.5.100.v20120521-2012,"org.eclipse.ui.console",1509434528817
started,bundle,org.eclipse.ui.editors,3.8.0.v20120523-1540,"org.eclipse.ui.editors",1509434528817
started,bundle,org.eclipse.ui.forms,3.5.200.v20120705-114351,"org.eclipse.ui.forms",1509434528817
started,bundle,org.eclipse.ui.ide,3.8.2.v20121106-165923,"org.eclipse.ui.ide",1509434528817
started,bundle,org.eclipse.ui.navigator,3.5.200.v20120705-114103,"org.eclipse.ui.navigator",1509434528817
started,bundle,org.eclipse.ui.navigator.resources,3.4.400.v20120705-114010,"org.eclipse.ui.navigator.resources",1509434528817
started,bundle,org.eclipse.ui.net,1.2.101.v20120914-093638,"org.eclipse.ui.net",1509434528817
started,bundle,org.eclipse.ui.trace,1.0.1.v20121204-224553,"org.eclipse.ui.trace",1509434528817
started,bundle,org.eclipse.ui.views,3.6.100.v20120705-114010,"org.eclipse.ui.views",1509434528817
started,bundle,org.eclipse.ui.workbench,3.104.0.v20130204-164612,"org.eclipse.ui.workbench",1509434528817
started,bundle,org.eclipse.ui.workbench.texteditor,3.8.0.v20120523-1310,"org.eclipse.ui.workbench.texteditor",1509434528817
started,bundle,org.eclipse.update.configurator,3.3.200.v20120912-144026,"org.eclipse.update.configurator",1509434528817
started,bundle,org.eclipse.wst.common.core,1.2.0.v200908252030,"org.eclipse.wst.common.core",1509434528817
started,bundle,org.eclipse.wst.common.emf,1.2.100.v201101101900,"org.eclipse.wst.common.emf",1509434528817
started,bundle,org.eclipse.wst.common.emfworkbench.integration,1.2.101.v201107140600,"org.eclipse.wst.common.emfworkbench.integration",1509434528817
started,bundle,org.eclipse.wst.common.frameworks,1.2.200.v201203141800,"org.eclipse.wst.common.frameworks",1509434528817
started,bundle,org.eclipse.wst.common.frameworks.ui,1.2.201.v201208292200,"org.eclipse.wst.common.frameworks.ui",1509434528817
started,bundle,org.eclipse.wst.common.modulecore,1.2.201.v201301092200,"org.eclipse.wst.common.modulecore",1509434528817
started,bundle,org.eclipse.wst.common.project.facet.core,1.4.300.v201111030424,"org.eclipse.wst.common.project.facet.core",1509434528817
started,bundle,org.eclipse.wst.common.ui,1.1.500.v200911190730,"org.eclipse.wst.common.ui",1509434528817
started,bundle,org.eclipse.wst.jsdt.core,1.1.202.v201208171701,"org.eclipse.wst.jsdt.core",1509434528817
started,bundle,org.eclipse.wst.jsdt.manipulation,1.0.400.v201204261600,"org.eclipse.wst.jsdt.manipulation",1509434528817
started,bundle,org.eclipse.wst.jsdt.ui,1.1.202.v201208171701,"org.eclipse.wst.jsdt.ui",1509434528817
started,bundle,org.eclipse.wst.server.core,1.4.100.v20130117_1140,"org.eclipse.wst.server.core",1509434528833
started,bundle,org.eclipse.wst.server.ui,1.4.100.v20121112_1718,"org.eclipse.wst.server.ui",1509434528833
started,bundle,org.eclipse.wst.sse.ui,1.3.102.v201301162301,"org.eclipse.wst.sse.ui",1509434528833
started,bundle,org.eclipse.wst.validation,1.2.402.v201212031633,"org.eclipse.wst.validation",1509434528833
started,bundle,org.eclipse.wst.web,1.1.600.v201204190200,"org.eclipse.wst.web",1509434528833
started,bundle,org.eclipse.wst.xml.core,1.1.702.v201301101836,"org.eclipse.wst.xml.core",1509434528833
started,bundle,org.eclipse.xsd,2.8.1.v20130125-0826,"org.eclipse.xsd",1509434528833
started,bundle,org.eclipse.m2e.core,1.4.0.20130601-0317,"org.eclipse.m2e.core",1509434528833
started,bundle,org.eclipse.m2e.jdt,1.4.0.20130601-0317,"org.eclipse.m2e.jdt",1509434528833
started,bundle,org.eclipse.m2e.logback.configuration,1.4.0.20130601-0317,"org.eclipse.m2e.logback.configuration",1509434528833
started,bundle,org.eclipse.m2e.wtp,1.0.0.20130613-0136,"org.eclipse.m2e.wtp",1509434528833
started,bundle,org.eclipse.m2e.wtp.overlay,1.0.0.20130613-0136,"org.eclipse.m2e.wtp.overlay",1509434528833
started,bundle,com.collabnet.subversion.merge,3.0.13,"com.collabnet.subversion.merge",1509434528833
started,bundle,org.tigris.subversion.clientadapter,1.8.6,"org.tigris.subversion.clientadapter",1509434528833
started,bundle,org.tigris.subversion.subclipse.core,1.8.22,"org.tigris.subversion.subclipse.core",1509434528833
started,bundle,org.tigris.subversion.subclipse.mylyn,3.0.0,"org.tigris.subversion.subclipse.mylyn",1509434528833
started,bundle,org.tigris.subversion.subclipse.tools.usage,1.1.0,"org.tigris.subversion.subclipse.tools.usage",1509434528833
started,bundle,org.tigris.subversion.subclipse.ui,1.8.21,"org.tigris.subversion.subclipse.ui",1509434528833
started,bundle,org.eclipse.egit.core,1.1.0.201109151100-r,"org.eclipse.egit.core",1509434528833
started,bundle,org.eclipse.egit.ui,1.1.0.201109151100-r,"org.eclipse.egit.ui",1509434528833
started,bundle,org.eclipse.epp.usagedata.gathering,1.3.1.R201106061540,"org.eclipse.epp.usagedata.gathering",1509434528833
started,bundle,org.eclipse.epp.usagedata.recording,1.3.1.R201106061540,"org.eclipse.epp.usagedata.recording",1509434528833
started,bundle,org.eclipse.jgit,1.1.0.201109151100-r,"org.eclipse.jgit",1509434528833
started,bundle,org.eclipse.mylyn.bugzilla.core,3.6.2.v20110903-0100,"org.eclipse.mylyn.bugzilla.core",1509434528833
started,bundle,org.eclipse.mylyn.bugzilla.ui,3.6.0.v20110608-1400,"org.eclipse.mylyn.bugzilla.ui",1509434528833
started,bundle,org.eclipse.mylyn.commons.identity,0.8.0.v20110608-1400,"org.eclipse.mylyn.commons.identity",1509434528833
started,bundle,org.eclipse.mylyn.commons.net,3.6.0.v20110608-1400,"org.eclipse.mylyn.commons.net",1509434528833
started,bundle,org.eclipse.mylyn.commons.ui,3.6.1.v20110720-0100,"org.eclipse.mylyn.commons.ui",1509434528833
started,bundle,org.eclipse.mylyn.context.core,3.6.1.v20110720-0100,"org.eclipse.mylyn.context.core",1509434528833
started,bundle,org.eclipse.mylyn.context.ui,3.6.0.v20110608-1400,"org.eclipse.mylyn.context.ui",1509434528833
started,bundle,org.eclipse.mylyn.monitor.ui,3.6.0.v20110608-1400,"org.eclipse.mylyn.monitor.ui",1509434528833
started,bundle,org.eclipse.mylyn.tasks.ui,3.6.2.v20110826-0100,"org.eclipse.mylyn.tasks.ui",1509434528833
started,bundle,org.eclipse.mylyn.team.ui,3.6.1.v20110825-0100,"org.eclipse.mylyn.team.ui",1509434528833
started,bundle,org.eclipse.team.cvs.core,3.3.400.I20110510-0800,"org.eclipse.team.cvs.core",1509434528833
started,bundle,org.eclipse.team.cvs.ui,3.3.400.I20110510-0800,"org.eclipse.team.cvs.ui",1509434528833
started,bundle,com.adobe.flash.compiler,4.7.0.349722,"com.adobe.flash.compiler",1509434528833
started,bundle,com.adobe.flexbuilder.DCDService,4.7.0.349722,"com.adobe.flexbuilder.DCDService",1509434528833
started,bundle,com.adobe.flexbuilder.dcrad,4.7.0.349722,"com.adobe.flexbuilder.dcrad",1509434528848
started,bundle,com.adobe.flexbuilder.debug.ui,4.7.0.349722,"com.adobe.flexbuilder.debug.ui",1509434528848
started,bundle,com.adobe.flexbuilder.editors.derived,4.7.0.349722,"com.adobe.flexbuilder.editors.derived",1509434528848
started,bundle,com.adobe.flexbuilder.exportimport,4.7.0.349722,"com.adobe.flexbuilder.exportimport",1509434528848
started,bundle,com.adobe.flexbuilder.flashbridge,4.7.0.349722,"com.adobe.flexbuilder.flashbridge",1509434528848
started,bundle,com.adobe.flexbuilder.multisdk,4.7.0.349722,"com.adobe.flexbuilder.multisdk",1509434528848
started,bundle,com.adobe.flexbuilder.mxmlmodel,4.7.0.349722,"com.adobe.flexbuilder.mxmlmodel",1509434528848
started,bundle,com.adobe.flexbuilder.project,4.7.0.349722,"com.adobe.flexbuilder.project",1509434528848
started,bundle,com.adobe.flexbuilder.project.ui,4.7.0.349722,"com.adobe.flexbuilder.project.ui",1509434528848
started,bundle,com.adobe.flexbuilder.utils.osnative,4.7.0.349722,"com.adobe.flexbuilder.utils.osnative",1509434528848
started,bundle,com.adobe.flexide.amt,4.7.0.349722,"com.adobe.flexide.amt",1509434528848
started,bundle,com.adobe.flexide.editorcore,4.7.0.349722,"com.adobe.flexide.editorcore",1509434528848
started,bundle,com.adobe.flexide.nativelibs,4.7.0.349722,"com.adobe.flexide.nativelibs",1509434528848
started,bundle,org.eclipse.equinox.event,1.2.100.v20110502,"org.eclipse.equinox.event",1509434528848
started,bundle,org.eclipse.update.core,3.2.500.v20110330,"org.eclipse.update.core",1509434528848
started,bundle,org.eclipse.update.scheduler,3.2.300.v20100512,"org.eclipse.update.scheduler",1509434528848
started,bundle,org.eclipse.wb.core,1.1.0.r37x201109091012,"org.eclipse.wb.core",1509434528848
started,bundle,org.eclipse.wb.core.lib,1.1.0.r37x201109091012,"org.eclipse.wb.core.lib",1509434528848
started,bundle,org.eclipse.wb.discovery.core,1.1.0.r37x201109091028,"org.eclipse.wb.discovery.core",1509434528848
started,bundle,org.eclipse.wb.discovery.ui,1.1.0.r37x201109091028,"org.eclipse.wb.discovery.ui",1509434528848
os,sysinfo,,,"win32",1509434528848
arch,sysinfo,,,"x86_64",1509434528848
ws,sysinfo,,,"win32",1509434528848
locale,sysinfo,,,"en_US",1509434528848
processors,sysinfo,,,"8",1509434528848
java.runtime.name,sysinfo,,,"Java(TM) SE Runtime Environment",1509434528848
java.runtime.version,sysinfo,,,"1.6.0_71-b10",1509434528848
java.specification.name,sysinfo,,,"Java Platform API Specification",1509434528848
java.specification.vendor,sysinfo,,,"Sun Microsystems Inc.",1509434528848
java.specification.version,sysinfo,,,"1.6",1509434528848
java.vendor,sysinfo,,,"Oracle Corporation",1509434528848
java.version,sysinfo,,,"1.6.0_71",1509434528848
java.vm.info,sysinfo,,,"compiled mode",1509434528848
java.vm.name,sysinfo,,,"Oracle JRockit(R)",1509434528848
java.vm.specification.name,sysinfo,,,"Java Virtual Machine Specification",1509434528848
java.vm.specification.vendor,sysinfo,,,"Sun Microsystems Inc.",1509434528848
java.vm.specification.version,sysinfo,,,"1.0",1509434528848
java.vm.vendor,sysinfo,,,"Oracle Corporation",1509434528848
java.vm.version,sysinfo,,,"R28.3.1-12-159557-1.6.0_71-20131209-2113-windows-x86_64",1509434528848
started,bundle,org.eclipse.jst.server.core,1.2.302.v20120503_1042,"org.eclipse.jst.server.core",1509434529630
started,bundle,org.eclipse.wst.sse.core,1.1.702.v201301241617,"org.eclipse.wst.sse.core",1509434529661
activated,editor,org.eclipse.jdt.ui,3.8.2.v20130107-165834,"org.eclipse.jdt.ui.CompilationUnitEditor",1509434693769
activated,view,org.eclipse.ui.navigator.resources,3.4.400.v20120705-114010,"org.eclipse.ui.navigator.ProjectExplorer",1509434698105
deactivated,workbench,org.eclipse.ui.workbench,3.104.0.v20130204-164612,"",1509434702401
activated,workbench,org.eclipse.ui.workbench,3.104.0.v20130204-164612,"",1509434719039
closed,view,org.eclipse.ui.ide,3.8.2.v20121106-165923,"org.eclipse.ui.views.ProblemView",1509434719085
closed,view,org.eclipse.team.ui,3.6.201.v20130125-135424,"org.eclipse.team.ui.GenericHistoryView",1509434719117
closed,view,org.eclipse.ui.views,3.6.100.v20120705-114010,"org.eclipse.ui.views.ContentOutline",1509434719132
closed,editor,org.eclipse.jdt.ui,3.8.2.v20130107-165834,"org.eclipse.jdt.ui.CompilationUnitEditor",1509434719148
closed,view,org.eclipse.ui.navigator.resources,3.4.400.v20120705-114010,"org.eclipse.ui.navigator.ProjectExplorer",1509434719195
closed,workbench,org.eclipse.ui.workbench,3.104.0.v20130204-164612,"",1509434719296
stopped,bundle,org.eclipse.jst.j2ee.xdoclet.runtime,1.1.300.v201004280700,"org.eclipse.jst.j2ee.xdoclet.runtime",1509434719852
stopped,bundle,org.eclipse.jst.j2ee.ejb.annotations.xdoclet,1.2.200.v201103302125,"org.eclipse.jst.j2ee.ejb.annotations.xdoclet",1509434719852
stopped,bundle,org.eclipse.jst.server.generic.jboss,1.6.1.v200904151730,"org.eclipse.jst.server.generic.jboss",1509434719852
stopped,bundle,org.eclipse.jst.server.generic.jonas,1.5.205.v200805140145,"org.eclipse.jst.server.generic.jonas",1509434719852
stopped,bundle,org.eclipse.jst.server.generic.oc4j,1.5.206.v20090812,"org.eclipse.jst.server.generic.oc4j",1509434719852
stopped,bundle,org.eclipse.jst.server.websphere.core,1.0.302.v20080620,"org.eclipse.jst.server.websphere.core",1509434719852
stopped,bundle,org.eclipse.jst.server.generic.ui,1.0.505.v20100428,"org.eclipse.jst.server.generic.ui",1509434719852
stopped,bundle,org.eclipse.jst.server.generic.core,1.0.700.v20101219,"org.eclipse.jst.server.generic.core",1509434719852
stopped,bundle,org.eclipse.datatools.connectivity.oda.template.ui,3.2.4.v201301111130,"org.eclipse.datatools.connectivity.oda.template.ui",1509434719852
stopped,bundle,org.eclipse.pde.api.tools.ui,1.0.400.v20120523-2012,"org.eclipse.pde.api.tools.ui",1509434719852
stopped,bundle,org.eclipse.pde.ds.ui,1.0.200.v20120530-1435,"org.eclipse.pde.ds.ui",1509434719852
stopped,bundle,org.eclipse.pde.runtime,3.4.300.v20120523-1453,"org.eclipse.pde.runtime",1509434719852
stopped,bundle,org.eclipse.pde.ua.ui,1.0.200.v20120523-1453,"org.eclipse.pde.ua.ui",1509434719852
stopped,bundle,org.eclipse.pde.ui.templates,3.4.500.v20120523-2012,"org.eclipse.pde.ui.templates",1509434719852
stopped,bundle,org.eclipse.pde.ui,3.7.2.v20130121-093123,"org.eclipse.pde.ui",1509434719868
stopped,bundle,org.eclipse.mylyn.ide.ant,3.6.0.v20110608-1400,"org.eclipse.mylyn.ide.ant",1509434719868
stopped,bundle,org.eclipse.ant.ui,3.5.301.v20121210-210948,"org.eclipse.ant.ui",1509434719868
stopped,bundle,org.eclipse.ant.launching,1.0.200.v20120530-1204,"org.eclipse.ant.launching",1509434719868
stopped,bundle,org.eclipse.compare.win32,1.0.200.v20120914-154749,"org.eclipse.compare.win32",1509434719868
stopped,bundle,org.eclipse.equinox.p2.ui.sdk,1.0.200.v20120515-1650,"org.eclipse.equinox.p2.ui.sdk",1509434719868
stopped,bundle,org.eclipse.jst.server.tomcat.ui,1.1.300.v20120420_1012,"org.eclipse.jst.server.tomcat.ui",1509434719868
stopped,bundle,org.eclipse.jst.server.ui,1.1.202.v20110419,"org.eclipse.jst.server.ui",1509434719868
stopped,bundle,org.eclipse.mylyn.java.tasks,3.6.0.v20110608-1400,"org.eclipse.mylyn.java.tasks",1509434719868
stopped,bundle,org.eclipse.mylyn.java.ui,3.6.0.v20110608-1400,"org.eclipse.mylyn.java.ui",1509434719868
stopped,bundle,org.eclipse.jdt.junit,3.7.100.v20120523-1543,"org.eclipse.jdt.junit",1509434719868
stopped,bundle,org.eclipse.jpt.jpa.eclipselink.ui,2.2.1.v201208222210,"org.eclipse.jpt.jpa.eclipselink.ui",1509434719868
stopped,bundle,org.eclipse.jpt.jpa.eclipselink.core,2.2.1.v201208222210,"org.eclipse.jpt.jpa.eclipselink.core",1509434719868
stopped,bundle,org.eclipse.jpt.jpa.ui,3.2.2.v201301092252,"org.eclipse.jpt.jpa.ui",1509434719868
stopped,bundle,org.eclipse.m2e.wtp.jpa,1.0.0.e42-20130613-0136,"org.eclipse.m2e.wtp.jpa",1509434719868
stopped,bundle,org.eclipse.jpt.jpa.core,3.2.2.v201301092252,"org.eclipse.jpt.jpa.core",1509434719868
stopped,bundle,org.eclipse.jpt.jpa.db,2.1.101.v201208222210,"org.eclipse.jpt.jpa.db",1509434719868
stopped,bundle,org.eclipse.datatools.enablement.jdt.classpath,1.0.1.v201107221501,"org.eclipse.datatools.enablement.jdt.classpath",1509434719868
stopped,bundle,org.eclipse.jdt.apt.ui,3.3.300.v20120522-1651,"org.eclipse.jdt.apt.ui",1509434719868
stopped,bundle,org.eclipse.datatools.enablement.sybase.asa.schemaobjecteditor.examples,2.5.0.200810071,"org.eclipse.datatools.enablement.sybase.asa.schemaobjecteditor.examples",1509434719868
stopped,bundle,org.eclipse.datatools.sqltools.debugger.core.ui,1.0.0.v201003161000,"org.eclipse.datatools.sqltools.debugger.core.ui",1509434719868
stopped,bundle,org.eclipse.jst.server.preview.adapter,1.1.201.v20130123_1813,"org.eclipse.jst.server.preview.adapter",1509434719868
stopped,bundle,org.eclipse.wst.xsl.jaxp.debug.ui,1.0.200.v201103081922,"org.eclipse.wst.xsl.jaxp.debug.ui",1509434719868
stopped,bundle,org.eclipse.m2e.launching,1.4.0.20130601-0317,"org.eclipse.m2e.launching",1509434719884
stopped,bundle,org.eclipse.jdt.debug.ui,3.6.100.v20120530-1425,"org.eclipse.jdt.debug.ui",1509434719884
stopped,bundle,org.eclipse.jpt.dbws.eclipselink.ui,1.0.201.v201208222210,"org.eclipse.jpt.dbws.eclipselink.ui",1509434719884
stopped,bundle,org.eclipse.jpt.jaxb.eclipselink.ui,1.3.1.v201208222210,"org.eclipse.jpt.jaxb.eclipselink.ui",1509434719884
stopped,bundle,org.eclipse.jpt.jaxb.ui,1.3.1.v201208222210,"org.eclipse.jpt.jaxb.ui",1509434719884
stopped,bundle,org.eclipse.jpt.common.ui,1.2.1.v201208222210,"org.eclipse.jpt.common.ui",1509434719884
stopped,bundle,org.eclipse.jst.common.annotations.ui,1.1.300.v201002081900,"org.eclipse.jst.common.annotations.ui",1509434719884
stopped,bundle,org.eclipse.jst.j2ee.ejb.annotations.ui,1.1.200.v201004290730,"org.eclipse.jst.j2ee.ejb.annotations.ui",1509434719884
stopped,bundle,org.eclipse.jst.ejb.ui,1.1.700.v201201190500,"org.eclipse.jst.ejb.ui",1509434719884
stopped,bundle,org.eclipse.jst.ws.axis.creation.ui,1.0.750.v201204120428,"org.eclipse.jst.ws.axis.creation.ui",1509434719884
stopped,bundle,org.eclipse.jst.ws.axis.consumption.ui,1.0.700.v201204181727,"org.eclipse.jst.ws.axis.consumption.ui",1509434719884
stopped,bundle,org.eclipse.jst.ws.axis2.creation.ui,1.0.104.v201004211805,"org.eclipse.jst.ws.axis2.creation.ui",1509434719884
stopped,bundle,org.eclipse.jst.ws.axis2.consumption.ui,1.0.103.v201004211805,"org.eclipse.jst.ws.axis2.consumption.ui",1509434719884
stopped,bundle,org.eclipse.jst.ws.axis2.creation.core,1.0.106.v201004211805,"org.eclipse.jst.ws.axis2.creation.core",1509434719884
stopped,bundle,org.eclipse.jst.ws.axis2.consumption.core,1.0.105.v201004211805,"org.eclipse.jst.ws.axis2.consumption.core",1509434719884
stopped,bundle,org.eclipse.jst.ws.cxf.creation.ui,1.0.201.v201301072322,"org.eclipse.jst.ws.cxf.creation.ui",1509434719884
stopped,bundle,org.eclipse.jst.ws.creation.ui,1.0.700.v201205041550,"org.eclipse.jst.ws.creation.ui",1509434719884
stopped,bundle,org.eclipse.jst.ws.cxf.consumption.ui,1.0.200.v201201312103,"org.eclipse.jst.ws.cxf.consumption.ui",1509434719884
stopped,bundle,org.eclipse.jst.ws.consumption.ui,1.1.600.v201301232254,"org.eclipse.jst.ws.consumption.ui",1509434719884
stopped,bundle,org.eclipse.jst.j2ee.webservice.ui,1.1.500.v201105122000,"org.eclipse.jst.j2ee.webservice.ui",1509434719884
stopped,bundle,org.eclipse.jst.servlet.ui,1.1.600.v201202011057,"org.eclipse.jst.servlet.ui",1509434719884
stopped,bundle,org.eclipse.jst.ws.jaxws.dom.integration,1.0.200.v201109042201,"org.eclipse.jst.ws.jaxws.dom.integration",1509434719884
stopped,bundle,org.eclipse.jst.jee.ui,1.0.500.v201205170400,"org.eclipse.jst.jee.ui",1509434719884
stopped,bundle,org.eclipse.jst.j2ee.navigator.ui,1.1.600.v201203142300,"org.eclipse.jst.j2ee.navigator.ui",1509434719884
stopped,bundle,org.eclipse.jst.j2ee.jca.ui,1.1.400.v201004150700,"org.eclipse.jst.j2ee.jca.ui",1509434719884
stopped,bundle,org.eclipse.jst.j2ee.ui,1.1.600.v201205170400,"org.eclipse.jst.j2ee.ui",1509434719884
stopped,bundle,org.eclipse.jst.jsf.facelet.ui,1.1.0.v201301161500,"org.eclipse.jst.jsf.facelet.ui",1509434719884
stopped,bundle,org.eclipse.jst.jsf.ui,1.4.0.v201301161500,"org.eclipse.jst.jsf.ui",1509434719884
stopped,bundle,org.eclipse.jst.ws.jaxrs.ui,1.0.500.v201205020140,"org.eclipse.jst.ws.jaxrs.ui",1509434719884
stopped,bundle,org.eclipse.jst.common.project.facet.ui,1.4.200.v201008182133,"org.eclipse.jst.common.project.facet.ui",1509434719884
stopped,bundle,org.eclipse.jst.common.ui,1.0.201.v201208292200,"org.eclipse.jst.common.ui",1509434719884
stopped,bundle,org.eclipse.jst.j2ee.ejb.annotations.emitter,1.1.200.v200909290826,"org.eclipse.jst.j2ee.ejb.annotations.emitter",1509434719884
stopped,bundle,org.eclipse.jst.jsf.apache.trinidad.tagsupport,1.2.0.v201301161500,"org.eclipse.jst.jsf.apache.trinidad.tagsupport",1509434719884
stopped,bundle,org.eclipse.jst.jsf.facesconfig.ui,1.3.0.v201301161500,"org.eclipse.jst.jsf.facesconfig.ui",1509434719884
stopped,bundle,org.eclipse.jst.pagedesigner.jsf.ui,1.3.0.v201301161500,"org.eclipse.jst.pagedesigner.jsf.ui",1509434719884
stopped,bundle,org.eclipse.jst.pagedesigner,1.4.0.v201301161500,"org.eclipse.jst.pagedesigner",1509434719884
stopped,bundle,org.eclipse.jst.jsf.common.ui,1.3.0.v201301161500,"org.eclipse.jst.jsf.common.ui",1509434719899
stopped,bundle,org.eclipse.jst.jsf.facelet.core,1.1.0.v201301161500,"org.eclipse.jst.jsf.facelet.core",1509434719899
stopped,bundle,org.eclipse.m2e.wtp.jsf,1.0.0.20130613-0136,"org.eclipse.m2e.wtp.jsf",1509434719899
stopped,bundle,org.eclipse.jst.jsf.core,1.5.0.v201301161500,"org.eclipse.jst.jsf.core",1509434719899
stopped,bundle,org.eclipse.jst.jsf.standard.tagsupport,1.3.0.v201301161500,"org.eclipse.jst.jsf.standard.tagsupport",1509434719899
stopped,bundle,org.eclipse.jst.pagedesigner.jsp.core,1.3.0.v201301161500,"org.eclipse.jst.pagedesigner.jsp.core",1509434719899
stopped,bundle,org.eclipse.jst.jsf.common,1.3.0.v201301161500,"org.eclipse.jst.jsf.common",1509434719899
stopped,bundle,org.eclipse.wst.jsdt.web.support.jsp,1.0.500.v201204260100,"org.eclipse.wst.jsdt.web.support.jsp",1509434719899
stopped,bundle,org.eclipse.jst.jsp.ui,1.1.702.v201301101836,"org.eclipse.jst.jsp.ui",1509434719899
stopped,bundle,org.eclipse.jst.ws.cxf.consumption.core,1.0.201.v201301072322,"org.eclipse.jst.ws.cxf.consumption.core",1509434719899
stopped,bundle,org.eclipse.jst.ws.cxf.creation.core,1.0.201.v201301072322,"org.eclipse.jst.ws.cxf.creation.core",1509434719899
stopped,bundle,org.eclipse.jst.ws.cxf.ui,1.0.200.v201203062228,"org.eclipse.jst.ws.cxf.ui",1509434719899
stopped,bundle,org.eclipse.jst.ws.cxf.core,1.1.1.v201301082115,"org.eclipse.jst.ws.cxf.core",1509434719899
stopped,bundle,org.eclipse.jst.ws.jaxb.core,1.0.100.v201104031139,"org.eclipse.jst.ws.jaxb.core",1509434719899
stopped,bundle,org.eclipse.jst.ws.jaxws.ui,1.0.201.v201301072322,"org.eclipse.jst.ws.jaxws.ui",1509434719899
stopped,bundle,org.eclipse.jst.ws.jaxws.core,1.0.201.v201301072322,"org.eclipse.jst.ws.jaxws.core",1509434719899
stopped,bundle,org.eclipse.jst.ws.annotations.core,1.2.0.v201203272107,"org.eclipse.jst.ws.annotations.core",1509434719899
stopped,bundle,org.eclipse.jst.ws.axis2.ui,1.0.303.v201003110431,"org.eclipse.jst.ws.axis2.ui",1509434719899
stopped,bundle,org.eclipse.jst.ws.uddiregistry,1.0.500.v201004211805,"org.eclipse.jst.ws.uddiregistry",1509434719899
stopped,bundle,org.eclipse.jst.ws.ui,1.0.403.v201004211805,"org.eclipse.jst.ws.ui",1509434719899
stopped,bundle,org.eclipse.m2e.wtp.jaxrs,1.0.0.20130613-0136,"org.eclipse.m2e.wtp.jaxrs",1509434719899
stopped,bundle,org.eclipse.m2e.wtp,1.0.0.20130613-0136,"org.eclipse.m2e.wtp",1509434719899
stopped,bundle,org.jboss.tools.maven.apt.ui,1.0.1.201209200721,"org.jboss.tools.maven.apt.ui",1509434719899
stopped,bundle,org.jboss.tools.maven.apt.core,1.0.1.201209200721,"org.jboss.tools.maven.apt.core",1509434719899
stopped,bundle,org.eclipse.m2e.jdt,1.4.0.20130601-0317,"org.eclipse.m2e.jdt",1509434719899
stopped,bundle,org.eclipse.m2e.refactoring,1.4.0.20130601-0317,"org.eclipse.m2e.refactoring",1509434719899
stopped,bundle,org.granite.builder,2.2.0.SP2,"org.granite.builder",1509434719899
stopped,bundle,org.eclipse.wb.swing.databinding,1.1.0.r37x201109091143,"org.eclipse.wb.swing.databinding",1509434719899
stopped,bundle,org.eclipse.wb.core.databinding,1.1.0.r37x201109091012,"org.eclipse.wb.core.databinding",1509434719899
stopped,bundle,org.eclipse.wb.swing.FormLayout,1.1.0.r37x201109091143,"org.eclipse.wb.swing.FormLayout",1509434719899
stopped,bundle,org.eclipse.wb.swing.MigLayout,1.1.0.r37x201109091143,"org.eclipse.wb.swing.MigLayout",1509434719899
stopped,bundle,org.eclipse.wb.swing.java6,1.1.0.r37x201109091143,"org.eclipse.wb.swing.java6",1509434719899
stopped,bundle,org.eclipse.wb.swing.jsr296,1.1.0.r37x201109091143,"org.eclipse.wb.swing.jsr296",1509434719899
stopped,bundle,org.eclipse.wb.swing,1.1.0.r37x201109091143,"org.eclipse.wb.swing",1509434719915
stopped,bundle,org.eclipse.wb.core.ui,1.1.0.r37x201109091028,"org.eclipse.wb.core.ui",1509434719915
stopped,bundle,org.eclipse.wb.layout.group,1.1.0.r37x201109091112,"org.eclipse.wb.layout.group",1509434719915
stopped,bundle,org.eclipse.wb.os.win32,1.1.0.r37x201109091012,"org.eclipse.wb.os.win32",1509434719915
stopped,bundle,org.eclipse.wb.core,1.1.0.r37x201109091012,"org.eclipse.wb.core",1509434719915
stopped,bundle,org.eclipse.jdt.ui,3.8.2.v20130107-165834,"org.eclipse.jdt.ui",1509434719915
stopped,bundle,org.eclipse.rse.importexport,1.2.300.201205241511,"org.eclipse.rse.importexport",1509434719915
stopped,bundle,org.eclipse.rse.subsystems.shells.telnet,1.2.300.201205062159,"org.eclipse.rse.subsystems.shells.telnet",1509434719915
stopped,bundle,org.eclipse.rse.useractions,1.1.400.201205062159,"org.eclipse.rse.useractions",1509434719915
stopped,bundle,org.eclipse.rse.shells.ui,3.0.401.201212171813,"org.eclipse.rse.shells.ui",1509434719915
stopped,bundle,org.eclipse.rse.files.ui,3.2.101.201302012126,"org.eclipse.rse.files.ui",1509434719915
stopped,bundle,org.eclipse.rse.processes.ui,3.0.400.201205062159,"org.eclipse.rse.processes.ui",1509434719915
stopped,bundle,org.eclipse.wst.dtd.ui,1.0.700.v201203081826,"org.eclipse.wst.dtd.ui",1509434719915
stopped,bundle,org.eclipse.wst.wsdl.ui,1.2.500.v201108240518,"org.eclipse.wst.wsdl.ui",1509434719915
stopped,bundle,org.eclipse.wst.wsi.ui,1.0.502.v201104071820,"org.eclipse.wst.wsi.ui",1509434719915
stopped,bundle,org.eclipse.wst.jsdt.web.ui,1.0.502.v201208171701,"org.eclipse.wst.jsdt.web.ui",1509434719915
stopped,bundle,org.eclipse.wst.web.ui,1.1.600.v201109220400,"org.eclipse.wst.web.ui",1509434719915
stopped,bundle,org.eclipse.wst.html.ui,1.0.702.v201211262010,"org.eclipse.wst.html.ui",1509434719915
stopped,bundle,org.eclipse.wst.css.ui,1.0.702.v201211262010,"org.eclipse.wst.css.ui",1509434719915
stopped,bundle,org.eclipse.wst.xsl.exslt.ui,1.0.0.v201006012005,"org.eclipse.wst.xsl.exslt.ui",1509434719915
stopped,bundle,org.eclipse.wst.xsl.ui,1.1.300.v201204101539,"org.eclipse.wst.xsl.ui",1509434719915
stopped,bundle,org.eclipse.wst.xml.xpath.ui,1.1.101.v201204260040,"org.eclipse.wst.xml.xpath.ui",1509434719915
