what,kind,bundleId,bundleVersion,description,time
started,bundle,org.eclipse.ui,3.104.0.v20121024-145224,"org.eclipse.ui",1508136168329
started,bundle,org.eclipse.ui.browser,3.4.2.v20130123-162658,"org.eclipse.ui.browser",1508136168329
started,bundle,org.eclipse.ui.console,3.5.100.v20120521-2012,"org.eclipse.ui.console",1508136168329
started,bundle,org.eclipse.ui.editors,3.8.0.v20120523-1540,"org.eclipse.ui.editors",1508136168329
started,bundle,org.eclipse.ui.forms,3.5.200.v20120705-114351,"org.eclipse.ui.forms",1508136168329
started,bundle,org.eclipse.ui.ide,3.8.2.v20121106-165923,"org.eclipse.ui.ide",1508136168329
started,bundle,org.eclipse.ui.intro,3.4.200.v20120521-2344,"org.eclipse.ui.intro",1508136168344
started,bundle,org.eclipse.ui.navigator,3.5.200.v20120705-114103,"org.eclipse.ui.navigator",1508136168344
started,bundle,org.eclipse.ui.navigator.resources,3.4.400.v20120705-114010,"org.eclipse.ui.navigator.resources",1508136168344
started,bundle,org.eclipse.ui.net,1.2.101.v20120914-093638,"org.eclipse.ui.net",1508136168344
started,bundle,org.eclipse.ui.trace,1.0.1.v20121204-224553,"org.eclipse.ui.trace",1508136168344
started,bundle,org.eclipse.ui.views,3.6.100.v20120705-114010,"org.eclipse.ui.views",1508136168344
started,bundle,org.eclipse.ui.workbench,3.104.0.v20130204-164612,"org.eclipse.ui.workbench",1508136168344
started,bundle,org.eclipse.ui.workbench.texteditor,3.8.0.v20120523-1310,"org.eclipse.ui.workbench.texteditor",1508136168344
started,bundle,org.eclipse.update.configurator,3.3.200.v20120912-144026,"org.eclipse.update.configurator",1508136168344
started,bundle,org.eclipse.wst.common.core,1.2.0.v200908252030,"org.eclipse.wst.common.core",1508136168344
started,bundle,org.eclipse.wst.common.emf,1.2.100.v201101101900,"org.eclipse.wst.common.emf",1508136168344
started,bundle,org.eclipse.wst.common.emfworkbench.integration,1.2.101.v201107140600,"org.eclipse.wst.common.emfworkbench.integration",1508136168344
started,bundle,org.eclipse.wst.common.frameworks,1.2.200.v201203141800,"org.eclipse.wst.common.frameworks",1508136168344
started,bundle,org.eclipse.wst.common.frameworks.ui,1.2.201.v201208292200,"org.eclipse.wst.common.frameworks.ui",1508136168344
started,bundle,org.eclipse.wst.common.modulecore,1.2.201.v201301092200,"org.eclipse.wst.common.modulecore",1508136168344
started,bundle,org.eclipse.wst.common.project.facet.core,1.4.300.v201111030424,"org.eclipse.wst.common.project.facet.core",1508136168344
started,bundle,org.eclipse.wst.common.ui,1.1.500.v200911190730,"org.eclipse.wst.common.ui",1508136168344
started,bundle,org.eclipse.wst.jsdt.core,1.1.202.v201208171701,"org.eclipse.wst.jsdt.core",1508136168344
started,bundle,org.eclipse.wst.jsdt.manipulation,1.0.400.v201204261600,"org.eclipse.wst.jsdt.manipulation",1508136168344
started,bundle,org.eclipse.wst.jsdt.ui,1.1.202.v201208171701,"org.eclipse.wst.jsdt.ui",1508136168344
started,bundle,org.eclipse.wst.server.core,1.4.100.v20130117_1140,"org.eclipse.wst.server.core",1508136168344
started,bundle,org.eclipse.wst.server.ui,1.4.100.v20121112_1718,"org.eclipse.wst.server.ui",1508136168344
started,bundle,org.eclipse.wst.sse.ui,1.3.102.v201301162301,"org.eclipse.wst.sse.ui",1508136168344
started,bundle,org.eclipse.wst.validation,1.2.402.v201212031633,"org.eclipse.wst.validation",1508136168360
started,bundle,org.eclipse.wst.web,1.1.600.v201204190200,"org.eclipse.wst.web",1508136168360
started,bundle,org.eclipse.wst.xml.core,1.1.702.v201301101836,"org.eclipse.wst.xml.core",1508136168360
started,bundle,org.eclipse.m2e.core,1.4.0.20130601-0317,"org.eclipse.m2e.core",1508136168360
started,bundle,org.eclipse.m2e.jdt,1.4.0.20130601-0317,"org.eclipse.m2e.jdt",1508136168360
started,bundle,org.eclipse.m2e.logback.configuration,1.4.0.20130601-0317,"org.eclipse.m2e.logback.configuration",1508136168360
started,bundle,org.eclipse.m2e.wtp,1.0.0.20130613-0136,"org.eclipse.m2e.wtp",1508136168360
started,bundle,org.eclipse.m2e.wtp.overlay,1.0.0.20130613-0136,"org.eclipse.m2e.wtp.overlay",1508136168360
started,bundle,com.collabnet.subversion.merge,3.0.13,"com.collabnet.subversion.merge",1508136168360
started,bundle,org.tigris.subversion.clientadapter,1.8.6,"org.tigris.subversion.clientadapter",1508136168360
started,bundle,org.tigris.subversion.subclipse.core,1.8.22,"org.tigris.subversion.subclipse.core",1508136168360
started,bundle,org.tigris.subversion.subclipse.mylyn,3.0.0,"org.tigris.subversion.subclipse.mylyn",1508136168360
started,bundle,org.tigris.subversion.subclipse.tools.usage,1.1.0,"org.tigris.subversion.subclipse.tools.usage",1508136168360
started,bundle,org.tigris.subversion.subclipse.ui,1.8.21,"org.tigris.subversion.subclipse.ui",1508136168360
started,bundle,org.eclipse.egit.core,1.1.0.201109151100-r,"org.eclipse.egit.core",1508136168360
started,bundle,org.eclipse.egit.ui,1.1.0.201109151100-r,"org.eclipse.egit.ui",1508136168360
started,bundle,org.eclipse.epp.usagedata.gathering,1.3.1.R201106061540,"org.eclipse.epp.usagedata.gathering",1508136168360
started,bundle,org.eclipse.epp.usagedata.recording,1.3.1.R201106061540,"org.eclipse.epp.usagedata.recording",1508136168360
started,bundle,org.eclipse.jgit,1.1.0.201109151100-r,"org.eclipse.jgit",1508136168360
started,bundle,org.eclipse.mylyn.bugzilla.core,3.6.2.v20110903-0100,"org.eclipse.mylyn.bugzilla.core",1508136168360
started,bundle,org.eclipse.mylyn.bugzilla.ui,3.6.0.v20110608-1400,"org.eclipse.mylyn.bugzilla.ui",1508136168360
started,bundle,org.eclipse.mylyn.commons.identity,0.8.0.v20110608-1400,"org.eclipse.mylyn.commons.identity",1508136168360
started,bundle,org.eclipse.mylyn.commons.net,3.6.0.v20110608-1400,"org.eclipse.mylyn.commons.net",1508136168360
started,bundle,org.eclipse.mylyn.commons.ui,3.6.1.v20110720-0100,"org.eclipse.mylyn.commons.ui",1508136168360
started,bundle,org.eclipse.mylyn.context.core,3.6.1.v20110720-0100,"org.eclipse.mylyn.context.core",1508136168360
started,bundle,org.eclipse.mylyn.context.ui,3.6.0.v20110608-1400,"org.eclipse.mylyn.context.ui",1508136168360
started,bundle,org.eclipse.mylyn.monitor.ui,3.6.0.v20110608-1400,"org.eclipse.mylyn.monitor.ui",1508136168360
started,bundle,org.eclipse.mylyn.tasks.ui,3.6.2.v20110826-0100,"org.eclipse.mylyn.tasks.ui",1508136168360
started,bundle,org.eclipse.mylyn.team.ui,3.6.1.v20110825-0100,"org.eclipse.mylyn.team.ui",1508136168360
started,bundle,org.eclipse.team.cvs.core,3.3.400.I20110510-0800,"org.eclipse.team.cvs.core",1508136168360
started,bundle,org.eclipse.team.cvs.ui,3.3.400.I20110510-0800,"org.eclipse.team.cvs.ui",1508136168360
started,bundle,com.adobe.flash.compiler,4.7.0.349722,"com.adobe.flash.compiler",1508136168375
started,bundle,com.adobe.flexbuilder.DCDService,4.7.0.349722,"com.adobe.flexbuilder.DCDService",1508136168375
started,bundle,com.adobe.flexbuilder.as.editor,4.7.0.349722,"com.adobe.flexbuilder.as.editor",1508136168375
started,bundle,com.adobe.flexbuilder.codemodel,4.7.0.349722,"com.adobe.flexbuilder.codemodel",1508136168375
started,bundle,com.adobe.flexbuilder.dcrad,4.7.0.349722,"com.adobe.flexbuilder.dcrad",1508136168391
started,bundle,com.adobe.flexbuilder.debug.ui,4.7.0.349722,"com.adobe.flexbuilder.debug.ui",1508136168391
started,bundle,com.adobe.flexbuilder.editorcore,4.7.0.349722,"com.adobe.flexbuilder.editorcore",1508136168391
started,bundle,com.adobe.flexbuilder.editors.derived,4.7.0.349722,"com.adobe.flexbuilder.editors.derived",1508136168391
started,bundle,com.adobe.flexbuilder.exportimport,4.7.0.349722,"com.adobe.flexbuilder.exportimport",1508136168407
started,bundle,com.adobe.flexbuilder.flashbridge,4.7.0.349722,"com.adobe.flexbuilder.flashbridge",1508136168407
started,bundle,com.adobe.flexbuilder.multisdk,4.7.0.349722,"com.adobe.flexbuilder.multisdk",1508136168407
started,bundle,com.adobe.flexbuilder.mxmlmodel,4.7.0.349722,"com.adobe.flexbuilder.mxmlmodel",1508136168407
started,bundle,com.adobe.flexbuilder.project,4.7.0.349722,"com.adobe.flexbuilder.project",1508136168407
started,bundle,com.adobe.flexbuilder.project.ui,4.7.0.349722,"com.adobe.flexbuilder.project.ui",1508136168422
started,bundle,com.adobe.flexbuilder.ui,4.7.0.349722,"com.adobe.flexbuilder.ui",1508136168422
started,bundle,com.adobe.flexbuilder.utils.osnative,4.7.0.349722,"com.adobe.flexbuilder.utils.osnative",1508136168422
started,bundle,com.adobe.flexide.amt,4.7.0.349722,"com.adobe.flexide.amt",1508136168422
started,bundle,com.adobe.flexide.as.core,4.7.0.349722,"com.adobe.flexide.as.core",1508136168422
started,bundle,com.adobe.flexide.codemodel.bridge,4.7.0.349722,"com.adobe.flexide.codemodel.bridge",1508136168438
started,bundle,com.adobe.flexide.css.core,4.7.0.349722,"com.adobe.flexide.css.core",1508136168438
started,bundle,com.adobe.flexide.editorcore,4.7.0.349722,"com.adobe.flexide.editorcore",1508136168438
started,bundle,com.adobe.flexide.mxml.core,4.7.0.349722,"com.adobe.flexide.mxml.core",1508136168438
started,bundle,com.adobe.flexide.nativelibs,4.7.0.349722,"com.adobe.flexide.nativelibs",1508136168438
started,bundle,com.adobe.flexide.refactoring.core,4.7.0.349722,"com.adobe.flexide.refactoring.core",1508136168454
started,bundle,org.eclipse.equinox.event,1.2.100.v20110502,"org.eclipse.equinox.event",1508136168454
started,bundle,org.eclipse.update.core,3.2.500.v20110330,"org.eclipse.update.core",1508136168454
started,bundle,org.eclipse.update.scheduler,3.2.300.v20100512,"org.eclipse.update.scheduler",1508136168454
started,bundle,org.eclipse.wb.discovery.core,1.1.0.r37x201109091028,"org.eclipse.wb.discovery.core",1508136168454
started,bundle,org.eclipse.wb.discovery.ui,1.1.0.r37x201109091028,"org.eclipse.wb.discovery.ui",1508136168454
os,sysinfo,,,"win32",1508136168454
arch,sysinfo,,,"x86_64",1508136168454
ws,sysinfo,,,"win32",1508136168454
locale,sysinfo,,,"en_US",1508136168454
processors,sysinfo,,,"8",1508136168454
java.runtime.name,sysinfo,,,"Java(TM) SE Runtime Environment",1508136168454
java.runtime.version,sysinfo,,,"1.6.0_71-b10",1508136168454
java.specification.name,sysinfo,,,"Java Platform API Specification",1508136168454
java.specification.vendor,sysinfo,,,"Sun Microsystems Inc.",1508136168454
java.specification.version,sysinfo,,,"1.6",1508136168454
java.vendor,sysinfo,,,"Oracle Corporation",1508136168454
java.version,sysinfo,,,"1.6.0_71",1508136168454
java.vm.info,sysinfo,,,"compiled mode",1508136168454
java.vm.name,sysinfo,,,"Oracle JRockit(R)",1508136168454
java.vm.specification.name,sysinfo,,,"Java Virtual Machine Specification",1508136168454
java.vm.specification.vendor,sysinfo,,,"Sun Microsystems Inc.",1508136168454
java.vm.specification.version,sysinfo,,,"1.0",1508136168454
java.vm.vendor,sysinfo,,,"Oracle Corporation",1508136168454
java.vm.version,sysinfo,,,"R28.3.1-12-159557-1.6.0_71-20131209-2113-windows-x86_64",1508136168454
started,bundle,org.eclipse.epp.usagedata.ui,1.3.1.R201106061540,"org.eclipse.epp.usagedata.ui",1508136169470
deactivated,workbench,org.eclipse.ui.workbench,3.104.0.v20130204-164612,"",1508136169691
activated,workbench,org.eclipse.ui.workbench,3.104.0.v20130204-164612,"",1508136773007
activated,view,org.eclipse.ui.navigator.resources,3.4.400.v20120705-114010,"org.eclipse.ui.navigator.ProjectExplorer",1508136773023
deactivated,workbench,org.eclipse.ui.workbench,3.104.0.v20130204-164612,"",1508136779350
activated,workbench,org.eclipse.ui.workbench,3.104.0.v20130204-164612,"",1508136782829
started,bundle,org.eclipse.core.variables,3.2.600.v20120521-2012,"org.eclipse.core.variables",1508136783563
started,bundle,de.bastiankrol.startexplorer,1.4.1.201303252323,"de.bastiankrol.startexplorer",1508136783563
executed,command,de.bastiankrol.startexplorer,1.4.1.201303252323,"de.bastiankrol.startexplorer.startShellFromResourceViewCommand",1508136783610
deactivated,workbench,org.eclipse.ui.workbench,3.104.0.v20130204-164612,"",1508136783657
activated,workbench,org.eclipse.ui.workbench,3.104.0.v20130204-164612,"",1508137500146
started,bundle,org.eclipse.debug.ui,3.8.2.v20130130-171415,"org.eclipse.debug.ui",1508137500386
started,bundle,org.eclipse.equinox.http.jetty,3.0.1.v20121109-203239,"org.eclipse.equinox.http.jetty",1508137500448
started,bundle,org.eclipse.equinox.http.servlet,1.1.300.v20120912-130548,"org.eclipse.equinox.http.servlet",1508137500495
started,bundle,com.adobe.flashbuilder.http.JettyService,4.7.0.349722,"com.adobe.flashbuilder.http.JettyService",1508137500589
started,bundle,com.adobe.flashbuilder.launching.win8,4.7.0.349722,"com.adobe.flashbuilder.launching.win8",1508137500604
started,bundle,com.adobe.flexbuilder.flex,4.7.0.349722,"com.adobe.flexbuilder.flex",1508137500620
started,bundle,com.adobe.flashbuilder.multiplatform.android.ui,4.7.0.349722,"com.adobe.flashbuilder.multiplatform.android.ui",1508137500636
started,bundle,com.adobe.flexide.project.multiplatform,4.7.0.349722,"com.adobe.flexide.project.multiplatform",1508137500651
started,bundle,com.adobe.flashbuilder.multiplatform.ios.ui,4.7.0.349722,"com.adobe.flashbuilder.multiplatform.ios.ui",1508137500667
started,bundle,com.adobe.flexide.launching,4.7.0.349722,"com.adobe.flexide.launching",1508137500667
started,bundle,com.adobe.flexbuilder.debug,4.7.0.349722,"com.adobe.flexbuilder.debug",1508137500698
activated,editor,com.adobe.flexbuilder.as.editor,4.7.0.349722,"com.adobe.flexbuilder.editors.actionscript.ActionScriptEditor",1508137500698
started,bundle,org.eclipse.jst.servlet.ui,1.1.600.v201202011057,"org.eclipse.jst.servlet.ui",1508137500917
started,bundle,org.eclipse.jst.ws.jaxws.dom.integration,1.0.200.v201109042201,"org.eclipse.jst.ws.jaxws.dom.integration",1508137500979
started,bundle,org.eclipse.jst.ws.jaxws.dom.ui,1.0.0.v201004171919,"org.eclipse.jst.ws.jaxws.dom.ui",1508137500995
deactivated,workbench,org.eclipse.ui.workbench,3.104.0.v20130204-164612,"",1508137501448
activated,workbench,org.eclipse.ui.workbench,3.104.0.v20130204-164612,"",1508137504941
started,bundle,com.adobe.flexbuilder.mxml.editor,4.7.0.349722,"com.adobe.flexbuilder.mxml.editor",1508137505034
started,bundle,com.adobe.model.core,4.5.304901.v20110217,"com.adobe.model.core",1508137511410
opened,editor,com.adobe.flexbuilder.mxml.editor,4.7.0.349722,"com.adobe.flexbuilder.editors.mxml.MXMLEditor",1508137511535
started,bundle,com.adobe.flexbuilder.crimson,4.7.0.349722,"com.adobe.flexbuilder.crimson",1508137511597
activated,editor,com.adobe.flexbuilder.mxml.editor,4.7.0.349722,"com.adobe.flexbuilder.editors.mxml.MXMLEditor",1508137511832
executed,command,org.eclipse.ui.ide,3.8.2.v20121106-165923,"org.eclipse.ui.navigate.openResource",1508137511832
deactivated,workbench,org.eclipse.ui.workbench,3.104.0.v20130204-164612,"",1508137596489
activated,workbench,org.eclipse.ui.workbench,3.104.0.v20130204-164612,"",1508137751830
deactivated,workbench,org.eclipse.ui.workbench,3.104.0.v20130204-164612,"",1508137758663
activated,workbench,org.eclipse.ui.workbench,3.104.0.v20130204-164612,"",1508137770612
deactivated,workbench,org.eclipse.ui.workbench,3.104.0.v20130204-164612,"",1508137772149
activated,workbench,org.eclipse.ui.workbench,3.104.0.v20130204-164612,"",1508138336698
deactivated,workbench,org.eclipse.ui.workbench,3.104.0.v20130204-164612,"",1508138337711
activated,workbench,org.eclipse.ui.workbench,3.104.0.v20130204-164612,"",1508138341957
opened,editor,com.adobe.flexbuilder.mxml.editor,4.7.0.349722,"com.adobe.flexbuilder.editors.mxml.MXMLEditor",1508138342163
activated,editor,com.adobe.flexbuilder.mxml.editor,4.7.0.349722,"com.adobe.flexbuilder.editors.mxml.MXMLEditor",1508138342288
executed,command,org.eclipse.ui.ide,3.8.2.v20121106-165923,"org.eclipse.ui.navigate.openResource",1508138342288
executed,command,org.eclipse.ui,3.104.0.v20121024-145224,"org.eclipse.ui.edit.copy",1508138644518
deactivated,workbench,org.eclipse.ui.workbench,3.104.0.v20130204-164612,"",1508138646404
activated,workbench,org.eclipse.ui.workbench,3.104.0.v20130204-164612,"",1508138647701
executed,command,org.eclipse.search,3.8.0.v20120523-1540,"org.eclipse.search.ui.openSearchDialog",1508138647737
deactivated,workbench,org.eclipse.ui.workbench,3.104.0.v20130204-164612,"",1508138649196
activated,view,org.eclipse.search,3.8.0.v20120523-1540,"org.eclipse.search.ui.views.SearchView",1508138651623
activated,workbench,org.eclipse.ui.workbench,3.104.0.v20130204-164612,"",1508138651842
executed,command,org.eclipse.search,3.8.0.v20120523-1540,"org.eclipse.search.ui.openSearchDialog",1508138651873
started,bundle,org.eclipse.wst.sse.core,1.1.702.v201301241617,"org.eclipse.wst.sse.core",1508138651873
started,bundle,org.eclipse.jst.jsp.core,1.2.502.v201301101836,"org.eclipse.jst.jsp.core",1508138651904
started,bundle,org.eclipse.wst.html.core,1.1.602.v201301032305,"org.eclipse.wst.html.core",1508138652232
deactivated,workbench,org.eclipse.ui.workbench,3.104.0.v20130204-164612,"",1508138652451
started,bundle,org.eclipse.pde.core,3.8.1.v20130115-200504,"org.eclipse.pde.core",1508138652513
activated,workbench,org.eclipse.ui.workbench,3.104.0.v20130204-164612,"",1508138653498
opened,editor,com.adobe.flexbuilder.as.editor,4.7.0.349722,"com.adobe.flexbuilder.editors.actionscript.ActionScriptEditor",1508138665007
activated,editor,com.adobe.flexbuilder.as.editor,4.7.0.349722,"com.adobe.flexbuilder.editors.actionscript.ActionScriptEditor",1508138665116
executed,command,org.eclipse.ui,3.104.0.v20121024-145224,"org.eclipse.ui.edit.copy",1508138673267
deactivated,workbench,org.eclipse.ui.workbench,3.104.0.v20130204-164612,"",1508138673892
executed,command,org.eclipse.ui,3.104.0.v20121024-145224,"org.eclipse.ui.edit.paste",1508138674178
activated,workbench,org.eclipse.ui.workbench,3.104.0.v20130204-164612,"",1508138675201
opened,editor,org.eclipse.jdt.ui,3.8.2.v20130107-165834,"org.eclipse.jdt.ui.CompilationUnitEditor",1508138675947
started,bundle,org.eclipse.jdt.debug,3.7.101.v20120913-153601,"org.eclipse.jdt.debug",1508138676197
started,bundle,org.eclipse.jdt.debug.ui,3.6.100.v20120530-1425,"org.eclipse.jdt.debug.ui",1508138676228
activated,editor,org.eclipse.jdt.ui,3.8.2.v20130107-165834,"org.eclipse.jdt.ui.CompilationUnitEditor",1508138676244
executed,command,org.eclipse.ui.ide,3.8.2.v20121106-165923,"org.eclipse.ui.navigate.openResource",1508138676259
started,bundle,org.eclipse.jst.j2ee.ejb,1.1.601.v201210040812,"org.eclipse.jst.j2ee.ejb",1508138676588
started,bundle,org.eclipse.jst.j2ee.jca,1.1.600.v201111012200,"org.eclipse.jst.j2ee.jca",1508138676588
started,bundle,org.eclipse.jst.j2ee.web,1.1.601.v201212130700,"org.eclipse.jst.j2ee.web",1508138676603
started,bundle,org.eclipse.jst.jee.ejb,1.0.301.v201007070821,"org.eclipse.jst.jee.ejb",1508138676603
started,bundle,org.eclipse.jst.jee.web,1.0.301.v201007070907,"org.eclipse.jst.jee.web",1508138676603
started,bundle,org.eclipse.xsd,2.8.1.v20130125-0826,"org.eclipse.xsd",1508138676638
started,bundle,org.eclipse.jdt.apt.core,3.3.500.v20120522-1651,"org.eclipse.jdt.apt.core",1508138677435
started,bundle,org.eclipse.jdt.apt.pluggable.core,1.0.400.v20120522-1651,"org.eclipse.jdt.apt.pluggable.core",1508138677451
started,bundle,org.eclipse.mylyn.java.tasks,3.6.0.v20110608-1400,"org.eclipse.mylyn.java.tasks",1508138699365
started,bundle,org.tigris.subversion.clientadapter.javahl,1.7.10,"org.tigris.subversion.clientadapter.javahl",1508138699365
started,bundle,org.tigris.subversion.clientadapter.svnkit,1.7.9.2,"org.tigris.subversion.clientadapter.svnkit",1508138699380
executed,command,org.eclipse.ui,3.104.0.v20121024-145224,"org.eclipse.ui.edit.copy",1508138699599
started,bundle,org.eclipse.mylyn.ide.ui,3.6.0.v20110608-1400,"org.eclipse.mylyn.ide.ui",1508138702003
started,bundle,org.eclipse.jst.ws.jaxws.ui,1.0.201.v201301072322,"org.eclipse.jst.ws.jaxws.ui",1508138702003
started,bundle,org.eclipse.pde.api.tools,1.0.400.v20120523-2012,"org.eclipse.pde.api.tools",1508138702034
started,bundle,org.eclipse.pde.api.tools.ui,1.0.400.v20120523-2012,"org.eclipse.pde.api.tools.ui",1508138702034
started,bundle,org.eclipse.mylyn.java.ui,3.6.0.v20110608-1400,"org.eclipse.mylyn.java.ui",1508138702050
started,bundle,org.eclipse.mylyn.resources.ui,3.6.0.v20110608-1400,"org.eclipse.mylyn.resources.ui",1508138702458
started,bundle,org.eclipse.jdt.junit,3.7.100.v20120523-1543,"org.eclipse.jdt.junit",1508138704942
started,bundle,org.eclipse.pde.launching,3.6.100.v20120605-203027,"org.eclipse.pde.launching",1508138704942
started,bundle,org.eclipse.ui.views.log,1.0.300.v20120530-1435,"org.eclipse.ui.views.log",1508138704958
started,bundle,org.eclipse.pde.ui,3.7.2.v20130121-093123,"org.eclipse.pde.ui",1508138704958
executed,command,org.eclipse.ui,3.104.0.v20121024-145224,"org.eclipse.ui.edit.cut",1508138709803
executed,command,org.eclipse.ui,3.104.0.v20121024-145224,"org.eclipse.ui.edit.paste",1508138720862
executed,command,org.eclipse.ui,3.104.0.v20121024-145224,"org.eclipse.ui.edit.copy",1508138734407
executed,command,org.eclipse.ui,3.104.0.v20121024-145224,"org.eclipse.ui.edit.paste",1508138739660
executed,command,org.eclipse.ui,3.104.0.v20121024-145224,"org.eclipse.ui.edit.copy",1508138742406
executed,command,org.eclipse.ui,3.104.0.v20121024-145224,"org.eclipse.ui.edit.paste",1508138743110
executed,command,org.eclipse.ui,3.104.0.v20121024-145224,"org.eclipse.ui.edit.copy",1508138746612
executed,command,org.eclipse.ui,3.104.0.v20121024-145224,"org.eclipse.ui.edit.paste",1508138749115
executed,command,org.eclipse.ui,3.104.0.v20121024-145224,"org.eclipse.ui.edit.paste",1508138750438
executed,command,org.eclipse.ui,3.104.0.v20121024-145224,"org.eclipse.ui.edit.copy",1508138752656
executed,command,org.eclipse.ui,3.104.0.v20121024-145224,"org.eclipse.ui.edit.paste",1508138753875
started,bundle,org.eclipse.wb.core.lib,1.1.0.r37x201109091012,"org.eclipse.wb.core.lib",1508138754282
started,bundle,org.eclipse.wb.core,1.1.0.r37x201109091012,"org.eclipse.wb.core",1508138754297
executed,command,org.eclipse.ui,3.104.0.v20121024-145224,"org.eclipse.ui.file.save",1508138754672
deactivated,workbench,org.eclipse.ui.workbench,3.104.0.v20130204-164612,"",1508138755902
activated,workbench,org.eclipse.ui.workbench,3.104.0.v20130204-164612,"",1508139707489
started,bundle,org.eclipse.wb.os,1.1.0.r37x201109091012,"org.eclipse.wb.os",1508139709114
activated,view,org.eclipse.ui.navigator.resources,3.4.400.v20120705-114010,"org.eclipse.ui.navigator.ProjectExplorer",1508139726568
activated,editor,com.adobe.flexbuilder.mxml.editor,4.7.0.349722,"com.adobe.flexbuilder.editors.mxml.MXMLEditor",1508139726897
executed,command,org.eclipse.ui,3.104.0.v20121024-145224,"org.eclipse.ui.edit.copy",1508139742274
deactivated,workbench,org.eclipse.ui.workbench,3.104.0.v20130204-164612,"",1508139742539
executed,command,org.eclipse.ui,3.104.0.v20121024-145224,"org.eclipse.ui.edit.findReplace",1508139742586
activated,workbench,org.eclipse.ui.workbench,3.104.0.v20130204-164612,"",1508139748608
activated,editor,com.adobe.flexbuilder.mxml.editor,4.7.0.349722,"com.adobe.flexbuilder.editors.mxml.MXMLEditor",1508139748608
executed,command,org.eclipse.ui,3.104.0.v20121024-145224,"org.eclipse.ui.edit.copy",1508139749190
deactivated,workbench,org.eclipse.ui.workbench,3.104.0.v20130204-164612,"",1508139750221
executed,command,org.eclipse.ui,3.104.0.v20121024-145224,"org.eclipse.ui.edit.paste",1508139750878
activated,view,org.eclipse.search,3.8.0.v20120523-1540,"org.eclipse.search.ui.views.SearchView",1508139752202
activated,workbench,org.eclipse.ui.workbench,3.104.0.v20130204-164612,"",1508139752233
executed,command,org.eclipse.search,3.8.0.v20120523-1540,"org.eclipse.search.ui.openSearchDialog",1508139752249
error,log,,,"Unhandled event loop exception",1508139752608
deactivated,workbench,org.eclipse.ui.workbench,3.104.0.v20130204-164612,"",1508139752639
activated,workbench,org.eclipse.ui.workbench,3.104.0.v20130204-164612,"",1508139752983
activated,editor,com.adobe.flexbuilder.as.editor,4.7.0.349722,"com.adobe.flexbuilder.editors.actionscript.ActionScriptEditor",1508139758322
error,log,,,"Unhandled event loop exception",1508139758494
activated,view,org.eclipse.ui.navigator.resources,3.4.400.v20120705-114010,"org.eclipse.ui.navigator.ProjectExplorer",1508139779612
activated,editor,org.eclipse.jdt.ui,3.8.2.v20130107-165834,"org.eclipse.jdt.ui.CompilationUnitEditor",1508139779924
deactivated,workbench,org.eclipse.ui.workbench,3.104.0.v20130204-164612,"",1508139843105
activated,workbench,org.eclipse.ui.workbench,3.104.0.v20130204-164612,"",1508139962620
executed,command,org.eclipse.ui,3.104.0.v20121024-145224,"org.eclipse.ui.edit.copy",1508139992734
executed,command,org.eclipse.ui,3.104.0.v20121024-145224,"org.eclipse.ui.edit.paste",1508139996383
executed,command,org.eclipse.ui,3.104.0.v20121024-145224,"org.eclipse.ui.edit.copy",1508140000877
executed,command,org.eclipse.ui,3.104.0.v20121024-145224,"org.eclipse.ui.edit.paste",1508140002574
executed,command,org.eclipse.ui,3.104.0.v20121024-145224,"org.eclipse.ui.edit.paste",1508140003777
executed,command,org.eclipse.ui,3.104.0.v20121024-145224,"org.eclipse.ui.file.save",1508140005067
executed,command,org.eclipse.ui,3.104.0.v20121024-145224,"org.eclipse.ui.file.save",1508140013605
deactivated,workbench,org.eclipse.ui.workbench,3.104.0.v20130204-164612,"",1508140253335
activated,workbench,org.eclipse.ui.workbench,3.104.0.v20130204-164612,"",1508141616104
deactivated,workbench,org.eclipse.ui.workbench,3.104.0.v20130204-164612,"",1508141644606
activated,workbench,org.eclipse.ui.workbench,3.104.0.v20130204-164612,"",1508141698211
