<?xml version="1.0" encoding="UTF-8"?>
<session version="1.0">
<refactoring accessors="true" comment="Delete element from project &apos;pms-dqa-flex&apos;&#x0D;&#x0A;- Original project: &apos;pms-dqa-flex&apos;&#x0D;&#x0A;- Original element: &apos;QaProblemBase.as&apos;" description="Delete element" element1="src/main/flex-model/hk/org/ha/model/pms/dqa/persistence/suppperf/QaProblemBase.as" elements="0" flags="589830" id="org.eclipse.jdt.ui.delete" resources="1" stamp="1501638350053" subPackages="false" version="1.0"/>
</session>